(kicad_pcb (version 20211014) (generator pcbnew)

  (general
    (thickness 1.6)
  )

  (paper "A4")
  (layers
    (0 "F.Cu" signal)
    (31 "B.Cu" signal)
    (32 "B.Adhes" user "B.Adhesive")
    (33 "F.Adhes" user "F.Adhesive")
    (34 "B.Paste" user)
    (35 "F.Paste" user)
    (36 "B.SilkS" user "B.Silkscreen")
    (37 "F.SilkS" user "F.Silkscreen")
    (38 "B.Mask" user)
    (39 "F.Mask" user)
    (40 "Dwgs.User" user "User.Drawings")
    (41 "Cmts.User" user "User.Comments")
    (42 "Eco1.User" user "User.Eco1")
    (43 "Eco2.User" user "User.Eco2")
    (44 "Edge.Cuts" user)
    (45 "Margin" user)
    (46 "B.CrtYd" user "B.Courtyard")
    (47 "F.CrtYd" user "F.Courtyard")
    (48 "B.Fab" user)
    (49 "F.Fab" user)
    (50 "User.1" user)
    (51 "User.2" user)
    (52 "User.3" user)
    (53 "User.4" user)
    (54 "User.5" user)
    (55 "User.6" user)
    (56 "User.7" user)
    (57 "User.8" user)
    (58 "User.9" user)
  )

  (setup
    (stackup
      (layer "F.SilkS" (type "Top Silk Screen"))
      (layer "F.Paste" (type "Top Solder Paste"))
      (layer "F.Mask" (type "Top Solder Mask") (thickness 0.01))
      (layer "F.Cu" (type "copper") (thickness 0.035))
      (layer "dielectric 1" (type "core") (thickness 1.51) (material "FR4") (epsilon_r 4.5) (loss_tangent 0.02))
      (layer "B.Cu" (type "copper") (thickness 0.035))
      (layer "B.Mask" (type "Bottom Solder Mask") (thickness 0.01))
      (layer "B.Paste" (type "Bottom Solder Paste"))
      (layer "B.SilkS" (type "Bottom Silk Screen"))
      (copper_finish "None")
      (dielectric_constraints no)
    )
    (pad_to_mask_clearance 0)
    (aux_axis_origin 100.33 96.52)
    (pcbplotparams
      (layerselection 0x00010fc_ffffffff)
      (disableapertmacros false)
      (usegerberextensions true)
      (usegerberattributes false)
      (usegerberadvancedattributes false)
      (creategerberjobfile false)
      (svguseinch false)
      (svgprecision 6)
      (excludeedgelayer true)
      (plotframeref false)
      (viasonmask false)
      (mode 1)
      (useauxorigin false)
      (hpglpennumber 1)
      (hpglpenspeed 20)
      (hpglpendiameter 15.000000)
      (dxfpolygonmode true)
      (dxfimperialunits true)
      (dxfusepcbnewfont true)
      (psnegative false)
      (psa4output false)
      (plotreference true)
      (plotvalue false)
      (plotinvisibletext false)
      (sketchpadsonfab false)
      (subtractmaskfromsilk true)
      (outputformat 1)
      (mirror false)
      (drillshape 0)
      (scaleselection 1)
      (outputdirectory "/home/pingvin/PROJECTS/Git/another_gaz_car/gas_car/sensor_board/sensor_board/sens_gerber/")
    )
  )

  (net 0 "")
  (net 1 "Net-(C1-Pad1)")
  (net 2 "GND")
  (net 3 "Net-(C3-Pad1)")
  (net 4 "Net-(D1-Pad1)")
  (net 5 "Net-(D1-Pad2)")
  (net 6 "Net-(D2-Pad1)")
  (net 7 "Net-(D2-Pad2)")
  (net 8 "Net-(IC1-Pad3)")
  (net 9 "Net-(IC1-Pad6)")
  (net 10 "Net-(IC1-Pad7)")
  (net 11 "unconnected-(J1-Pad10)")
  (net 12 "Net-(JP2-Pad2)")

  (footprint "Jumper:SolderJumper-2_P1.3mm_Open_Pad1.0x1.5mm" (layer "F.Cu")
    (tedit 5A3EABFC) (tstamp 1599bb13-1bd9-40a7-ae32-9cf0bd6b3492)
    (at 116.952 84.074)
    (descr "SMD Solder Jumper, 1x1.5mm Pads, 0.3mm gap, open")
    (tags "solder jumper open")
    (property "Sheetfile" "sensor_board.kicad_sch")
    (property "Sheetname" "")
    (path "/26a70774-7830-4f13-a9d1-dfa23045d3e2")
    (attr exclude_from_pos_files)
    (fp_text reference "JP1" (at 0 -1.8) (layer "F.SilkS")
      (effects (font (size 1 1) (thickness 0.15)))
      (tstamp 33a89f8c-3e59-4b41-8666-3ba6c0534a57)
    )
    (fp_text value "Jumper_2_Open" (at 0 1.9) (layer "F.Fab")
      (effects (font (size 1 1) (thickness 0.15)))
      (tstamp 5f916944-3e72-4b58-8df4-0e1bb2efe2de)
    )
    (fp_line (start 1.4 -1) (end 1.4 1) (layer "F.SilkS") (width 0.12) (tstamp 5589ba4d-c5e3-4b84-94f0-03d7126374f0))
    (fp_line (start -1.4 -1) (end 1.4 -1) (layer "F.SilkS") (width 0.12) (tstamp 639d21d5-ad47-4828-a521-d6ae5cf7d966))
    (fp_line (start 1.4 1) (end -1.4 1) (layer "F.SilkS") (width 0.12) (tstamp 9a0366ef-4555-4c7a-bcce-c0af03d9cc11))
    (fp_line (start -1.4 1) (end -1.4 -1) (layer "F.SilkS") (width 0.12) (tstamp d1ea3012-b52f-4ce3-af3b-e5c2e1cafd48))
    (fp_line (start -1.65 -1.25) (end -1.65 1.25) (layer "F.CrtYd") (width 0.05) (tstamp 3d7783aa-4664-415c-b6da-3e1d8711fb5f))
    (fp_line (start 1.65 1.25) (end 1.65 -1.25) (layer "F.CrtYd") (width 0.05) (tstamp 7e83892a-820b-437e-b1a3-197cea6b6576))
    (fp_line (start -1.65 -1.25) (end 1.65 -1.25) (layer "F.CrtYd") (width 0.05) (tstamp b1c4f0a0-b9c6-4f6f-81f9-f469eb818bd0))
    (fp_line (start 1.65 1.25) (end -1.65 1.25) (layer "F.CrtYd") (width 0.05) (tstamp d7251022-89ee-4018-ab34-96a331946ba8))
    (pad "1" smd rect (at -0.65 0) (size 1 1.5) (layers "F.Cu" "F.Mask")
      (net 1 "Net-(C1-Pad1)") (pinfunction "A") (pintype "passive") (tstamp 6f701a06-3ce9-402b-a6b9-dd06423eb5c9))
    (pad "2" smd rect (at 0.65 0) (size 1 1.5) (layers "F.Cu" "F.Mask")
      (net 3 "Net-(C3-Pad1)") (pinfunction "B") (pintype "passive") (tstamp f5395860-9947-466b-82ec-918c036e1e40))
  )

  (footprint "Capacitor_SMD:C_0805_2012Metric_Pad1.18x1.45mm_HandSolder" (layer "F.Cu")
    (tedit 5F68FEEF) (tstamp 182f9c69-8db7-435d-aaca-a17f529eedf5)
    (at 117.3265 88.773)
    (descr "Capacitor SMD 0805 (2012 Metric), square (rectangular) end terminal, IPC_7351 nominal with elongated pad for handsoldering. (Body size source: IPC-SM-782 page 76, https://www.pcb-3d.com/wordpress/wp-content/uploads/ipc-sm-782a_amendment_1_and_2.pdf, https://docs.google.com/spreadsheets/d/1BsfQQcO9C6DZCsRaXUlFlo91Tg2WpOkGARC1WS5S8t0/edit?usp=sharing), generated with kicad-footprint-generator")
    (tags "capacitor handsolder")
    (property "Sheetfile" "sensor_board.kicad_sch")
    (property "Sheetname" "")
    (path "/61a8e9e8-f726-4f96-857f-d62190673cbd")
    (attr smd)
    (fp_text reference "C2" (at 0 -1.68) (layer "F.SilkS")
      (effects (font (size 1 1) (thickness 0.15)))
      (tstamp 33e4bb10-02d2-4601-a434-bb0f74fc382b)
    )
    (fp_text value "0.1u" (at 0 1.68) (layer "F.Fab")
      (effects (font (size 1 1) (thickness 0.15)))
      (tstamp 82f545f9-5ead-4a70-a47e-2f2d1a0bd8b6)
    )
    (fp_text user "${REFERENCE}" (at 0 0) (layer "F.Fab")
      (effects (font (size 0.5 0.5) (thickness 0.08)))
      (tstamp e61bd931-3ee2-423e-86f0-a6a55074b8a3)
    )
    (fp_line (start -0.261252 0.735) (end 0.261252 0.735) (layer "F.SilkS") (width 0.12) (tstamp 003b57c9-ddef-45db-843c-b728a4c866e2))
    (fp_line (start -0.261252 -0.735) (end 0.261252 -0.735) (layer "F.SilkS") (width 0.12) (tstamp 9833102d-a7d0-4e39-8eca-ecc7ecaa88ed))
    (fp_line (start -1.88 -0.98) (end 1.88 -0.98) (layer "F.CrtYd") (width 0.05) (tstamp 07e27c88-0faf-4cb5-bada-b622286c3f88))
    (fp_line (start 1.88 -0.98) (end 1.88 0.98) (layer "F.CrtYd") (width 0.05) (tstamp 86e4bad8-bc09-41ec-8662-32a8f739a5bc))
    (fp_line (start 1.88 0.98) (end -1.88 0.98) (layer "F.CrtYd") (width 0.05) (tstamp 95fc697e-9512-489b-b35c-ea53bd363861))
    (fp_line (start -1.88 0.98) (end -1.88 -0.98) (layer "F.CrtYd") (width 0.05) (tstamp 99c5e48a-3a66-4bab-980e-a9a4ced76437))
    (fp_line (start -1 0.625) (end -1 -0.625) (layer "F.Fab") (width 0.1) (tstamp 41308229-3e51-4490-b10a-552b222dabe6))
    (fp_line (start 1 0.625) (end -1 0.625) (layer "F.Fab") (width 0.1) (tstamp b6692c3c-b94b-4c0d-819a-832007de3066))
    (fp_line (start 1 -0.625) (end 1 0.625) (layer "F.Fab") (width 0.1) (tstamp c61817c6-e443-43f0-8bde-ec4e0c71e13d))
    (fp_line (start -1 -0.625) (end 1 -0.625) (layer "F.Fab") (width 0.1) (tstamp f7c4d131-8b70-4dd0-ad32-b8a642d24e4f))
    (pad "1" smd roundrect (at -1.0375 0) (size 1.175 1.45) (layers "F.Cu" "F.Paste" "F.Mask") (roundrect_rratio 0.2127659574)
      (net 1 "Net-(C1-Pad1)") (pintype "passive") (tstamp 2e1557e1-5ff1-4a1c-b224-68a67dfb6c39))
    (pad "2" smd roundrect (at 1.0375 0) (size 1.175 1.45) (layers "F.Cu" "F.Paste" "F.Mask") (roundrect_rratio 0.2127659574)
      (net 2 "GND") (pintype "passive") (tstamp 8c33df81-55f2-49cd-acef-6bd3e26c9ceb))
    (model "${KICAD6_3DMODEL_DIR}/Capacitor_SMD.3dshapes/C_0805_2012Metric.wrl"
      (offset (xyz 0 0 0))
      (scale (xyz 1 1 1))
      (rotate (xyz 0 0 0))
    )
  )

  (footprint "Package_SO:SOIC-8_3.9x4.9mm_P1.27mm" (layer "F.Cu")
    (tedit 5D9F72B1) (tstamp 1f43689a-6934-4dc5-9657-22ba9848855b)
    (at 118.11 78.74 90)
    (descr "SOIC, 8 Pin (JEDEC MS-012AA, https://www.analog.com/media/en/package-pcb-resources/package/pkg_pdf/soic_narrow-r/r_8.pdf), generated with kicad-footprint-generator ipc_gullwing_generator.py")
    (tags "SOIC SO")
    (property "Arrow Part Number" "AS5601-ASOM")
    (property "Arrow Price/Stock" "https://www.arrow.com/en/products/as5601-asom/ams-ag?region=nac")
    (property "Description" "Board Mount Hall Effect / Magnetic Sensors 12-Bit Rotary Sensor Incr Quad 8 to 2048")
    (property "Height" "1.75")
    (property "Manufacturer_Name" "ams")
    (property "Manufacturer_Part_Number" "AS5601-ASOM")
    (property "Mouser Part Number" "985-AS5601-ASOM")
    (property "Mouser Price/Stock" "https://www.mouser.co.uk/ProductDetail/ams/AS5601-ASOM?qs=MCp9h%2F6rlWF%2FHh8EzV31wg%3D%3D")
    (property "Sheetfile" "sensor_board.kicad_sch")
    (property "Sheetname" "")
    (path "/520f670d-f0ee-45a4-9b59-09acfbcf9018")
    (attr smd)
    (fp_text reference "IC1" (at 0 -3.4 90) (layer "F.SilkS")
      (effects (font (size 1 1) (thickness 0.15)))
      (tstamp c2212363-aebc-42f8-9f72-72ca717d2b16)
    )
    (fp_text value "AS5601-ASOM" (at 0 3.4 90) (layer "F.Fab")
      (effects (font (size 1 1) (thickness 0.15)))
      (tstamp e09d5362-68b8-4ccb-bfa3-c2394397b8ee)
    )
    (fp_text user "${REFERENCE}" (at 0 0 90) (layer "F.Fab")
      (effects (font (size 0.98 0.98) (thickness 0.15)))
      (tstamp e57afc10-cb1a-4c96-acd2-8268b6a1a66c)
    )
    (fp_line (start 0 -2.56) (end -3.45 -2.56) (layer "F.SilkS") (width 0.12) (tstamp 24792c53-70e8-4134-a8bc-8c8e5bbef3ab))
    (fp_line (start 0 2.56) (end 1.95 2.56) (layer "F.SilkS") (width 0.12) (tstamp a6927c9d-d643-4db4-b6af-06df54f042df))
    (fp_line (start 0 2.56) (end -1.95 2.56) (layer "F.SilkS") (width 0.12) (tstamp ac2d274a-ec75-478c-83d8-98d60f4e824c))
    (fp_line (start 0 -2.56) (end 1.95 -2.56) (layer "F.SilkS") (width 0.12) (tstamp cb80e649-6154-4fa9-a832-f2f042fc8740))
    (fp_line (start -3.7 2.7) (end 3.7 2.7) (layer "F.CrtYd") (width 0.05) (tstamp 0ad7f7fd-fc89-4256-bb2c-8902f6453cb3))
    (fp_line (start 3.7 2.7) (end 3.7 -2.7) (layer "F.CrtYd") (width 0.05) (tstamp 36bac77b-81b6-4b48-afdf-f493ca1a320a))
    (fp_line (start -3.7 -2.7) (end -3.7 2.7) (layer "F.CrtYd") (width 0.05) (tstamp 5e12922a-fc68-4b83-9e47-6e93e144202a))
    (fp_line (start 3.7 -2.7) (end -3.7 -2.7) (layer "F.CrtYd") (width 0.05) (tstamp 60fe9bb2-8461-436d-aa3b-a8ee12c9f8eb))
    (fp_line (start -0.975 -2.45) (end 1.95 -2.45) (layer "F.Fab") (width 0.1) (tstamp 3298738e-dba0-496d-aa5e-8b69874d63df))
    (fp_line (start 1.95 2.45) (end -1.95 2.45) (layer "F.Fab") (width 0.1) (tstamp 51bd34ac-469c-4e33-8153-c82d6e57b435))
    (fp_line (start -1.95 2.45) (end -1.95 -1.475) (layer "F.Fab") (width 0.1) (tstamp 9cb6e963-a548-4f6b-a215-dc6dfe3e7ef4))
    (fp_line (start -1.95 -1.475) (end -0.975 -2.45) (layer "F.Fab") (width 0.1) (tstamp ed98f6b1-5c11-4b11-a8ec-49071f19522e))
    (fp_line (start 1.95 -2.45) (end 1.95 2.45) (layer "F.Fab") (width 0.1) (tstamp fdaacba8-258f-499e-91b8-b46da330e83b))
    (pad "1" smd roundrect (at -2.475 -1.905 90) (size 1.95 0.6) (layers "F.Cu" "F.Paste" "F.Mask") (roundrect_rratio 0.25)
      (net 1 "Net-(C1-Pad1)") (pinfunction "VDD5V") (pintype "passive") (tstamp 8891592e-1129-4f60-9238-30c8daf980bc))
    (pad "2" smd roundrect (at -2.475 -0.635 90) (size 1.95 0.6) (layers "F.Cu" "F.Paste" "F.Mask") (roundrect_rratio 0.25)
      (net 3 "Net-(C3-Pad1)") (pinfunction "VDD3V3") (pintype "passive") (tstamp 1b2177f3-fecd-46b2-9ca5-9b74aa441fc3))
    (pad "3" smd roundrect (at -2.475 0.635 90) (size 1.95 0.6) (layers "F.Cu" "F.Paste" "F.Mask") (roundrect_rratio 0.25)
      (net 8 "Net-(IC1-Pad3)") (pinfunction "PUSH") (pintype "passive") (tstamp 1235daa7-6d7c-4457-81a8-a24ee9fa92e8))
    (pad "4" smd roundrect (at -2.475 1.905 90) (size 1.95 0.6) (layers "F.Cu" "F.Paste" "F.Mask") (roundrect_rratio 0.25)
      (net 2 "GND") (pinfunction "GND") (pintype "passive") (tstamp 49bc7ae4-b2e4-4bd8-8a2d-ef9607c10481))
    (pad "5" smd roundrect (at 2.475 1.905 90) (size 1.95 0.6) (layers "F.Cu" "F.Paste" "F.Mask") (roundrect_rratio 0.25)
      (net 6 "Net-(D2-Pad1)") (pinfunction "B") (pintype "passive") (tstamp 9706ef65-2608-44b5-9eb5-1a527e98247c))
    (pad "6" smd roundrect (at 2.475 0.635 90) (size 1.95 0.6) (layers "F.Cu" "F.Paste" "F.Mask") (roundrect_rratio 0.25)
      (net 9 "Net-(IC1-Pad6)") (pinfunction "SDA") (pintype "passive") (tstamp a4aecafa-09a1-4507-ac17-4cc9327031a9))
    (pad "7" smd roundrect (at 2.475 -0.635 90) (size 1.95 0.6) (layers "F.Cu" "F.Paste" "F.Mask") (roundrect_rratio 0.25)
      (net 10 "Net-(IC1-Pad7)") (pinfunction "SCL") (pintype "passive") (tstamp ef2b89c1-75c2-48fd-a16d-88167130657c))
    (pad "8" smd roundrect (at 2.475 -1.905 90) (size 1.95 0.6) (layers "F.Cu" "F.Paste" "F.Mask") (roundrect_rratio 0.25)
      (net 4 "Net-(D1-Pad1)") (pinfunction "A") (pintype "passive") (tstamp 53132aaa-0efc-46ba-87bb-df276bc95e33))
    (model "${KICAD6_3DMODEL_DIR}/Package_SO.3dshapes/SOIC-8_3.9x4.9mm_P1.27mm.wrl"
      (offset (xyz 0 0 0))
      (scale (xyz 1 1 1))
      (rotate (xyz 0 0 0))
    )
  )

  (footprint "Capacitor_SMD:C_0805_2012Metric_Pad1.18x1.45mm_HandSolder" (layer "F.Cu")
    (tedit 5F68FEEF) (tstamp aaf362d1-65a7-477c-8398-6623c9359bf4)
    (at 120.3745 84.074)
    (descr "Capacitor SMD 0805 (2012 Metric), square (rectangular) end terminal, IPC_7351 nominal with elongated pad for handsoldering. (Body size source: IPC-SM-782 page 76, https://www.pcb-3d.com/wordpress/wp-content/uploads/ipc-sm-782a_amendment_1_and_2.pdf, https://docs.google.com/spreadsheets/d/1BsfQQcO9C6DZCsRaXUlFlo91Tg2WpOkGARC1WS5S8t0/edit?usp=sharing), generated with kicad-footprint-generator")
    (tags "capacitor handsolder")
    (property "Sheetfile" "sensor_board.kicad_sch")
    (property "Sheetname" "")
    (path "/fdec2b4a-5a22-437e-92e4-682370f5866f")
    (attr smd)
    (fp_text reference "C3" (at 0 -1.68) (layer "F.SilkS")
      (effects (font (size 1 1) (thickness 0.15)))
      (tstamp bc66b009-93ee-4f35-b4c0-2243145dcce2)
    )
    (fp_text value "1u" (at 0 1.68) (layer "F.Fab")
      (effects (font (size 1 1) (thickness 0.15)))
      (tstamp 55e19076-5c62-40bd-8f25-b945700a93ec)
    )
    (fp_text user "${REFERENCE}" (at 0 0) (layer "F.Fab")
      (effects (font (size 0.5 0.5) (thickness 0.08)))
      (tstamp 0fb6564e-6707-4e6d-ad94-3b5da9d4b52c)
    )
    (fp_line (start -0.261252 0.735) (end 0.261252 0.735) (layer "F.SilkS") (width 0.12) (tstamp 08082357-c82a-4f1e-9589-b8fd58ae053b))
    (fp_line (start -0.261252 -0.735) (end 0.261252 -0.735) (layer "F.SilkS") (width 0.12) (tstamp ce86a220-9ae1-403f-82a4-9b848e214fdc))
    (fp_line (start 1.88 -0.98) (end 1.88 0.98) (layer "F.CrtYd") (width 0.05) (tstamp 44ba7a43-0634-4585-aaa6-40db66c96d5d))
    (fp_line (start -1.88 0.98) (end -1.88 -0.98) (layer "F.CrtYd") (width 0.05) (tstamp 47558f40-7c15-4a71-a867-c93502faf741))
    (fp_line (start -1.88 -0.98) (end 1.88 -0.98) (layer "F.CrtYd") (width 0.05) (tstamp 66a5db3d-b8a6-4cfb-8726-7823b4000343))
    (fp_line (start 1.88 0.98) (end -1.88 0.98) (layer "F.CrtYd") (width 0.05) (tstamp f8ceab68-07cf-487f-a36d-28042b31c200))
    (fp_line (start 1 0.625) (end -1 0.625) (layer "F.Fab") (width 0.1) (tstamp 25a60f9d-4a1e-4ad7-9796-231120996ebf))
    (fp_line (start -1 -0.625) (end 1 -0.625) (layer "F.Fab") (width 0.1) (tstamp 3946d77d-8e0a-4977-b649-1a2c53c9348b))
    (fp_line (start -1 0.625) (end -1 -0.625) (layer "F.Fab") (width 0.1) (tstamp 76c10271-7867-424c-aa34-42651f8d81ee))
    (fp_line (start 1 -0.625) (end 1 0.625) (layer "F.Fab") (width 0.1) (tstamp c3c65b37-fc5d-4e08-8f12-a505041fb55c))
    (pad "1" smd roundrect (at -1.0375 0) (size 1.175 1.45) (layers "F.Cu" "F.Paste" "F.Mask") (roundrect_rratio 0.2127659574)
      (net 3 "Net-(C3-Pad1)") (pintype "passive") (tstamp 6d7e88f4-f56c-430c-93b1-79d32899ce66))
    (pad "2" smd roundrect (at 1.0375 0) (size 1.175 1.45) (layers "F.Cu" "F.Paste" "F.Mask") (roundrect_rratio 0.2127659574)
      (net 2 "GND") (pintype "passive") (tstamp eda2e5e5-1ff9-4af5-ba7d-bbb04839a006))
    (model "${KICAD6_3DMODEL_DIR}/Capacitor_SMD.3dshapes/C_0805_2012Metric.wrl"
      (offset (xyz 0 0 0))
      (scale (xyz 1 1 1))
      (rotate (xyz 0 0 0))
    )
  )

  (footprint "Capacitor_SMD:C_0805_2012Metric_Pad1.18x1.45mm_HandSolder" (layer "F.Cu")
    (tedit 5F68FEEF) (tstamp d1c1cb20-1593-4987-adc1-f9b94736198c)
    (at 117.3265 86.487)
    (descr "Capacitor SMD 0805 (2012 Metric), square (rectangular) end terminal, IPC_7351 nominal with elongated pad for handsoldering. (Body size source: IPC-SM-782 page 76, https://www.pcb-3d.com/wordpress/wp-content/uploads/ipc-sm-782a_amendment_1_and_2.pdf, https://docs.google.com/spreadsheets/d/1BsfQQcO9C6DZCsRaXUlFlo91Tg2WpOkGARC1WS5S8t0/edit?usp=sharing), generated with kicad-footprint-generator")
    (tags "capacitor handsolder")
    (property "Sheetfile" "sensor_board.kicad_sch")
    (property "Sheetname" "")
    (path "/64dde65e-6390-4255-a298-84a1d90151e7")
    (attr smd)
    (fp_text reference "C1" (at 0 -1.68) (layer "F.SilkS")
      (effects (font (size 1 1) (thickness 0.15)))
      (tstamp ee6eb6af-8eca-48a3-b3a1-c6f526ddcf3f)
    )
    (fp_text value "10u" (at 0 1.68) (layer "F.Fab")
      (effects (font (size 1 1) (thickness 0.15)))
      (tstamp 7601a937-670d-43bb-b4ea-c07ea7db59af)
    )
    (fp_text user "${REFERENCE}" (at 0 0) (layer "F.Fab")
      (effects (font (size 0.5 0.5) (thickness 0.08)))
      (tstamp 5b4a5e31-6deb-4eb5-91a0-f533f64b0332)
    )
    (fp_line (start -0.261252 -0.735) (end 0.261252 -0.735) (layer "F.SilkS") (width 0.12) (tstamp 276fa551-e3dd-4c78-bb9e-fc195daeb946))
    (fp_line (start -0.261252 0.735) (end 0.261252 0.735) (layer "F.SilkS") (width 0.12) (tstamp 3f771162-b12d-478b-80c6-74fabd7204db))
    (fp_line (start 1.88 -0.98) (end 1.88 0.98) (layer "F.CrtYd") (width 0.05) (tstamp 39463b36-99b7-4288-9bdf-67374f8220fb))
    (fp_line (start 1.88 0.98) (end -1.88 0.98) (layer "F.CrtYd") (width 0.05) (tstamp 5b64044c-bce7-463a-8910-9f0ca4f93169))
    (fp_line (start -1.88 0.98) (end -1.88 -0.98) (layer "F.CrtYd") (width 0.05) (tstamp 8f0875c5-c468-486b-a17c-9ed8de86d127))
    (fp_line (start -1.88 -0.98) (end 1.88 -0.98) (layer "F.CrtYd") (width 0.05) (tstamp ca7ff511-70aa-4850-a334-a8007d17d343))
    (fp_line (start 1 0.625) (end -1 0.625) (layer "F.Fab") (width 0.1) (tstamp 20a1e47d-4d93-4ed6-8a53-18e2694f3d81))
    (fp_line (start 1 -0.625) (end 1 0.625) (layer "F.Fab") (width 0.1) (tstamp 79c219e2-80d4-445f-b531-5f0f4c83463a))
    (fp_line (start -1 -0.625) (end 1 -0.625) (layer "F.Fab") (width 0.1) (tstamp 84f646c1-1e8b-4fa5-9059-ded69ba2abd1))
    (fp_line (start -1 0.625) (end -1 -0.625) (layer "F.Fab") (width 0.1) (tstamp f034aadd-4093-46b3-b7cf-8ce7878104aa))
    (pad "1" smd roundrect (at -1.0375 0) (size 1.175 1.45) (layers "F.Cu" "F.Paste" "F.Mask") (roundrect_rratio 0.2127659574)
      (net 1 "Net-(C1-Pad1)") (pintype "passive") (tstamp b65b86a8-cd4a-43dc-ab9a-e67e785ee6f9))
    (pad "2" smd roundrect (at 1.0375 0) (size 1.175 1.45) (layers "F.Cu" "F.Paste" "F.Mask") (roundrect_rratio 0.2127659574)
      (net 2 "GND") (pintype "passive") (tstamp 73ce3125-4308-4471-a29b-f8473b19de20))
    (model "${KICAD6_3DMODEL_DIR}/Capacitor_SMD.3dshapes/C_0805_2012Metric.wrl"
      (offset (xyz 0 0 0))
      (scale (xyz 1 1 1))
      (rotate (xyz 0 0 0))
    )
  )

  (footprint "Connector_IDC:IDC-Header_2x05_P2.54mm_Vertical" (layer "F.Cu")
    (tedit 5EAC9A07) (tstamp f8f212d3-176e-459c-a3d0-7c90cc631048)
    (at 109.2295 72.263)
    (descr "Through hole IDC box header, 2x05, 2.54mm pitch, DIN 41651 / IEC 60603-13, double rows, https://docs.google.com/spreadsheets/d/16SsEcesNF15N3Lb4niX7dcUr-NY5_MFPQhobNuNppn4/edit#gid=0")
    (tags "Through hole vertical IDC box header THT 2x05 2.54mm double row")
    (property "Sheetfile" "sensor_board.kicad_sch")
    (property "Sheetname" "")
    (path "/bbb941b7-003e-417c-8792-429b13814413")
    (attr through_hole)
    (fp_text reference "J1" (at 1.27 -6.1) (layer "F.SilkS")
      (effects (font (size 1 1) (thickness 0.15)))
      (tstamp bd9d236e-5896-4965-83d1-e32706a9be50)
    )
    (fp_text value "Conn_02x05_Odd_Even" (at 1.27 16.26) (layer "F.Fab")
      (effects (font (size 1 1) (thickness 0.15)))
      (tstamp 17fb280f-e4fb-4c05-9ee6-319188f476ef)
    )
    (fp_text user "${REFERENCE}" (at 1.27 5.08 90) (layer "F.Fab")
      (effects (font (size 1 1) (thickness 0.15)))
      (tstamp 42923248-2ca3-46a2-830c-e0aa7ac3aa88)
    )
    (fp_line (start 5.83 -5.21) (end 5.83 15.37) (layer "F.SilkS") (width 0.12) (tstamp 22f9f9da-9c14-476b-ad2f-9b02e68b2600))
    (fp_line (start -4.68 -0.5) (end -4.68 0.5) (layer "F.SilkS") (width 0.12) (tstamp 294eb73e-1e4e-4d4f-beb7-f8f3cb64888c))
    (fp_line (start -4.68 0.5) (end -3.68 0) (layer "F.SilkS") (width 0.12) (tstamp 2c8e6a75-8747-47bf-bd2c-abfb9e253159))
    (fp_line (start -3.68 0) (end -4.68 -0.5) (layer "F.SilkS") (width 0.12) (tstamp 371c8791-448f-42b1-b2a4-9f50635b844d))
    (fp_line (start 4.52 -3.91) (end 4.52 14.07) (layer "F.SilkS") (width 0.12) (tstamp 3a798cb0-3387-4542-b035-49811cb7d0fe))
    (fp_line (start -1.98 3.03) (end -1.98 -3.91) (layer "F.SilkS") (width 0.12) (tstamp 5102fe54-7dba-415a-99ec-8f058550f2f9))
    (fp_line (start -1.98 7.13) (end -3.29 7.13) (layer "F.SilkS") (width 0.12) (tstamp 5a51fa21-71b3-4e0a-80ce-65c6ada09478))
    (fp_line (start 5.83 15.37) (end -3.29 15.37) (layer "F.SilkS") (width 0.12) (tstamp 7bb6cabb-f8c2-4ec9-83f2-3cae863b8ab3))
    (fp_line (start -3.29 -5.21) (end 5.83 -5.21) (layer "F.SilkS") (width 0.12) (tstamp 87c8fd29-6e02-4f6a-8c61-9075296b1eab))
    (fp_line (start 4.52 14.07) (end -1.98 14.07) (layer "F.SilkS") (width 0.12) (tstamp bc3c58af-f142-4873-80f9-09a4d5d0b16b))
    (fp_line (start -1.98 -3.91) (end 4.52 -3.91) (layer "F.SilkS") (width 0.12) (tstamp c5c9d21c-e0ce-46b0-afb8-739ca300d536))
    (fp_line (start -1.98 7.13) (end -1.98 7.13) (layer "F.SilkS") (width 0.12) (tstamp cc33f0ce-79ff-43e0-817a-887a74fad6bf))
    (fp_line (start -1.98 14.07) (end -1.98 7.13) (layer "F.SilkS") (width 0.12) (tstamp dc20d0bb-d1c2-4d69-a0d0-15b637529c10))
    (fp_line (start -3.29 3.03) (end -1.98 3.03) (layer "F.SilkS") (width 0.12) (tstamp f199b320-8762-4bb3-925e-221fb2d1f013))
    (fp_line (start -3.29 15.37) (end -3.29 -5.21) (layer "F.SilkS") (width 0.12) (tstamp fb42c863-f93c-4872-8d58-d8b6c9c720b7))
    (fp_line (start 6.22 -5.6) (end -3.68 -5.6) (layer "F.CrtYd") (width 0.05) (tstamp 41b34425-ea88-4ddd-975d-f9d625318caa))
    (fp_line (start -3.68 -5.6) (end -3.68 15.76) (layer "F.CrtYd") (width 0.05) (tstamp 53d593ac-216c-4f9e-9f35-df1ada42ac63))
    (fp_line (start 6.22 15.76) (end 6.22 -5.6) (layer "F.CrtYd") (width 0.05) (tstamp 95a6d829-ad7f-411e-a7d7-f14ee5609391))
    (fp_line (start -3.68 15.76) (end 6.22 15.76) (layer "F.CrtYd") (width 0.05) (tstamp cc7b081b-3559-43e9-b865-f6e51a85725f))
    (fp_line (start -1.98 7.13) (end -1.98 7.13) (layer "F.Fab") (width 0.1) (tstamp 1923929f-aa0f-40cf-882e-1a7c57be6f75))
    (fp_line (start -1.98 -3.91) (end 4.52 -3.91) (layer "F.Fab") (width 0.1) (tstamp 23192ce8-eb95-4c38-b624-1cb30e87cf3e))
    (fp_line (start -1.98 14.07) (end -1.98 7.13) (layer "F.Fab") (width 0.1) (tstamp 261def3a-7522-44d9-bf3f-c6692391ac47))
    (fp_line (start -1.98 7.13) (end -3.18 7.13) (layer "F.Fab") (width 0.1) (tstamp 289e6b60-5172-4390-b063-7684484753e6))
    (fp_line (start 5.72 15.26) (end -3.18 15.26) (layer "F.Fab") (width 0.1) (tstamp 4501811e-76a1-4997-8602-a8e82f28366a))
    (fp_line (start -3.18 3.03) (end -1.98 3.03) (layer "F.Fab") (width 0.1) (tstamp 58f07b7f-522c-4463-98ae-70afe8486a47))
    (fp_line (start -3.18 -4.1) (end -2.18 -5.1) (layer "F.Fab") (width 0.1) (tstamp 5c0f0e69-1165-4f96-92ef-e023df7fc183))
    (fp_line (start 4.52 -3.91) (end 4.52 14.07) (layer "F.Fab") (width 0.1) (tstamp 625427da-8b6d-49a8-888c-45732d7ed9e3))
    (fp_line (start 5.72 -5.1) (end 5.72 15.26) (layer "F.Fab") (width 0.1) (tstamp 70031dbd-5395-4e21-a68b-afdd5681d725))
    (fp_line (start -2.18 -5.1) (end 5.72 -5.1) (layer "F.Fab") (width 0.1) (tstamp 7afb587f-080d-45d3-af86-c7370b433024))
    (fp_line (start -3.18 15.26) (end -3.18 -4.1) (layer "F.Fab") (width 0.1) (tstamp 7b14213e-f1d4-4494-988c-4853d8611aaf))
    (fp_line (start 4.52 14.07) (end -1.98 14.07) (layer "F.Fab") (width 0.1) (tstamp c5902159-1273-49c0-bbc1-ca8c2e5a8881))
    (fp_line (start -1.98 3.03) (end -1.98 -3.91) (layer "F.Fab") (width 0.1) (tstamp d04a761c-88e0-43c6-bf8a-91adf9a2dda1))
    (pad "1" thru_hole roundrect (at 0 0) (size 1.7 1.7) (drill 1) (layers *.Cu *.Mask) (roundrect_rratio 0.1470588235)
      (net 1 "Net-(C1-Pad1)") (pinfunction "Pin_1") (pintype "passive") (tstamp c36a62a5-65b9-445a-8643-e4346d4f1494))
    (pad "2" thru_hole circle (at 2.54 0) (size 1.7 1.7) (drill 1) (layers *.Cu *.Mask)
      (net 1 "Net-(C1-Pad1)") (pinfunction "Pin_2") (pintype "passive") (tstamp d1a70e0a-7e8f-478f-bc69-1b4411971695))
    (pad "3" thru_hole circle (at 0 2.54) (size 1.7 1.7) (drill 1) (layers *.Cu *.Mask)
      (net 9 "Net-(IC1-Pad6)") (pinfunction "Pin_3") (pintype "passive") (tstamp f013aa6a-badd-4aff-ab15-72462d02fa4b))
    (pad "4" thru_hole circle (at 2.54 2.54) (size 1.7 1.7) (drill 1) (layers *.Cu *.Mask)
      (net 4 "Net-(D1-Pad1)") (pinfunction "Pin_4") (pintype "passive") (tstamp da7c29c8-67af-4714-9181-76a1e4432c63))
    (pad "5" thru_hole circle (at 0 5.08) (size 1.7 1.7) (drill 1) (layers *.Cu *.Mask)
      (net 2 "GND") (pinfunction "Pin_5") (pintype "passive") (tstamp a1248afb-aeae-4459-8ee4-942710f043b1))
    (pad "6" thru_hole circle (at 2.54 5.08) (size 1.7 1.7) (drill 1) (layers *.Cu *.Mask)
      (net 2 "GND") (pinfunction "Pin_6") (pintype "passive") (tstamp e7e59261-0bee-4466-bfb7-35bf911e95cd))
    (pad "7" thru_hole circle (at 0 7.62) (size 1.7 1.7) (drill 1) (layers *.Cu *.Mask)
      (net 10 "Net-(IC1-Pad7)") (pinfunction "Pin_7") (pintype "passive") (tstamp c3bf779f-9acc-4df6-bf5d-dc6da5092f7f))
    (pad "8" thru_hole circle (at 2.54 7.62) (size 1.7 1.7) (drill 1) (layers *.Cu *.Mask)
      (net 6 "Net-(D2-Pad1)") (pinfunction "Pin_8") (pintype "passive") (tstamp 0771d6f1-3bc7-4a7d-a9e8-d3b1b9ab9265))
    (pad "9" thru_hole circle (at 0 10.16) (size 1.7 1.7) (drill 1) (layers *.Cu *.Mask)
      (net 8 "Net-(IC1-Pad3)") (pinfunction "Pin_9") (pintype "passive") (tstamp 127160e1-cec4-43a9-aed7-ccd0111c43f1))
    (pad "10" thru_hole circle (at 2.54 10.16) (size 1.7 1.7) (drill 1) (layers *.Cu *.Mask)
      (net 11 "unconnected-(J1-Pad10)") (pinfunction "Pin_10") (pintype "passive") (tstamp 0dc53d6e-e492-415c-b0bc-cdf1d25e8a7c))
    (model "${KICAD6_3DMODEL_DIR}/Connector_IDC.3dshapes/IDC-Header_2x05_P2.54mm_Vertical.wrl"
      (offset (xyz 0 0 0))
      (scale (xyz 1 1 1))
      (rotate (xyz 0 0 0))
    )
  )

  (footprint "LED_SMD:LED_0603_1608Metric_Pad1.05x0.95mm_HandSolder" (layer "B.Cu")
    (tedit 5F68FEF1) (tstamp 1ab153f7-fe2c-4268-9369-aa595c4a70d5)
    (at 123.049 69.215)
    (descr "LED SMD 0603 (1608 Metric), square (rectangular) end terminal, IPC_7351 nominal, (Body size source: http://www.tortai-tech.com/upload/download/2011102023233369053.pdf), generated with kicad-footprint-generator")
    (tags "LED handsolder")
    (property "Sheetfile" "sensor_board.kicad_sch")
    (property "Sheetname" "")
    (path "/3753edd1-78b1-4365-a4f3-e341559a8615")
    (attr smd)
    (fp_text reference "D1" (at 0 1.43) (layer "B.SilkS")
      (effects (font (size 1 1) (thickness 0.15)) (justify mirror))
      (tstamp 736e4d3a-05ac-47bb-8198-40c0eb4cbe0d)
    )
    (fp_text value "A" (at 0 -1.43) (layer "B.Fab")
      (effects (font (size 1 1) (thickness 0.15)) (justify mirror))
      (tstamp 446658c8-b9ce-4eb4-850a-373bf2ba462e)
    )
    (fp_text user "${REFERENCE}" (at 0 0) (layer "B.Fab")
      (effects (font (size 0.4 0.4) (thickness 0.06)) (justify mirror))
      (tstamp dd88e9c7-d09c-44f1-b419-0dc39417f8b4)
    )
    (fp_line (start -1.66 -0.735) (end 0.8 -0.735) (layer "B.SilkS") (width 0.12) (tstamp 17d45769-69e9-40d4-823d-c9d7fccf5337))
    (fp_line (start 0.8 0.735) (end -1.66 0.735) (layer "B.SilkS") (width 0.12) (tstamp 1aefc8b1-9f82-48df-a0ab-8bcd405c3625))
    (fp_line (start -1.66 0.735) (end -1.66 -0.735) (layer "B.SilkS") (width 0.12) (tstamp cb71104c-e492-4218-9d25-0e2a76484d79))
    (fp_line (start -1.65 -0.73) (end -1.65 0.73) (layer "B.CrtYd") (width 0.05) (tstamp 367eebe1-0794-49ae-b733-926d93468c83))
    (fp_line (start 1.65 0.73) (end 1.65 -0.73) (layer "B.CrtYd") (width 0.05) (tstamp 971e4440-72d4-4b26-89a8-35a841a1d452))
    (fp_line (start 1.65 -0.73) (end -1.65 -0.73) (layer "B.CrtYd") (width 0.05) (tstamp a2804b8f-90fc-48b2-9672-f303d6309b57))
    (fp_line (start -1.65 0.73) (end 1.65 0.73) (layer "B.CrtYd") (width 0.05) (tstamp f9a8d2e7-1afe-45ad-810d-da0ae2cf5e9f))
    (fp_line (start 0.8 0.4) (end -0.5 0.4) (layer "B.Fab") (width 0.1) (tstamp 5bb4df84-2c2a-490d-a735-689aa541b25e))
    (fp_line (start -0.5 0.4) (end -0.8 0.1) (layer "B.Fab") (width 0.1) (tstamp 97520b6f-d0ed-48b9-9ea0-43c6aab9c3e6))
    (fp_line (start 0.8 -0.4) (end 0.8 0.4) (layer "B.Fab") (width 0.1) (tstamp d14431d6-b7ea-4088-97b4-c624610c0817))
    (fp_line (start -0.8 -0.4) (end 0.8 -0.4) (layer "B.Fab") (width 0.1) (tstamp d2cb36bd-4c1a-4c3f-be4d-6d97c3cabc07))
    (fp_line (start -0.8 0.1) (end -0.8 -0.4) (layer "B.Fab") (width 0.1) (tstamp eaaa0c46-a4c1-4c64-80b9-6c2a9c0937ca))
    (pad "1" smd roundrect (at -0.875 0) (size 1.05 0.95) (layers "B.Cu" "B.Paste" "B.Mask") (roundrect_rratio 0.25)
      (net 4 "Net-(D1-Pad1)") (pinfunction "K") (pintype "passive") (tstamp 886acd5a-a8ef-438b-99a1-b835bc10312b))
    (pad "2" smd roundrect (at 0.875 0) (size 1.05 0.95) (layers "B.Cu" "B.Paste" "B.Mask") (roundrect_rratio 0.25)
      (net 5 "Net-(D1-Pad2)") (pinfunction "A") (pintype "passive") (tstamp c4972a52-a1f3-44ab-9b5a-a4cb174188b5))
    (model "${KICAD6_3DMODEL_DIR}/LED_SMD.3dshapes/LED_0603_1608Metric.wrl"
      (offset (xyz 0 0 0))
      (scale (xyz 1 1 1))
      (rotate (xyz 0 0 0))
    )
  )

  (footprint "Jumper:SolderJumper-3_P1.3mm_Open_Pad1.0x1.5mm" (layer "B.Cu")
    (tedit 5A3F8BB2) (tstamp 7b942da4-068e-4158-9857-4975dccb22ae)
    (at 128.524 76.708)
    (descr "SMD Solder 3-pad Jumper, 1x1.5mm Pads, 0.3mm gap, open")
    (tags "solder jumper open")
    (property "Sheetfile" "sensor_board.kicad_sch")
    (property "Sheetname" "")
    (path "/3bee9483-ab78-4b8a-acce-7b24e04e6ea7")
    (attr exclude_from_pos_files)
    (fp_text reference "JP2" (at 0 1.8) (layer "B.SilkS")
      (effects (font (size 1 1) (thickness 0.15)) (justify mirror))
      (tstamp b01d190e-cd89-48d3-a1b3-fd62cad5c251)
    )
    (fp_text value "SolderJumper_3_Open" (at 0 -2) (layer "B.Fab")
      (effects (font (size 1 1) (thickness 0.15)) (justify mirror))
      (tstamp cb3aa6b7-18ba-4af6-9de1-132478fa7fbc)
    )
    (fp_line (start 2.05 -1) (end -2.05 -1) (layer "B.SilkS") (width 0.12) (tstamp 2e5b1918-38f4-45fe-8078-4984fe0d14c2))
    (fp_line (start -2.05 1) (end 2.05 1) (layer "B.SilkS") (width 0.12) (tstamp 386ab548-c383-4fa7-8605-aabcdd7078c5))
    (fp_line (start -1.3 -1.2) (end -1.6 -1.5) (layer "B.SilkS") (width 0.12) (tstamp 7cebf5dc-312e-4a8e-ab28-ed3ccc08bb55))
    (fp_line (start 2.05 1) (end 2.05 -1) (layer "B.SilkS") (width 0.12) (tstamp 893af22c-834d-49a9-a53a-7fc13a28443b))
    (fp_line (start -1.6 -1.5) (end -1 -1.5) (layer "B.SilkS") (width 0.12) (tstamp 9eebf6b3-72a8-4f4e-874f-5a9eaa57c660))
    (fp_line (start -1.3 -1.2) (end -1 -1.5) (layer "B.SilkS") (width 0.12) (tstamp e41cc8b9-d36e-40bc-9f3e-f8aa1e2ba00a))
    (fp_line (start -2.05 -1) (end -2.05 1) (layer "B.SilkS") (width 0.12) (tstamp ec146138-2f6f-4a1d-88a0-0944e5e48c2f))
    (fp_line (start -2.3 1.25) (end -2.3 -1.25) (layer "B.CrtYd") (width 0.05) (tstamp 0623b2ae-394a-4d3a-b565-868a5f2464fd))
    (fp_line (start -2.3 1.25) (end 2.3 1.25) (layer "B.CrtYd") (width 0.05) (tstamp 158460c6-8d5b-41df-998f-b4ffb6c2d275))
    (fp_line (start 2.3 -1.25) (end 2.3 1.25) (layer "B.CrtYd") (width 0.05) (tstamp e0bea8af-9ea8-427e-815b-45b9fb071e8e))
    (fp_line (start 2.3 -1.25) (end -2.3 -1.25) (layer "B.CrtYd") (width 0.05) (tstamp eb418a8c-f286-461f-85f1-f87f3a55af12))
    (pad "1" smd rect (at -1.3 0) (size 1 1.5) (layers "B.Cu" "B.Mask")
      (net 1 "Net-(C1-Pad1)") (pinfunction "A") (pintype "passive") (tstamp 45d62903-8c39-464f-8219-3b62d49d83ac))
    (pad "2" smd rect (at 0 0) (size 1 1.5) (layers "B.Cu" "B.Mask")
      (net 12 "Net-(JP2-Pad2)") (pinfunction "C") (pintype "passive") (tstamp 3a09342e-0955-48a7-a74f-a5ed4460e218))
    (pad "3" smd rect (at 1.3 0) (size 1 1.5) (layers "B.Cu" "B.Mask")
      (net 3 "Net-(C3-Pad1)") (pinfunction "B") (pintype "passive") (tstamp 16d2f369-b0e8-48e7-8ed4-76f54170fd17))
  )

  (footprint "LED_SMD:LED_0603_1608Metric_Pad1.05x0.95mm_HandSolder" (layer "B.Cu")
    (tedit 5F68FEF1) (tstamp 97de73a6-c523-4fc1-826b-ad675dfa49d7)
    (at 123.077 72.644)
    (descr "LED SMD 0603 (1608 Metric), square (rectangular) end terminal, IPC_7351 nominal, (Body size source: http://www.tortai-tech.com/upload/download/2011102023233369053.pdf), generated with kicad-footprint-generator")
    (tags "LED handsolder")
    (property "Sheetfile" "sensor_board.kicad_sch")
    (property "Sheetname" "")
    (path "/212f644f-60c6-4202-9a30-524e657799ed")
    (attr smd)
    (fp_text reference "D2" (at 0 1.43) (layer "B.SilkS")
      (effects (font (size 1 1) (thickness 0.15)) (justify mirror))
      (tstamp bad593ca-1537-49c6-af36-e6b485cf1f37)
    )
    (fp_text value "B" (at 0 -1.43) (layer "B.Fab")
      (effects (font (size 1 1) (thickness 0.15)) (justify mirror))
      (tstamp 7683f588-ec28-44fb-a9ee-ebfe619a4e4a)
    )
    (fp_text user "${REFERENCE}" (at 0 0) (layer "B.Fab")
      (effects (font (size 0.4 0.4) (thickness 0.06)) (justify mirror))
      (tstamp 20c3306c-453d-4168-b102-a201d6d20d0e)
    )
    (fp_line (start 0.8 0.735) (end -1.66 0.735) (layer "B.SilkS") (width 0.12) (tstamp 30c03cbc-e382-424e-a5f7-114f5563c9aa))
    (fp_line (start -1.66 0.735) (end -1.66 -0.735) (layer "B.SilkS") (width 0.12) (tstamp 7835de76-e6cd-4928-bde1-e663c6af9ae3))
    (fp_line (start -1.66 -0.735) (end 0.8 -0.735) (layer "B.SilkS") (width 0.12) (tstamp 88343da8-535a-43c6-9a04-65c67ddb2214))
    (fp_line (start 1.65 0.73) (end 1.65 -0.73) (layer "B.CrtYd") (width 0.05) (tstamp 1d1e5a2a-0a6c-4d31-8e6d-19d2f4c1c851))
    (fp_line (start -1.65 -0.73) (end -1.65 0.73) (layer "B.CrtYd") (width 0.05) (tstamp 821f4196-b4fc-44c8-996d-ab2d40f26d39))
    (fp_line (start -1.65 0.73) (end 1.65 0.73) (layer "B.CrtYd") (width 0.05) (tstamp 94bfb0eb-0359-4bc8-8b2e-589667144a69))
    (fp_line (start 1.65 -0.73) (end -1.65 -0.73) (layer "B.CrtYd") (width 0.05) (tstamp c95fe57a-0307-48b8-bf33-aaf45966e20c))
    (fp_line (start 0.8 -0.4) (end 0.8 0.4) (layer "B.Fab") (width 0.1) (tstamp 0b36fd14-d963-4be7-8ffd-baa542d42398))
    (fp_line (start -0.8 0.1) (end -0.8 -0.4) (layer "B.Fab") (width 0.1) (tstamp 1076eff9-f44c-4bba-8d9d-5766afa19dd1))
    (fp_line (start -0.5 0.4) (end -0.8 0.1) (layer "B.Fab") (width 0.1) (tstamp 4b2e8cff-5e9f-446c-bb33-763dcb6a2fef))
    (fp_line (start 0.8 0.4) (end -0.5 0.4) (layer "B.Fab") (width 0.1) (tstamp bcc243c7-cae2-4e7d-8f81-2ab9dc10c28d))
    (fp_line (start -0.8 -0.4) (end 0.8 -0.4) (layer "B.Fab") (width 0.1) (tstamp ceb0d3c3-98e9-41e2-837a-47c083f2fc5e))
    (pad "1" smd roundrect (at -0.875 0) (size 1.05 0.95) (layers "B.Cu" "B.Paste" "B.Mask") (roundrect_rratio 0.25)
      (net 6 "Net-(D2-Pad1)") (pinfunction "K") (pintype "passive") (tstamp 58bc1ff8-c882-4ab6-968e-b07f1bce850d))
    (pad "2" smd roundrect (at 0.875 0) (size 1.05 0.95) (layers "B.Cu" "B.Paste" "B.Mask") (roundrect_rratio 0.25)
      (net 7 "Net-(D2-Pad2)") (pinfunction "A") (pintype "passive") (tstamp 08550a1a-4ae5-44a8-a940-23656d39ca7b))
    (model "${KICAD6_3DMODEL_DIR}/LED_SMD.3dshapes/LED_0603_1608Metric.wrl"
      (offset (xyz 0 0 0))
      (scale (xyz 1 1 1))
      (rotate (xyz 0 0 0))
    )
  )

  (footprint "Resistor_SMD:R_0805_2012Metric_Pad1.20x1.40mm_HandSolder" (layer "B.Cu")
    (tedit 5F68FEEE) (tstamp c5f5dc0c-56d1-40b6-93cb-c0c01a868dae)
    (at 127.619 72.644 180)
    (descr "Resistor SMD 0805 (2012 Metric), square (rectangular) end terminal, IPC_7351 nominal with elongated pad for handsoldering. (Body size source: IPC-SM-782 page 72, https://www.pcb-3d.com/wordpress/wp-content/uploads/ipc-sm-782a_amendment_1_and_2.pdf), generated with kicad-footprint-generator")
    (tags "resistor handsolder")
    (property "Sheetfile" "sensor_board.kicad_sch")
    (property "Sheetname" "")
    (path "/ea86781d-e3fe-481c-88f0-4233e712651b")
    (attr smd)
    (fp_text reference "R2" (at 0 1.65) (layer "B.SilkS")
      (effects (font (size 1 1) (thickness 0.15)) (justify mirror))
      (tstamp 7b9390a3-48b7-47a2-8f7d-c0cd1c017205)
    )
    (fp_text value "1k" (at 0 -1.65) (layer "B.Fab")
      (effects (font (size 1 1) (thickness 0.15)) (justify mirror))
      (tstamp 2527d1ec-d7e3-49a8-a5c0-27965d3b80bb)
    )
    (fp_text user "${REFERENCE}" (at 0 0) (layer "B.Fab")
      (effects (font (size 0.5 0.5) (thickness 0.08)) (justify mirror))
      (tstamp 1940f688-9445-41c3-a998-4f32b72dadb5)
    )
    (fp_line (start -0.227064 0.735) (end 0.227064 0.735) (layer "B.SilkS") (width 0.12) (tstamp 4d9914c1-1af8-42a3-a316-32e3f52e3814))
    (fp_line (start -0.227064 -0.735) (end 0.227064 -0.735) (layer "B.SilkS") (width 0.12) (tstamp 5642483b-9007-4d5e-997f-7778d776192c))
    (fp_line (start -1.85 0.95) (end 1.85 0.95) (layer "B.CrtYd") (width 0.05) (tstamp b61e99f0-f013-41ff-8f4d-f9ffe13e265d))
    (fp_line (start -1.85 -0.95) (end -1.85 0.95) (layer "B.CrtYd") (width 0.05) (tstamp c43f9c28-f7e4-4328-8512-a5e58ff56fca))
    (fp_line (start 1.85 -0.95) (end -1.85 -0.95) (layer "B.CrtYd") (width 0.05) (tstamp c49e91fe-89f3-439f-abc4-de19ca856643))
    (fp_line (start 1.85 0.95) (end 1.85 -0.95) (layer "B.CrtYd") (width 0.05) (tstamp ca960f11-eff1-47c6-bbf7-b0ca92d211a7))
    (fp_line (start -1 0.625) (end 1 0.625) (layer "B.Fab") (width 0.1) (tstamp 7b4d41a0-163e-45b1-ab9a-7b53e5044ce4))
    (fp_line (start -1 -0.625) (end -1 0.625) (layer "B.Fab") (width 0.1) (tstamp 8d745c72-26ac-40e0-8a8e-3f6dee61d489))
    (fp_line (start 1 -0.625) (end -1 -0.625) (layer "B.Fab") (width 0.1) (tstamp acfa334a-03a3-40a3-bcd0-47c41f70982c))
    (fp_line (start 1 0.625) (end 1 -0.625) (layer "B.Fab") (width 0.1) (tstamp c582995a-12a7-43b6-92db-d17c0091beed))
    (pad "1" smd roundrect (at -1 0 180) (size 1.2 1.4) (layers "B.Cu" "B.Paste" "B.Mask") (roundrect_rratio 0.2083333333)
      (net 12 "Net-(JP2-Pad2)") (pintype "passive") (tstamp 07b6567e-c514-410c-b38f-a8820c10964e))
    (pad "2" smd roundrect (at 1 0 180) (size 1.2 1.4) (layers "B.Cu" "B.Paste" "B.Mask") (roundrect_rratio 0.2083333333)
      (net 7 "Net-(D2-Pad2)") (pintype "passive") (tstamp f035a692-992d-4ac9-945d-b88425342339))
    (model "${KICAD6_3DMODEL_DIR}/Resistor_SMD.3dshapes/R_0805_2012Metric.wrl"
      (offset (xyz 0 0 0))
      (scale (xyz 1 1 1))
      (rotate (xyz 0 0 0))
    )
  )

  (footprint "Resistor_SMD:R_0805_2012Metric_Pad1.20x1.40mm_HandSolder" (layer "B.Cu")
    (tedit 5F68FEEE) (tstamp f640dff9-d9ba-420e-b407-38a75f474a10)
    (at 127.651 69.215 180)
    (descr "Resistor SMD 0805 (2012 Metric), square (rectangular) end terminal, IPC_7351 nominal with elongated pad for handsoldering. (Body size source: IPC-SM-782 page 72, https://www.pcb-3d.com/wordpress/wp-content/uploads/ipc-sm-782a_amendment_1_and_2.pdf), generated with kicad-footprint-generator")
    (tags "resistor handsolder")
    (property "Sheetfile" "sensor_board.kicad_sch")
    (property "Sheetname" "")
    (path "/20f68702-ce76-4a0d-bfcd-fa5eb2163e48")
    (attr smd)
    (fp_text reference "R1" (at 0 1.65) (layer "B.SilkS")
      (effects (font (size 1 1) (thickness 0.15)) (justify mirror))
      (tstamp e4e98483-37ff-4f6e-889e-2e8478dceb89)
    )
    (fp_text value "1k" (at 0 -1.65) (layer "B.Fab")
      (effects (font (size 1 1) (thickness 0.15)) (justify mirror))
      (tstamp f869a2e4-13a9-4f62-9ed4-40a1b2d9a508)
    )
    (fp_text user "${REFERENCE}" (at 0 0) (layer "B.Fab")
      (effects (font (size 0.5 0.5) (thickness 0.08)) (justify mirror))
      (tstamp da282a8f-c99f-457c-a431-d6815d1c774c)
    )
    (fp_line (start -0.227064 0.735) (end 0.227064 0.735) (layer "B.SilkS") (width 0.12) (tstamp 70ad6923-440c-4806-ab99-deef089fba81))
    (fp_line (start -0.227064 -0.735) (end 0.227064 -0.735) (layer "B.SilkS") (width 0.12) (tstamp dffc4e80-94a4-4a81-9e35-8eb55470fae0))
    (fp_line (start -1.85 0.95) (end 1.85 0.95) (layer "B.CrtYd") (width 0.05) (tstamp 1586e942-ef81-4976-b095-b872098ff449))
    (fp_line (start 1.85 -0.95) (end -1.85 -0.95) (layer "B.CrtYd") (width 0.05) (tstamp 59970251-3984-4b68-80bb-205c693e1610))
    (fp_line (start -1.85 -0.95) (end -1.85 0.95) (layer "B.CrtYd") (width 0.05) (tstamp 5fa14943-c722-4c96-afd2-5d63f10ae9e1))
    (fp_line (start 1.85 0.95) (end 1.85 -0.95) (layer "B.CrtYd") (width 0.05) (tstamp f07ec1f8-681c-4b14-ae78-7a3c705a390e))
    (fp_line (start 1 -0.625) (end -1 -0.625) (layer "B.Fab") (width 0.1) (tstamp 19030da2-7794-4123-a65d-622bc991af73))
    (fp_line (start 1 0.625) (end 1 -0.625) (layer "B.Fab") (width 0.1) (tstamp 6b29dab0-6567-45b4-b2e7-d7f191da8356))
    (fp_line (start -1 -0.625) (end -1 0.625) (layer "B.Fab") (width 0.1) (tstamp b812f267-9f53-4fa3-a24a-f6feed036d13))
    (fp_line (start -1 0.625) (end 1 0.625) (layer "B.Fab") (width 0.1) (tstamp f00f6ae4-1ad6-4adf-933f-c9abcdb7b1a0))
    (pad "1" smd roundrect (at -1 0 180) (size 1.2 1.4) (layers "B.Cu" "B.Paste" "B.Mask") (roundrect_rratio 0.2083333333)
      (net 12 "Net-(JP2-Pad2)") (pintype "passive") (tstamp 5454e243-da70-4e45-9301-f2a2ebbc53ec))
    (pad "2" smd roundrect (at 1 0 180) (size 1.2 1.4) (layers "B.Cu" "B.Paste" "B.Mask") (roundrect_rratio 0.2083333333)
      (net 5 "Net-(D1-Pad2)") (pintype "passive") (tstamp a10227d5-0ea4-4476-bbc9-8d012a56cf27))
    (model "${KICAD6_3DMODEL_DIR}/Resistor_SMD.3dshapes/R_0805_2012Metric.wrl"
      (offset (xyz 0 0 0))
      (scale (xyz 1 1 1))
      (rotate (xyz 0 0 0))
    )
  )

  (gr_line (start 119.38 96.52) (end 135.89 96.52) (layer "Edge.Cuts") (width 0.1) (tstamp 19996eef-911f-4c8a-8459-e40cdf267949))
  (gr_circle (center 102.87 93.98) (end 104.14 92.71) (layer "Edge.Cuts") (width 0.1) (fill none) (tstamp 213d4d76-c8b6-4723-ae00-b39b1cc8c48e))
  (gr_line (start 119.38 92.71) (end 119.38 96.52) (layer "Edge.Cuts") (width 0.1) (tstamp 767d524a-7c8f-4c3e-82bc-63425b4343e5))
  (gr_circle (center 102.87 63.5) (end 104.14 62.23) (layer "Edge.Cuts") (width 0.1) (fill none) (tstamp a1a2016f-a2a3-4802-a22a-d6ade475651a))
  (gr_line (start 100.33 96.52) (end 100.33 60.96) (layer "Edge.Cuts") (width 0.1) (tstamp b30da413-1c9c-43d8-b71c-ac85ba258e45))
  (gr_circle (center 133.35 93.98) (end 134.62 95.25) (layer "Edge.Cuts") (width 0.1) (fill none) (tstamp b70c9115-abe6-4d68-879d-0af590ec882c))
  (gr_line (start 116.84 96.52) (end 116.84 92.71) (layer "Edge.Cuts") (width 0.1) (tstamp bedabf46-f3e6-466b-9510-7c31af573713))
  (gr_line (start 135.89 60.96) (end 135.89 96.52) (layer "Edge.Cuts") (width 0.1) (tstamp c45e4732-1871-4621-acda-457f25297fdd))
  (gr_line (start 116.84 92.71) (end 119.38 92.71) (layer "Edge.Cuts") (width 0.1) (tstamp d9d2e686-7a7e-46bb-867c-43e83fc3a645))
  (gr_circle (center 133.35 63.5) (end 134.62 62.23) (layer "Edge.Cuts") (width 0.1) (fill none) (tstamp f4e342c9-8ba7-4e0a-9681-8413c2e4dbb4))
  (gr_line (start 100.33 96.52) (end 116.84 96.52) (layer "Edge.Cuts") (width 0.1) (tstamp f6ffc842-e36f-4890-9cc3-0dc24d0fcc69))
  (gr_line (start 100.33 60.96) (end 135.89 60.96) (layer "Edge.Cuts") (width 0.1) (tstamp fa5101bb-2db6-4c46-8264-2e7040163371))
  (dimension (type aligned) (layer "Edge.Cuts") (tstamp 5bed5aba-c16b-40cd-9f81-202c94424625)
    (pts (xy 100.33 96.52) (xy 100.33 78.74))
    (height 49.53)
    (gr_text "17.7800 mm" (at 148.71 87.63 90) (layer "Edge.Cuts") (tstamp 0c065852-7a3b-419c-a47a-e136305142e1)
      (effects (font (size 1 1) (thickness 0.15)))
    )
    (format (units 3) (units_format 1) (precision 4))
    (style (thickness 0.1) (arrow_length 1.27) (text_position_mode 0) (extension_height 0.58642) (extension_offset 0.5) keep_text_aligned)
  )
  (dimension (type aligned) (layer "Edge.Cuts") (tstamp 8d9cd694-ac70-4d1a-a210-862996e25758)
    (pts (xy 100.33 60.96) (xy 118.11 60.96))
    (height 46.99)
    (gr_text "17.7800 mm" (at 109.22 106.8) (layer "Edge.Cuts") (tstamp ab0cf105-6fd6-4b4f-85f0-beff9f709092)
      (effects (font (size 1 1) (thickness 0.15)))
    )
    (format (units 3) (units_format 1) (precision 4))
    (style (thickness 0.1) (arrow_length 1.27) (text_position_mode 0) (extension_height 0.58642) (extension_offset 0.5) keep_text_aligned)
  )

  (segment (start 105.791 86.614) (end 105.791 73.914) (width 0.75) (layer "F.Cu") (net 1) (tstamp 2ec19ad4-5d6b-4a8d-a1cc-b3af18919351))
  (segment (start 107.95 88.773) (end 105.791 86.614) (width 0.75) (layer "F.Cu") (net 1) (tstamp 3d99daf5-9e52-4a71-bad3-da850f8aa725))
  (segment (start 127.254 85.09) (end 121.412 90.932) (width 0.5) (layer "F.Cu") (net 1) (tstamp 470dafb8-d109-43d9-899b-1e219cb94002))
  (segment (start 116.289 90.381) (end 116.289 88.773) (width 0.5) (layer "F.Cu") (net 1) (tstamp 7b6b7e8c-fe35-4a81-97a5-86fe9bb01c3e))
  (segment (start 116.289 88.773) (end 107.95 88.773) (width 0.75) (layer "F.Cu") (net 1) (tstamp 82252d55-6792-47be-b74f-341a4b5c4094))
  (segment (start 116.205 88.689) (end 116.289 88.773) (width 0.75) (layer "F.Cu") (net 1) (tstamp 9ae3d53b-3cb2-4c51-abc9-9ee71dffc6f2))
  (segment (start 116.205 81.215) (end 116.205 88.689) (width 0.75) (layer "F.Cu") (net 1) (tstamp 9c421604-985d-4364-8528-7bb172752e79))
  (segment (start 116.84 90.932) (end 116.289 90.381) (width 0.5) (layer "F.Cu") (net 1) (tstamp a8fa65fe-08d8-4f42-bb3a-63fdafc9e5f2))
  (segment (start 127.254 79.629) (end 127.254 85.09) (width 0.5) (layer "F.Cu") (net 1) (tstamp d43d688a-84ab-48d7-afa3-244a47597693))
  (segment (start 105.791 73.914) (end 107.442 72.263) (width 0.75) (layer "F.Cu") (net 1) (tstamp dce8fd9d-c962-43d8-9feb-c8e2d7249579))
  (segment (start 121.412 90.932) (end 116.84 90.932) (width 0.5) (layer "F.Cu") (net 1) (tstamp ea33df98-b029-4cf0-92f7-e33015f49d5f))
  (segment (start 107.442 72.263) (end 111.7695 72.263) (width 0.75) (layer "F.Cu") (net 1) (tstamp f1fe5220-3456-4adf-8522-939d66ebaddb))
  (via (at 127.254 79.629) (size 0.8) (drill 0.4) (layers "F.Cu" "B.Cu") (net 1) (tstamp 2f4a42a8-3a9e-429d-a107-b0b7b0d88245))
  (segment (start 127.224 79.599) (end 127.254 79.629) (width 0.5) (layer "B.Cu") (net 1) (tstamp 09f70325-759e-47aa-94c7-d5d494c7387a))
  (segment (start 127.224 76.708) (end 127.224 79.599) (width 0.5) (layer "B.Cu") (net 1) (tstamp 0a73f83d-aeee-459c-bf10-e21f8e8ac8bb))
  (segment (start 121.412 83.439) (end 121.412 84.074) (width 0.5) (layer "F.Cu") (net 2) (tstamp 02eebe00-f5f8-4d5a-9280-3707bbfb3171))
  (segment (start 118.364 86.487) (end 120.777 86.487) (width 0.5) (layer "F.Cu") (net 2) (tstamp 0644263f-47c0-4963-833f-2c573909a6f9))
  (segment (start 120.777 86.487) (end 121.031 86.233) (width 0.5) (layer "F.Cu") (net 2) (tstamp 2277b143-4828-402b-956a-9fee3de595f9))
  (segment (start 121.031 86.233) (end 121.412 85.852) (width 0.5) (layer "F.Cu") (net 2) (tstamp 5e0c3bfb-b544-4c66-aa08-f8efdf3d7b8b))
  (segment (start 120.015 81.215) (end 120.015 82.042) (width 0.5) (layer "F.Cu") (net 2) (tstamp 9efcba32-d2d3-461e-a28d-6200179bf360))
  (segment (start 121.412 85.852) (end 121.412 84.074) (width 0.5) (layer "F.Cu") (net 2) (tstamp a710901d-2de3-4092-bd77-e58ba40cc907))
  (segment (start 120.015 82.042) (end 121.412 83.439) (width 0.5) (layer "F.Cu") (net 2) (tstamp bee80b71-b4bb-43c5-8155-7a5b5e5e4d2a))
  (segment (start 118.364 88.773) (end 118.364 86.487) (width 0.5) (layer "F.Cu") (net 2) (tstamp f49435f9-6fbe-4a41-b06c-5c1279a3af97))
  (via (at 121.031 86.233) (size 0.8) (drill 0.4) (layers "F.Cu" "B.Cu") (net 2) (tstamp f441549b-d76f-40de-974f-884e7c13b9d3))
  (segment (start 120.269 86.995) (end 121.031 86.233) (width 1) (layer "B.Cu") (net 2) (tstamp 03b3a92a-53fb-4bc6-975b-7b5f37101c60))
  (segment (start 109.2295 77.343) (end 106.172 77.343) (width 1) (layer "B.Cu") (net 2) (tstamp 0d69598b-b5c0-45bc-8bd5-7ecf27cad2ae))
  (segment (start 106.934 86.995) (end 120.269 86.995) (width 1) (layer "B.Cu") (net 2) (tstamp 30ee8459-896d-4959-9626-054fc693db16))
  (segment (start 105.283 78.232) (end 105.283 85.344) (width 1) (layer "B.Cu") (net 2) (tstamp 5f7e70e6-0f5a-417e-9759-46c618c79162))
  (segment (start 111.7695 77.343) (end 109.2295 77.343) (width 1) (layer "B.Cu") (net 2) (tstamp e8b3ee72-8a7c-4add-94b3-d438ff9e1636))
  (segment (start 106.172 77.343) (end 105.283 78.232) (width 1) (layer "B.Cu") (net 2) (tstamp ee2b28ca-e25c-43c0-b251-c1a21a9eace0))
  (segment (start 105.283 85.344) (end 106.934 86.995) (width 1) (layer "B.Cu") (net 2) (tstamp fd9d880e-f0e1-45bd-9084-c4ce088a2413))
  (segment (start 117.602 84.074) (end 118.364 84.074) (width 0.5) (layer "F.Cu") (net 3) (tstamp 08ac91b1-ff3c-4e12-84f2-603931ce0ff1))
  (segment (start 117.475 83.947) (end 117.602 84.074) (width 0.5) (layer "F.Cu") (net 3) (tstamp 83aa922d-20c3-4042-8d09-3cbc2403072e))
  (segment (start 117.475 81.215) (end 117.475 83.947) (width 0.5) (layer "F.Cu") (net 3) (tstamp 83aee25a-166d-4369-b48d-3edf30298d29))
  (segment (start 118.364 84.074) (end 119.337 84.074) (width 0.5) (layer "F.Cu") (net 3) (tstamp 8eeb4701-9b00-4e5a-a17a-166bea44f11a))
  (via (at 118.364 84.074) (size 0.8) (drill 0.4) (layers "F.Cu" "B.Cu") (net 3) (tstamp 1009c91d-ae0e-413b-a7ac-bca660b1d144))
  (segment (start 118.364 84.074) (end 127.508 84.074) (width 0.5) (layer "B.Cu") (net 3) (tstamp 357d96bd-b1bf-4f27-887c-5cdc7e0d05ad))
  (segment (start 129.824 81.758) (end 129.824 76.708) (width 0.5) (layer "B.Cu") (net 3) (tstamp 60416782-b13e-4574-994e-ad636beb1fc6))
  (segment (start 127.508 84.074) (end 129.824 81.758) (width 0.5) (layer "B.Cu") (net 3) (tstamp d9a9cc55-1e51-4509-b6ff-d8021121309e))
  (segment (start 116.205 76.265) (end 116.205 75.184) (width 0.5) (layer "F.Cu") (net 4) (tstamp 487c7237-7239-46fe-a9e1-e2fc6bbb9d4c))
  (segment (start 116.205 75.184) (end 115.824 74.803) (width 0.5) (layer "F.Cu") (net 4) (tstamp 7606a46d-be9e-41c7-8279-dfe749405e8a))
  (segment (start 115.824 74.803) (end 111.7695 74.803) (width 0.5) (layer "F.Cu") (net 4) (tstamp cd84f28d-88aa-44ff-b208-5ca77fec98ea))
  (segment (start 115.0715 71.501) (end 111.7695 74.803) (width 0.5) (layer "B.Cu") (net 4) (tstamp 38a3e8c1-b144-455d-9b6f-867ac4a5afc6))
  (segment (start 122.174 69.215) (end 119.888 71.501) (width 0.5) (layer "B.Cu") (net 4) (tstamp 51a95cc4-08d5-4535-b2e2-d521bd40a369))
  (segment (start 119.888 71.501) (end 115.0715 71.501) (width 0.5) (layer "B.Cu") (net 4) (tstamp c3b2f4ae-25f5-4a0a-afb9-1fe6a3256288))
  (segment (start 123.924 69.215) (end 126.651 69.215) (width 0.5) (layer "B.Cu") (net 5) (tstamp 49b161d0-90dc-4fbc-b714-2799db1580b6))
  (segment (start 120.142 72.771) (end 120.142 76.138) (width 0.5) (layer "F.Cu") (net 6) (tstamp 18c8d6de-d74d-47ef-8624-6551095fce35))
  (segment (start 111.7695 79.883) (end 113.03 79.883) (width 0.5) (layer "F.Cu") (net 6) (tstamp 1f01d1b2-ce41-42e5-89f8-8db230ec53ed))
  (segment (start 119.888 77.978) (end 120.015 77.851) (width 0.5) (layer "F.Cu") (net 6) (tstamp 247b4015-815c-41b4-be45-2c8a92c48581))
  (segment (start 120.142 76.138) (end 120.015 76.265) (width 0.5) (layer "F.Cu") (net 6) (tstamp 705c1233-4ddd-4764-b8f8-72c02b8c1012))
  (segment (start 114.935 77.978) (end 119.888 77.978) (width 0.5) (layer "F.Cu") (net 6) (tstamp a9ac6a81-a49c-453c-98e2-177bc6739ec5))
  (segment (start 120.015 77.851) (end 120.015 76.265) (width 0.5) (layer "F.Cu") (net 6) (tstamp e63e0368-68b6-4d67-93e3-08d42f09b59b))
  (segment (start 113.03 79.883) (end 114.935 77.978) (width 0.5) (layer "F.Cu") (net 6) (tstamp ff1b4bea-3500-406e-8cbe-4148bf6ee0a3))
  (via (at 120.142 72.771) (size 0.8) (drill 0.4) (layers "F.Cu" "B.Cu") (net 6) (tstamp 4b5ec931-d7e9-4b4a-a9c1-ce62737f57f5))
  (segment (start 122.202 72.644) (end 120.269 72.644) (width 0.5) (layer "B.Cu") (net 6) (tstamp 0742ff5b-6dc9-4506-89c2-b84e9fa0caf0))
  (segment (start 120.269 72.644) (end 120.142 72.771) (width 0.5) (layer "B.Cu") (net 6) (tstamp 704a643c-fa5d-4aaf-9567-9d8be4cb0535))
  (segment (start 123.952 72.644) (end 126.619 72.644) (width 0.5) (layer "B.Cu") (net 7) (tstamp cb68af2d-198a-4fa9-9fbf-568f5deb01b0))
  (segment (start 109.728 84.582) (end 109.2295 84.0835) (width 0.5) (layer "F.Cu") (net 8) (tstamp 001289dc-cc42-44d1-b265-2b20faaee194))
  (segment (start 114.173 83.947) (end 113.538 84.582) (width 0.5) (layer "F.Cu") (net 8) (tstamp 0d8d1829-1c05-41a5-a043-e3a0bc84602d))
  (segment (start 114.173 80.772) (end 114.173 83.947) (width 0.5) (layer "F.Cu") (net 8) (tstamp 49a1f138-a200-4fa9-adac-4c05ec307e11))
  (segment (start 118.745 79.502) (end 118.364 79.121) (width 0.5) (layer "F.Cu") (net 8) (tstamp 4b48b6ef-2c70-40f2-b5cc-14a69c0f65d2))
  (segment (start 118.745 81.215) (end 118.745 79.502) (width 0.5) (layer "F.Cu") (net 8) (tstamp 4f80f7f9-78ad-42d3-b7a8-bdc3fdf7047a))
  (segment (start 118.364 79.121) (end 115.824 79.121) (width 0.5) (layer "F.Cu") (net 8) (tstamp 60eee1bb-c638-4809-8f7f-6fb4f43dfdb8))
  (segment (start 115.824 79.121) (end 114.173 80.772) (width 0.5) (layer "F.Cu") (net 8) (tstamp af3efa44-4475-4975-a2c9-cbf7e331f6b9))
  (segment (start 109.2295 84.0835) (end 109.2295 82.423) (width 0.5) (layer "F.Cu") (net 8) (tstamp e6df5e80-2666-4179-989e-ed828757dfff))
  (segment (start 113.538 84.582) (end 109.728 84.582) (width 0.5) (layer "F.Cu") (net 8) (tstamp f4c5b3f6-6dee-49a2-8ab6-c1f8ad7d5b43))
  (segment (start 118.745 70.104) (end 118.745 76.265) (width 0.5) (layer "F.Cu") (net 9) (tstamp 2fb5cfad-6891-46d9-873b-6db04f9df6af))
  (via (at 118.745 70.104) (size 0.8) (drill 0.4) (layers "F.Cu" "B.Cu") (net 9) (tstamp c3f82180-1f1f-4295-be53-d6786b062e6c))
  (segment (start 107.696 74.803) (end 106.934 74.041) (width 0.5) (layer "B.Cu") (net 9) (tstamp 16dbebd9-e407-41cb-8ff5-7ffb739707e0))
  (segment (start 106.934 74.041) (end 106.934 70.866) (width 0.5) (layer "B.Cu") (net 9) (tstamp 1bf46759-e30c-4ec9-9e4f-074abc6bd05b))
  (segment (start 107.696 70.104) (end 118.745 70.104) (width 0.5) (layer "B.Cu") (net 9) (tstamp 2784f93a-2196-4929-a37f-5a5a1eef0517))
  (segment (start 109.2295 74.803) (end 107.696 74.803) (width 0.5) (layer "B.Cu") (net 9) (tstamp 6f230d3a-4d04-41fe-831f-ae9fcebcae21))
  (segment (start 106.934 70.866) (end 107.696 70.104) (width 0.5) (layer "B.Cu") (net 9) (tstamp f3f44ad5-6b18-4ebc-8f18-21eb55d9a7c2))
  (segment (start 117.475 76.265) (end 117.475 73.279) (width 0.5) (layer "F.Cu") (net 10) (tstamp 7f0d16ae-c69f-4432-b105-1523a5e6a196))
  (segment (start 117.475 73.279) (end 116.84 72.644) (width 0.5) (layer "F.Cu") (net 10) (tstamp aa7a4572-60e0-4dfd-8bf7-0588fde3a0ff))
  (via (at 116.84 72.644) (size 0.8) (drill 0.4) (layers "F.Cu" "B.Cu") (net 10) (tstamp 604ae0e1-aace-4e15-b8c9-ccbda0c6bff6))
  (segment (start 107.061 80.772) (end 107.95 79.883) (width 0.5) (layer "B.Cu") (net 10) (tstamp 08796779-cb74-4112-8ca7-ff80aa12afb9))
  (segment (start 115.189 72.644) (end 113.919 73.914) (width 0.5) (layer "B.Cu") (net 10) (tstamp 0a200339-9305-4c92-a8f3-03d0bfc2d4e6))
  (segment (start 107.95 79.883) (end 109.2295 79.883) (width 0.5) (layer "B.Cu") (net 10) (tstamp 34c257c5-f9d6-44e5-93b2-bc43150373fe))
  (segment (start 107.061 83.439) (end 107.061 80.772) (width 0.5) (layer "B.Cu") (net 10) (tstamp 45363d02-e5ee-4b6f-b289-8eadc29cc8ef))
  (segment (start 113.919 73.914) (end 113.919 84.074) (width 0.5) (layer "B.Cu") (net 10) (tstamp 62231138-35a4-4b03-afc1-5d0ea6edfc79))
  (segment (start 113.919 84.074) (end 113.284 84.709) (width 0.5) (layer "B.Cu") (net 10) (tstamp 63d2773a-e23b-4fc6-80d8-856bc646de30))
  (segment (start 113.284 84.709) (end 108.331 84.709) (width 0.5) (layer "B.Cu") (net 10) (tstamp 961f4293-1313-4abc-9083-4fcba0ed7d26))
  (segment (start 116.84 72.644) (end 115.189 72.644) (width 0.5) (layer "B.Cu") (net 10) (tstamp 9d26f641-4161-497d-99d0-bcf3f4282497))
  (segment (start 108.331 84.709) (end 107.061 83.439) (width 0.5) (layer "B.Cu") (net 10) (tstamp cf12de65-a533-43e0-aafd-b4d18cde9402))
  (segment (start 128.524 69.342) (end 128.524 76.708) (width 0.5) (layer "B.Cu") (net 12) (tstamp 38b4d85f-5ee3-4f71-90e1-8a7295dce76e))
  (segment (start 128.651 69.215) (end 128.524 69.342) (width 0.5) (layer "B.Cu") (net 12) (tstamp 99fd8bd5-aaaf-4b4a-8680-bd56baba2f31))

)
