G04 #@! TF.GenerationSoftware,KiCad,Pcbnew,6.0.10*
G04 #@! TF.CreationDate,2023-11-17T15:49:25-06:00*
G04 #@! TF.ProjectId,printer_board,7072696e-7465-4725-9f62-6f6172642e6b,rev?*
G04 #@! TF.SameCoordinates,Original*
G04 #@! TF.FileFunction,Copper,L2,Bot*
G04 #@! TF.FilePolarity,Positive*
%FSLAX46Y46*%
G04 Gerber Fmt 4.6, Leading zero omitted, Abs format (unit mm)*
G04 Created by KiCad (PCBNEW 6.0.10) date 2023-11-17 15:49:25*
%MOMM*%
%LPD*%
G01*
G04 APERTURE LIST*
G04 #@! TA.AperFunction,ComponentPad*
%ADD10R,1.700000X1.700000*%
G04 #@! TD*
G04 #@! TA.AperFunction,ComponentPad*
%ADD11O,1.700000X1.700000*%
G04 #@! TD*
G04 #@! TA.AperFunction,ComponentPad*
%ADD12R,2.400000X2.400000*%
G04 #@! TD*
G04 #@! TA.AperFunction,ComponentPad*
%ADD13C,2.400000*%
G04 #@! TD*
G04 #@! TA.AperFunction,SMDPad,CuDef*
%ADD14R,1.600000X8.000000*%
G04 #@! TD*
G04 #@! TA.AperFunction,ViaPad*
%ADD15C,0.800000*%
G04 #@! TD*
G04 #@! TA.AperFunction,Conductor*
%ADD16C,1.000000*%
G04 #@! TD*
G04 #@! TA.AperFunction,Conductor*
%ADD17C,0.500000*%
G04 #@! TD*
G04 APERTURE END LIST*
D10*
X10668000Y-38989000D03*
D11*
X10668000Y-41529000D03*
X10668000Y-44069000D03*
D12*
X38354000Y-58419988D03*
D13*
X34854000Y-58419988D03*
X31354000Y-58419988D03*
D14*
X28956000Y-4064000D03*
X26416000Y-4064000D03*
X23876000Y-4064000D03*
X21336000Y-4064000D03*
D15*
X36830000Y-62230000D03*
X20320000Y-49530000D03*
X25400000Y-25400000D03*
X29210000Y-63500000D03*
X29210000Y-12700000D03*
X34290000Y-50800000D03*
X33020000Y-33020000D03*
X29210000Y-10160000D03*
X12700000Y-49530000D03*
X15240000Y-49530000D03*
X35560000Y-66040000D03*
X25400000Y-38100000D03*
X30480000Y-66040000D03*
X38100000Y-66040000D03*
X31750000Y-10160000D03*
X29210000Y-48260000D03*
X29210000Y-64770000D03*
X25400000Y-27940000D03*
X33020000Y-66040000D03*
X30480000Y-33020000D03*
X25400000Y-22860000D03*
X35560000Y-33020000D03*
X31750000Y-12700000D03*
X38100000Y-33020000D03*
X15621000Y-27686000D03*
X22733000Y-19558000D03*
X27940000Y-44958000D03*
X18034000Y-46990000D03*
X29718000Y-19558000D03*
X17526000Y-44450000D03*
X20320000Y-32766000D03*
X40386000Y-46736000D03*
X14605000Y-11557000D03*
X26162000Y-53086000D03*
D16*
X18034000Y-46990000D02*
X27178000Y-46990000D01*
X19558000Y-27686000D02*
X15621000Y-27686000D01*
D17*
X19558000Y-21717000D02*
X19558000Y-27686000D01*
X22733000Y-19558000D02*
X21717000Y-19558000D01*
X29718000Y-19558000D02*
X22733000Y-19558000D01*
X21717000Y-19558000D02*
X19558000Y-21717000D01*
D16*
X27940000Y-36068000D02*
X27940000Y-44958000D01*
X27940000Y-46228000D02*
X27940000Y-44958000D01*
X10668000Y-44069000D02*
X13589000Y-46990000D01*
X27178000Y-46990000D02*
X27940000Y-46228000D01*
X13589000Y-46990000D02*
X18034000Y-46990000D01*
X27940000Y-36068000D02*
X19558000Y-27686000D01*
D17*
X17526000Y-44450000D02*
X17526000Y-35560000D01*
X17526000Y-35560000D02*
X20320000Y-32766000D01*
D16*
X25146000Y-11430000D02*
X40386000Y-26670000D01*
X37592000Y-53086000D02*
X26162000Y-53086000D01*
X40386000Y-26670000D02*
X40386000Y-33274000D01*
X21336000Y-11430000D02*
X25146000Y-11430000D01*
X40386000Y-50292000D02*
X37592000Y-53086000D01*
X40386000Y-46736000D02*
X40386000Y-50292000D01*
X14732000Y-11430000D02*
X14605000Y-11557000D01*
X21336000Y-11430000D02*
X14732000Y-11430000D01*
X21336000Y-4064000D02*
X21336000Y-11430000D01*
X40386000Y-33274000D02*
X40386000Y-46736000D01*
G04 #@! TA.AperFunction,Conductor*
G36*
X14673621Y-528502D02*
G01*
X14720114Y-582158D01*
X14731500Y-634500D01*
X14731500Y-8373377D01*
X14731498Y-8374147D01*
X14731024Y-8451721D01*
X14733491Y-8460352D01*
X14739150Y-8480153D01*
X14742728Y-8496915D01*
X14746920Y-8526187D01*
X14750634Y-8534355D01*
X14750634Y-8534356D01*
X14757548Y-8549562D01*
X14763996Y-8567086D01*
X14771051Y-8591771D01*
X14775843Y-8599365D01*
X14775844Y-8599368D01*
X14786830Y-8616780D01*
X14794969Y-8631863D01*
X14807208Y-8658782D01*
X14813069Y-8665584D01*
X14823970Y-8678235D01*
X14835073Y-8693239D01*
X14848776Y-8714958D01*
X14855501Y-8720897D01*
X14855504Y-8720901D01*
X14870938Y-8734532D01*
X14882982Y-8746724D01*
X14896427Y-8762327D01*
X14896430Y-8762329D01*
X14902287Y-8769127D01*
X14909816Y-8774007D01*
X14909817Y-8774008D01*
X14923835Y-8783094D01*
X14938709Y-8794385D01*
X14949101Y-8803562D01*
X14957951Y-8811378D01*
X14984711Y-8823942D01*
X14999691Y-8832263D01*
X15016983Y-8843471D01*
X15016988Y-8843473D01*
X15024515Y-8848352D01*
X15033108Y-8850922D01*
X15033113Y-8850924D01*
X15049120Y-8855711D01*
X15066564Y-8862372D01*
X15081676Y-8869467D01*
X15081678Y-8869468D01*
X15089800Y-8873281D01*
X15098667Y-8874662D01*
X15098668Y-8874662D01*
X15101353Y-8875080D01*
X15119017Y-8877830D01*
X15135732Y-8881613D01*
X15155466Y-8887515D01*
X15155472Y-8887516D01*
X15164066Y-8890086D01*
X15173037Y-8890141D01*
X15173038Y-8890141D01*
X15183097Y-8890202D01*
X15198506Y-8890296D01*
X15199289Y-8890329D01*
X15200386Y-8890500D01*
X15231377Y-8890500D01*
X15232147Y-8890502D01*
X15305785Y-8890952D01*
X15305786Y-8890952D01*
X15309721Y-8890976D01*
X15311065Y-8890592D01*
X15312410Y-8890500D01*
X18787377Y-8890500D01*
X18788148Y-8890502D01*
X18865721Y-8890976D01*
X18894152Y-8882850D01*
X18910915Y-8879272D01*
X18911753Y-8879152D01*
X18940187Y-8875080D01*
X18949645Y-8870780D01*
X18963562Y-8864452D01*
X18981087Y-8858004D01*
X19005771Y-8850949D01*
X19013365Y-8846157D01*
X19013368Y-8846156D01*
X19030780Y-8835170D01*
X19045865Y-8827030D01*
X19046195Y-8826880D01*
X19072782Y-8814792D01*
X19092235Y-8798030D01*
X19107239Y-8786927D01*
X19128958Y-8773224D01*
X19134897Y-8766499D01*
X19134901Y-8766496D01*
X19148532Y-8751062D01*
X19160724Y-8739018D01*
X19176327Y-8725573D01*
X19176329Y-8725570D01*
X19183127Y-8719713D01*
X19197094Y-8698165D01*
X19208385Y-8683291D01*
X19219431Y-8670783D01*
X19219432Y-8670782D01*
X19225378Y-8664049D01*
X19237943Y-8637287D01*
X19246263Y-8622309D01*
X19257471Y-8605017D01*
X19257473Y-8605012D01*
X19262352Y-8597485D01*
X19264922Y-8588892D01*
X19264924Y-8588887D01*
X19269711Y-8572880D01*
X19276372Y-8555436D01*
X19283467Y-8540324D01*
X19283468Y-8540322D01*
X19287281Y-8532200D01*
X19291830Y-8502983D01*
X19295613Y-8486268D01*
X19301515Y-8466534D01*
X19301516Y-8466528D01*
X19304086Y-8457934D01*
X19304296Y-8423494D01*
X19304329Y-8422711D01*
X19304500Y-8421614D01*
X19304500Y-8390623D01*
X19304502Y-8389853D01*
X19304952Y-8316215D01*
X19304952Y-8316214D01*
X19304976Y-8312279D01*
X19304592Y-8310935D01*
X19304500Y-8309590D01*
X19304500Y-634500D01*
X19324502Y-566379D01*
X19378158Y-519886D01*
X19430500Y-508500D01*
X19901500Y-508500D01*
X19969621Y-528502D01*
X20016114Y-582158D01*
X20027500Y-634500D01*
X20027500Y-8112134D01*
X20034255Y-8174316D01*
X20085385Y-8310705D01*
X20172739Y-8427261D01*
X20179919Y-8432642D01*
X20277065Y-8505449D01*
X20319580Y-8562308D01*
X20327500Y-8606275D01*
X20327500Y-10295500D01*
X20307498Y-10363621D01*
X20253842Y-10410114D01*
X20201500Y-10421500D01*
X14793842Y-10421500D01*
X14780235Y-10420763D01*
X14748737Y-10417341D01*
X14748732Y-10417341D01*
X14742611Y-10416676D01*
X14724611Y-10418251D01*
X14692609Y-10421050D01*
X14687784Y-10421379D01*
X14685313Y-10421500D01*
X14682231Y-10421500D01*
X14659763Y-10423703D01*
X14639489Y-10425691D01*
X14638174Y-10425813D01*
X14605913Y-10428636D01*
X14545587Y-10433913D01*
X14540468Y-10435400D01*
X14535167Y-10435920D01*
X14446166Y-10462791D01*
X14445033Y-10463126D01*
X14361586Y-10487370D01*
X14361582Y-10487372D01*
X14355664Y-10489091D01*
X14350932Y-10491544D01*
X14345831Y-10493084D01*
X14340388Y-10495978D01*
X14263740Y-10536731D01*
X14262574Y-10537343D01*
X14185547Y-10577271D01*
X14180074Y-10580108D01*
X14175911Y-10583431D01*
X14171204Y-10585934D01*
X14099082Y-10644755D01*
X14098226Y-10645446D01*
X14059027Y-10676738D01*
X14056523Y-10679242D01*
X14055805Y-10679884D01*
X14051472Y-10683585D01*
X14017938Y-10710935D01*
X14014010Y-10715683D01*
X14014009Y-10715684D01*
X13988716Y-10746258D01*
X13980728Y-10755037D01*
X13856691Y-10879075D01*
X13762897Y-10993261D01*
X13669438Y-11167563D01*
X13611613Y-11356698D01*
X13591626Y-11553462D01*
X13610239Y-11750362D01*
X13666741Y-11939896D01*
X13758982Y-12114846D01*
X13883447Y-12268547D01*
X14035396Y-12395146D01*
X14209041Y-12489822D01*
X14303405Y-12519394D01*
X14391886Y-12547122D01*
X14391889Y-12547123D01*
X14397768Y-12548965D01*
X14403891Y-12549630D01*
X14403895Y-12549631D01*
X14588263Y-12569659D01*
X14588267Y-12569659D01*
X14594388Y-12570324D01*
X14791413Y-12553087D01*
X14797330Y-12551368D01*
X14797335Y-12551367D01*
X14928064Y-12513386D01*
X14981336Y-12497909D01*
X15068678Y-12452635D01*
X15126664Y-12438500D01*
X21276127Y-12438500D01*
X21289297Y-12439190D01*
X21322796Y-12442711D01*
X21322798Y-12442711D01*
X21328925Y-12443355D01*
X21376570Y-12439019D01*
X21387990Y-12438500D01*
X24676075Y-12438500D01*
X24744196Y-12458502D01*
X24765170Y-12475405D01*
X39340595Y-27050829D01*
X39374621Y-27113141D01*
X39377500Y-27139924D01*
X39377500Y-49822076D01*
X39357498Y-49890197D01*
X39340595Y-49911171D01*
X37211171Y-52040595D01*
X37148859Y-52074621D01*
X37122076Y-52077500D01*
X26112231Y-52077500D01*
X26109175Y-52077800D01*
X26109168Y-52077800D01*
X26050660Y-52083537D01*
X25965167Y-52091920D01*
X25959266Y-52093702D01*
X25959264Y-52093702D01*
X25885947Y-52115838D01*
X25775831Y-52149084D01*
X25601204Y-52241934D01*
X25514938Y-52312291D01*
X25452713Y-52363040D01*
X25452710Y-52363043D01*
X25447938Y-52366935D01*
X25444011Y-52371682D01*
X25444009Y-52371684D01*
X25325799Y-52514575D01*
X25325797Y-52514579D01*
X25321870Y-52519325D01*
X25227802Y-52693299D01*
X25169318Y-52882232D01*
X25148645Y-53078925D01*
X25166570Y-53275888D01*
X25222410Y-53465619D01*
X25314040Y-53640890D01*
X25437968Y-53795025D01*
X25442692Y-53798989D01*
X25449933Y-53805065D01*
X25589474Y-53922154D01*
X25594872Y-53925121D01*
X25594877Y-53925125D01*
X25692253Y-53978657D01*
X25762787Y-54017433D01*
X25768654Y-54019294D01*
X25768656Y-54019295D01*
X25945436Y-54075373D01*
X25951306Y-54077235D01*
X26105227Y-54094500D01*
X37530157Y-54094500D01*
X37543764Y-54095237D01*
X37575262Y-54098659D01*
X37575267Y-54098659D01*
X37581388Y-54099324D01*
X37607638Y-54097027D01*
X37631388Y-54094950D01*
X37636214Y-54094621D01*
X37638686Y-54094500D01*
X37641769Y-54094500D01*
X37653738Y-54093326D01*
X37684506Y-54090310D01*
X37685819Y-54090188D01*
X37730084Y-54086315D01*
X37778413Y-54082087D01*
X37783532Y-54080600D01*
X37788833Y-54080080D01*
X37877834Y-54053209D01*
X37878967Y-54052874D01*
X37962414Y-54028630D01*
X37962418Y-54028628D01*
X37968336Y-54026909D01*
X37973068Y-54024456D01*
X37978169Y-54022916D01*
X37994060Y-54014467D01*
X38060260Y-53979269D01*
X38061426Y-53978657D01*
X38138453Y-53938729D01*
X38143926Y-53935892D01*
X38148089Y-53932569D01*
X38152796Y-53930066D01*
X38224918Y-53871245D01*
X38225774Y-53870554D01*
X38264973Y-53839262D01*
X38267477Y-53836758D01*
X38268195Y-53836116D01*
X38272528Y-53832415D01*
X38306062Y-53805065D01*
X38335288Y-53769737D01*
X38343277Y-53760958D01*
X41055379Y-51048855D01*
X41065522Y-51039753D01*
X41090218Y-51019897D01*
X41095025Y-51016032D01*
X41127292Y-50977578D01*
X41130472Y-50973931D01*
X41132115Y-50972119D01*
X41134309Y-50969925D01*
X41161642Y-50936651D01*
X41162348Y-50935800D01*
X41218195Y-50869244D01*
X41222154Y-50864526D01*
X41224722Y-50859856D01*
X41228103Y-50855739D01*
X41272015Y-50773842D01*
X41272624Y-50772720D01*
X41314466Y-50696611D01*
X41314468Y-50696606D01*
X41317433Y-50691213D01*
X41319044Y-50686135D01*
X41321563Y-50681437D01*
X41348753Y-50592502D01*
X41349136Y-50591272D01*
X41375371Y-50508570D01*
X41377235Y-50502694D01*
X41377828Y-50497403D01*
X41379388Y-50492302D01*
X41388795Y-50399689D01*
X41388915Y-50398569D01*
X41394500Y-50348773D01*
X41394500Y-50345244D01*
X41394555Y-50344261D01*
X41395004Y-50338556D01*
X41398752Y-50301664D01*
X41398752Y-50301661D01*
X41399374Y-50295537D01*
X41395059Y-50249888D01*
X41394500Y-50238031D01*
X41394500Y-26731850D01*
X41395237Y-26718242D01*
X41397903Y-26693702D01*
X41399325Y-26680612D01*
X41394947Y-26630570D01*
X41394621Y-26625788D01*
X41394500Y-26623310D01*
X41394500Y-26620231D01*
X41394201Y-26617177D01*
X41394200Y-26617166D01*
X41390313Y-26577529D01*
X41390191Y-26576215D01*
X41382623Y-26489718D01*
X41382087Y-26483587D01*
X41380600Y-26478468D01*
X41380080Y-26473167D01*
X41353209Y-26384166D01*
X41352874Y-26383033D01*
X41328630Y-26299586D01*
X41328628Y-26299582D01*
X41326909Y-26293664D01*
X41324456Y-26288932D01*
X41322916Y-26283831D01*
X41279269Y-26201740D01*
X41278657Y-26200574D01*
X41238729Y-26123547D01*
X41235892Y-26118074D01*
X41232569Y-26113911D01*
X41230066Y-26109204D01*
X41171261Y-26037102D01*
X41170433Y-26036075D01*
X41141469Y-25999792D01*
X41141464Y-25999787D01*
X41139262Y-25997028D01*
X41136761Y-25994527D01*
X41136119Y-25993809D01*
X41132406Y-25989461D01*
X41124642Y-25979941D01*
X41105065Y-25955938D01*
X41100323Y-25952015D01*
X41100321Y-25952013D01*
X41069727Y-25926703D01*
X41060947Y-25918713D01*
X25902855Y-10760621D01*
X25893753Y-10750478D01*
X25873897Y-10725782D01*
X25870032Y-10720975D01*
X25831578Y-10688708D01*
X25827931Y-10685528D01*
X25826119Y-10683885D01*
X25823925Y-10681691D01*
X25790651Y-10654358D01*
X25789853Y-10653696D01*
X25718526Y-10593846D01*
X25713856Y-10591278D01*
X25709739Y-10587897D01*
X25627914Y-10544023D01*
X25626755Y-10543394D01*
X25550619Y-10501538D01*
X25550611Y-10501535D01*
X25545213Y-10498567D01*
X25540131Y-10496955D01*
X25535437Y-10494438D01*
X25446469Y-10467238D01*
X25445441Y-10466918D01*
X25356694Y-10438765D01*
X25351398Y-10438171D01*
X25346302Y-10436613D01*
X25253743Y-10427210D01*
X25252607Y-10427089D01*
X25218992Y-10423319D01*
X25206270Y-10421892D01*
X25206266Y-10421892D01*
X25202773Y-10421500D01*
X25199246Y-10421500D01*
X25198261Y-10421445D01*
X25192581Y-10420998D01*
X25163175Y-10418011D01*
X25155663Y-10417248D01*
X25155661Y-10417248D01*
X25149538Y-10416626D01*
X25107259Y-10420623D01*
X25103891Y-10420941D01*
X25092033Y-10421500D01*
X22470500Y-10421500D01*
X22402379Y-10401498D01*
X22355886Y-10347842D01*
X22344500Y-10295500D01*
X22344500Y-8606275D01*
X22364502Y-8538154D01*
X22394935Y-8505449D01*
X22492081Y-8432642D01*
X22499261Y-8427261D01*
X22505174Y-8419372D01*
X22505878Y-8418845D01*
X22510992Y-8413731D01*
X22511730Y-8414469D01*
X22562031Y-8376857D01*
X22632849Y-8371830D01*
X22695143Y-8405888D01*
X22706823Y-8419367D01*
X22712739Y-8427261D01*
X22829295Y-8514615D01*
X22965684Y-8565745D01*
X23027866Y-8572500D01*
X24724134Y-8572500D01*
X24786316Y-8565745D01*
X24922705Y-8514615D01*
X25039261Y-8427261D01*
X25045174Y-8419372D01*
X25045878Y-8418845D01*
X25050992Y-8413731D01*
X25051730Y-8414469D01*
X25102031Y-8376857D01*
X25172849Y-8371830D01*
X25235143Y-8405888D01*
X25246823Y-8419367D01*
X25252739Y-8427261D01*
X25369295Y-8514615D01*
X25505684Y-8565745D01*
X25567866Y-8572500D01*
X27264134Y-8572500D01*
X27326316Y-8565745D01*
X27462705Y-8514615D01*
X27579261Y-8427261D01*
X27666615Y-8310705D01*
X27717745Y-8174316D01*
X27724500Y-8112134D01*
X27724500Y-634500D01*
X27744502Y-566379D01*
X27798158Y-519886D01*
X27850500Y-508500D01*
X30607500Y-508500D01*
X30675621Y-528502D01*
X30722114Y-582158D01*
X30733500Y-634500D01*
X30733500Y-8627377D01*
X30733498Y-8628147D01*
X30733024Y-8705721D01*
X30735491Y-8714352D01*
X30741150Y-8734153D01*
X30744728Y-8750915D01*
X30748920Y-8780187D01*
X30752634Y-8788355D01*
X30752634Y-8788356D01*
X30759548Y-8803562D01*
X30765996Y-8821086D01*
X30773051Y-8845771D01*
X30777843Y-8853365D01*
X30777844Y-8853368D01*
X30788830Y-8870780D01*
X30796969Y-8885863D01*
X30809208Y-8912782D01*
X30815069Y-8919584D01*
X30825970Y-8932235D01*
X30837073Y-8947239D01*
X30850776Y-8968958D01*
X30857501Y-8974897D01*
X30857504Y-8974901D01*
X30872938Y-8988532D01*
X30884982Y-9000724D01*
X30898427Y-9016327D01*
X30898430Y-9016329D01*
X30904287Y-9023127D01*
X30911816Y-9028007D01*
X30911817Y-9028008D01*
X30925835Y-9037094D01*
X30940709Y-9048385D01*
X30953217Y-9059431D01*
X30959951Y-9065378D01*
X30986711Y-9077942D01*
X31001691Y-9086263D01*
X31018983Y-9097471D01*
X31018988Y-9097473D01*
X31026515Y-9102352D01*
X31035108Y-9104922D01*
X31035113Y-9104924D01*
X31051120Y-9109711D01*
X31068564Y-9116372D01*
X31083676Y-9123467D01*
X31083678Y-9123468D01*
X31091800Y-9127281D01*
X31100667Y-9128662D01*
X31100668Y-9128662D01*
X31103353Y-9129080D01*
X31121017Y-9131830D01*
X31137732Y-9135613D01*
X31157466Y-9141515D01*
X31157472Y-9141516D01*
X31166066Y-9144086D01*
X31175037Y-9144141D01*
X31175038Y-9144141D01*
X31185097Y-9144202D01*
X31200506Y-9144296D01*
X31201289Y-9144329D01*
X31202386Y-9144500D01*
X31233377Y-9144500D01*
X31234147Y-9144502D01*
X31307785Y-9144952D01*
X31307786Y-9144952D01*
X31311721Y-9144976D01*
X31313065Y-9144592D01*
X31314410Y-9144500D01*
X35043377Y-9144500D01*
X35044148Y-9144502D01*
X35121721Y-9144976D01*
X35150152Y-9136850D01*
X35166915Y-9133272D01*
X35167753Y-9133152D01*
X35196187Y-9129080D01*
X35219564Y-9118451D01*
X35237087Y-9112004D01*
X35261771Y-9104949D01*
X35269365Y-9100157D01*
X35269368Y-9100156D01*
X35286780Y-9089170D01*
X35301865Y-9081030D01*
X35328782Y-9068792D01*
X35348235Y-9052030D01*
X35363239Y-9040927D01*
X35384958Y-9027224D01*
X35390897Y-9020499D01*
X35390901Y-9020496D01*
X35404532Y-9005062D01*
X35416724Y-8993018D01*
X35432327Y-8979573D01*
X35432329Y-8979570D01*
X35439127Y-8973713D01*
X35453094Y-8952165D01*
X35464385Y-8937291D01*
X35475431Y-8924783D01*
X35475432Y-8924782D01*
X35481378Y-8918049D01*
X35493943Y-8891287D01*
X35502263Y-8876309D01*
X35513471Y-8859017D01*
X35513473Y-8859012D01*
X35518352Y-8851485D01*
X35520922Y-8842892D01*
X35520924Y-8842887D01*
X35525711Y-8826880D01*
X35532372Y-8809436D01*
X35539467Y-8794324D01*
X35539468Y-8794322D01*
X35543281Y-8786200D01*
X35545180Y-8774008D01*
X35547830Y-8756985D01*
X35551613Y-8740268D01*
X35557515Y-8720534D01*
X35557516Y-8720528D01*
X35560086Y-8711934D01*
X35560296Y-8677494D01*
X35560329Y-8676711D01*
X35560500Y-8675614D01*
X35560500Y-8644623D01*
X35560502Y-8643853D01*
X35560952Y-8570215D01*
X35560952Y-8570214D01*
X35560976Y-8566279D01*
X35560592Y-8564935D01*
X35560500Y-8563590D01*
X35560500Y-4064000D01*
X39555540Y-4064000D01*
X39575359Y-4379020D01*
X39634505Y-4689072D01*
X39732044Y-4989266D01*
X39733731Y-4992852D01*
X39733733Y-4992856D01*
X39864750Y-5271283D01*
X39864754Y-5271290D01*
X39866438Y-5274869D01*
X40035568Y-5541375D01*
X40236767Y-5784582D01*
X40466860Y-6000654D01*
X40722221Y-6186184D01*
X40998821Y-6338247D01*
X41002490Y-6339700D01*
X41002495Y-6339702D01*
X41288628Y-6452990D01*
X41292298Y-6454443D01*
X41598025Y-6532940D01*
X41911179Y-6572500D01*
X42226821Y-6572500D01*
X42539975Y-6532940D01*
X42845702Y-6454443D01*
X42849372Y-6452990D01*
X43135505Y-6339702D01*
X43135510Y-6339700D01*
X43139179Y-6338247D01*
X43415779Y-6186184D01*
X43671140Y-6000654D01*
X43901233Y-5784582D01*
X44102432Y-5541375D01*
X44271562Y-5274869D01*
X44273246Y-5271290D01*
X44273250Y-5271283D01*
X44404267Y-4992856D01*
X44404269Y-4992852D01*
X44405956Y-4989266D01*
X44503495Y-4689072D01*
X44562641Y-4379020D01*
X44582460Y-4064000D01*
X44562641Y-3748980D01*
X44503495Y-3438928D01*
X44405956Y-3138734D01*
X44404267Y-3135144D01*
X44273250Y-2856717D01*
X44273246Y-2856710D01*
X44271562Y-2853131D01*
X44102432Y-2586625D01*
X43901233Y-2343418D01*
X43671140Y-2127346D01*
X43415779Y-1941816D01*
X43139179Y-1789753D01*
X43135510Y-1788300D01*
X43135505Y-1788298D01*
X42849372Y-1675010D01*
X42849371Y-1675010D01*
X42845702Y-1673557D01*
X42539975Y-1595060D01*
X42226821Y-1555500D01*
X41911179Y-1555500D01*
X41598025Y-1595060D01*
X41292298Y-1673557D01*
X41288629Y-1675010D01*
X41288628Y-1675010D01*
X41002495Y-1788298D01*
X41002490Y-1788300D01*
X40998821Y-1789753D01*
X40722221Y-1941816D01*
X40466860Y-2127346D01*
X40236767Y-2343418D01*
X40035568Y-2586625D01*
X39866438Y-2853131D01*
X39864754Y-2856710D01*
X39864750Y-2856717D01*
X39733733Y-3135144D01*
X39732044Y-3138734D01*
X39634505Y-3438928D01*
X39575359Y-3748980D01*
X39557833Y-4027559D01*
X39555540Y-4064000D01*
X35560500Y-4064000D01*
X35560500Y-634500D01*
X35580502Y-566379D01*
X35634158Y-519886D01*
X35686500Y-508500D01*
X45593500Y-508500D01*
X45661621Y-528502D01*
X45708114Y-582158D01*
X45719500Y-634500D01*
X45719500Y-69469500D01*
X45699498Y-69537621D01*
X45645842Y-69584114D01*
X45593500Y-69595500D01*
X4698500Y-69595500D01*
X4630379Y-69575498D01*
X4583886Y-69521842D01*
X4572500Y-69469500D01*
X4572500Y-66072000D01*
X22632540Y-66072000D01*
X22652359Y-66387020D01*
X22711505Y-66697072D01*
X22809044Y-66997266D01*
X22810731Y-67000852D01*
X22810733Y-67000856D01*
X22941750Y-67279283D01*
X22941754Y-67279290D01*
X22943438Y-67282869D01*
X23112568Y-67549375D01*
X23313767Y-67792582D01*
X23543860Y-68008654D01*
X23799221Y-68194184D01*
X24075821Y-68346247D01*
X24079490Y-68347700D01*
X24079495Y-68347702D01*
X24365628Y-68460990D01*
X24369298Y-68462443D01*
X24675025Y-68540940D01*
X24988179Y-68580500D01*
X25303821Y-68580500D01*
X25616975Y-68540940D01*
X25922702Y-68462443D01*
X25926372Y-68460990D01*
X26212505Y-68347702D01*
X26212510Y-68347700D01*
X26216179Y-68346247D01*
X26492779Y-68194184D01*
X26748140Y-68008654D01*
X26978233Y-67792582D01*
X27179432Y-67549375D01*
X27348562Y-67282869D01*
X27350246Y-67279290D01*
X27350250Y-67279283D01*
X27481267Y-67000856D01*
X27481269Y-67000852D01*
X27482956Y-66997266D01*
X27580495Y-66697072D01*
X27639641Y-66387020D01*
X27659460Y-66072000D01*
X27639641Y-65756980D01*
X27580495Y-65446928D01*
X27482956Y-65146734D01*
X27481267Y-65143144D01*
X27350250Y-64864717D01*
X27350246Y-64864710D01*
X27348562Y-64861131D01*
X27179432Y-64594625D01*
X26978233Y-64351418D01*
X26748140Y-64135346D01*
X26492779Y-63949816D01*
X26216179Y-63797753D01*
X26212510Y-63796300D01*
X26212505Y-63796298D01*
X25926372Y-63683010D01*
X25926371Y-63683010D01*
X25922702Y-63681557D01*
X25616975Y-63603060D01*
X25303821Y-63563500D01*
X24988179Y-63563500D01*
X24675025Y-63603060D01*
X24369298Y-63681557D01*
X24365629Y-63683010D01*
X24365628Y-63683010D01*
X24079495Y-63796298D01*
X24079490Y-63796300D01*
X24075821Y-63797753D01*
X23799221Y-63949816D01*
X23543860Y-64135346D01*
X23313767Y-64351418D01*
X23112568Y-64594625D01*
X22943438Y-64861131D01*
X22941754Y-64864710D01*
X22941750Y-64864717D01*
X22810733Y-65143144D01*
X22809044Y-65146734D01*
X22711505Y-65446928D01*
X22652359Y-65756980D01*
X22634833Y-66035559D01*
X22632540Y-66072000D01*
X4572500Y-66072000D01*
X4572500Y-58375139D01*
X33141296Y-58375139D01*
X33153480Y-58628786D01*
X33203021Y-58877845D01*
X33204600Y-58882243D01*
X33204602Y-58882250D01*
X33287248Y-59112437D01*
X33288831Y-59116846D01*
X33409025Y-59340539D01*
X33411820Y-59344282D01*
X33411822Y-59344285D01*
X33558171Y-59540270D01*
X33558176Y-59540276D01*
X33560963Y-59544008D01*
X33564272Y-59547288D01*
X33564277Y-59547294D01*
X33737990Y-59719497D01*
X33741307Y-59722785D01*
X33745069Y-59725543D01*
X33745072Y-59725546D01*
X33850764Y-59803042D01*
X33946094Y-59872941D01*
X33950229Y-59875117D01*
X33950233Y-59875119D01*
X34068289Y-59937231D01*
X34170827Y-59991179D01*
X34410568Y-60074900D01*
X34660050Y-60122266D01*
X34780532Y-60126999D01*
X34909125Y-60132052D01*
X34909130Y-60132052D01*
X34913793Y-60132235D01*
X35012774Y-60121395D01*
X35161569Y-60105100D01*
X35161575Y-60105099D01*
X35166222Y-60104590D01*
X35275680Y-60075772D01*
X35407273Y-60041126D01*
X35411793Y-60039936D01*
X35560449Y-59976069D01*
X35640807Y-59941545D01*
X35640810Y-59941543D01*
X35645110Y-59939696D01*
X35649090Y-59937233D01*
X35649094Y-59937231D01*
X35857064Y-59808535D01*
X35857066Y-59808533D01*
X35861047Y-59806070D01*
X35959826Y-59722448D01*
X36051289Y-59645019D01*
X36051291Y-59645017D01*
X36054862Y-59641994D01*
X36222295Y-59451072D01*
X36359669Y-59237500D01*
X36404618Y-59137717D01*
X36450834Y-59083823D01*
X36518850Y-59063470D01*
X36587073Y-59083120D01*
X36633842Y-59136535D01*
X36645500Y-59189468D01*
X36645500Y-59668122D01*
X36652255Y-59730304D01*
X36703385Y-59866693D01*
X36790739Y-59983249D01*
X36907295Y-60070603D01*
X37043684Y-60121733D01*
X37105866Y-60128488D01*
X39602134Y-60128488D01*
X39664316Y-60121733D01*
X39800705Y-60070603D01*
X39917261Y-59983249D01*
X40004615Y-59866693D01*
X40055745Y-59730304D01*
X40062500Y-59668122D01*
X40062500Y-57171854D01*
X40055745Y-57109672D01*
X40004615Y-56973283D01*
X39917261Y-56856727D01*
X39800705Y-56769373D01*
X39664316Y-56718243D01*
X39602134Y-56711488D01*
X37105866Y-56711488D01*
X37043684Y-56718243D01*
X36907295Y-56769373D01*
X36790739Y-56856727D01*
X36703385Y-56973283D01*
X36652255Y-57109672D01*
X36645500Y-57171854D01*
X36645500Y-57641040D01*
X36625498Y-57709161D01*
X36571842Y-57755654D01*
X36501568Y-57765758D01*
X36436988Y-57736264D01*
X36404829Y-57690627D01*
X36404099Y-57690975D01*
X36402084Y-57686750D01*
X36400391Y-57682397D01*
X36379866Y-57646486D01*
X36276702Y-57465985D01*
X36276700Y-57465983D01*
X36274383Y-57461928D01*
X36117171Y-57262505D01*
X35932209Y-57088511D01*
X35888483Y-57058177D01*
X35727393Y-56946425D01*
X35727390Y-56946423D01*
X35723561Y-56943767D01*
X35719384Y-56941707D01*
X35719377Y-56941703D01*
X35499996Y-56833516D01*
X35499992Y-56833515D01*
X35495810Y-56831452D01*
X35253960Y-56754035D01*
X35249355Y-56753285D01*
X35007935Y-56713968D01*
X35007934Y-56713968D01*
X35003323Y-56713217D01*
X34876364Y-56711555D01*
X34754083Y-56709954D01*
X34754080Y-56709954D01*
X34749406Y-56709893D01*
X34497787Y-56744137D01*
X34253993Y-56815196D01*
X34023380Y-56921510D01*
X34019471Y-56924073D01*
X33814928Y-57058177D01*
X33814923Y-57058181D01*
X33811015Y-57060743D01*
X33621562Y-57229836D01*
X33459183Y-57425075D01*
X33327447Y-57642170D01*
X33229246Y-57876353D01*
X33166738Y-58122478D01*
X33141296Y-58375139D01*
X4572500Y-58375139D01*
X4572500Y-44035695D01*
X9305251Y-44035695D01*
X9318110Y-44258715D01*
X9319247Y-44263761D01*
X9319248Y-44263767D01*
X9343304Y-44370508D01*
X9367222Y-44476639D01*
X9451266Y-44683616D01*
X9453965Y-44688020D01*
X9539303Y-44827279D01*
X9567987Y-44874088D01*
X9714250Y-45042938D01*
X9886126Y-45185632D01*
X10079000Y-45298338D01*
X10287692Y-45378030D01*
X10292760Y-45379061D01*
X10292763Y-45379062D01*
X10462343Y-45413563D01*
X10506597Y-45422567D01*
X10511772Y-45422757D01*
X10511774Y-45422757D01*
X10549239Y-45424131D01*
X10616581Y-45446616D01*
X10633716Y-45460951D01*
X12832145Y-47659379D01*
X12841247Y-47669522D01*
X12864968Y-47699025D01*
X12876933Y-47709065D01*
X12903421Y-47731291D01*
X12907069Y-47734472D01*
X12908881Y-47736115D01*
X12911075Y-47738309D01*
X12944349Y-47765642D01*
X12945147Y-47766304D01*
X13016474Y-47826154D01*
X13021144Y-47828722D01*
X13025261Y-47832103D01*
X13107120Y-47875995D01*
X13108280Y-47876624D01*
X13184389Y-47918466D01*
X13184394Y-47918468D01*
X13189787Y-47921433D01*
X13194865Y-47923044D01*
X13199563Y-47925563D01*
X13288498Y-47952753D01*
X13289702Y-47953128D01*
X13378306Y-47981235D01*
X13383597Y-47981828D01*
X13388698Y-47983388D01*
X13394830Y-47984011D01*
X13394836Y-47984012D01*
X13455338Y-47990157D01*
X13481263Y-47992790D01*
X13482450Y-47992916D01*
X13511838Y-47996213D01*
X13528730Y-47998108D01*
X13528735Y-47998108D01*
X13532227Y-47998500D01*
X13535752Y-47998500D01*
X13536737Y-47998555D01*
X13542432Y-47999003D01*
X13554342Y-48000213D01*
X13579334Y-48002752D01*
X13579339Y-48002752D01*
X13585462Y-48003374D01*
X13631108Y-47999059D01*
X13642967Y-47998500D01*
X27116157Y-47998500D01*
X27129764Y-47999237D01*
X27161262Y-48002659D01*
X27161267Y-48002659D01*
X27167388Y-48003324D01*
X27193638Y-48001027D01*
X27217388Y-47998950D01*
X27222214Y-47998621D01*
X27224686Y-47998500D01*
X27227769Y-47998500D01*
X27239738Y-47997326D01*
X27270506Y-47994310D01*
X27271819Y-47994188D01*
X27316084Y-47990315D01*
X27364413Y-47986087D01*
X27369532Y-47984600D01*
X27374833Y-47984080D01*
X27463834Y-47957209D01*
X27464967Y-47956874D01*
X27548414Y-47932630D01*
X27548418Y-47932628D01*
X27554336Y-47930909D01*
X27559068Y-47928456D01*
X27564169Y-47926916D01*
X27580062Y-47918466D01*
X27646260Y-47883269D01*
X27647426Y-47882657D01*
X27724453Y-47842729D01*
X27729926Y-47839892D01*
X27734089Y-47836569D01*
X27738796Y-47834066D01*
X27810918Y-47775245D01*
X27811774Y-47774554D01*
X27850973Y-47743262D01*
X27853477Y-47740758D01*
X27854195Y-47740116D01*
X27858528Y-47736415D01*
X27892062Y-47709065D01*
X27921291Y-47673733D01*
X27929272Y-47664963D01*
X28609383Y-46984851D01*
X28619527Y-46975749D01*
X28644218Y-46955897D01*
X28649025Y-46952032D01*
X28681292Y-46913578D01*
X28684472Y-46909931D01*
X28686115Y-46908119D01*
X28688309Y-46905925D01*
X28715642Y-46872651D01*
X28716348Y-46871800D01*
X28772195Y-46805244D01*
X28776154Y-46800526D01*
X28778722Y-46795856D01*
X28782103Y-46791739D01*
X28826015Y-46709842D01*
X28826624Y-46708720D01*
X28868466Y-46632611D01*
X28868468Y-46632606D01*
X28871433Y-46627213D01*
X28873044Y-46622135D01*
X28875563Y-46617437D01*
X28902753Y-46528502D01*
X28903136Y-46527272D01*
X28929371Y-46444570D01*
X28931235Y-46438694D01*
X28931828Y-46433403D01*
X28933388Y-46428302D01*
X28942795Y-46335689D01*
X28942915Y-46334569D01*
X28948500Y-46284773D01*
X28948500Y-46281244D01*
X28948555Y-46280261D01*
X28949004Y-46274556D01*
X28952752Y-46237664D01*
X28952752Y-46237661D01*
X28953374Y-46231537D01*
X28949059Y-46185888D01*
X28948500Y-46174031D01*
X28948500Y-36129842D01*
X28949237Y-36116235D01*
X28952659Y-36084737D01*
X28952659Y-36084732D01*
X28953324Y-36078611D01*
X28948950Y-36028609D01*
X28948621Y-36023784D01*
X28948500Y-36021313D01*
X28948500Y-36018231D01*
X28944309Y-35975489D01*
X28944187Y-35974174D01*
X28936623Y-35887719D01*
X28936087Y-35881587D01*
X28934600Y-35876468D01*
X28934080Y-35871167D01*
X28907209Y-35782166D01*
X28906874Y-35781033D01*
X28882630Y-35697586D01*
X28882628Y-35697582D01*
X28880909Y-35691664D01*
X28878456Y-35686932D01*
X28876916Y-35681831D01*
X28833269Y-35599740D01*
X28832657Y-35598574D01*
X28792729Y-35521547D01*
X28789892Y-35516074D01*
X28786569Y-35511911D01*
X28784066Y-35507204D01*
X28725245Y-35435082D01*
X28724554Y-35434226D01*
X28693262Y-35395027D01*
X28690758Y-35392523D01*
X28690116Y-35391805D01*
X28686415Y-35387472D01*
X28659065Y-35353938D01*
X28623737Y-35324712D01*
X28614958Y-35316723D01*
X20353405Y-27055171D01*
X20319379Y-26992859D01*
X20316500Y-26966076D01*
X20316500Y-22083371D01*
X20336502Y-22015250D01*
X20353405Y-21994276D01*
X21994276Y-20353405D01*
X22056588Y-20319379D01*
X22083371Y-20316500D01*
X22190413Y-20316500D01*
X22264472Y-20340563D01*
X22270902Y-20345235D01*
X22270909Y-20345239D01*
X22276248Y-20349118D01*
X22282276Y-20351802D01*
X22282278Y-20351803D01*
X22444681Y-20424109D01*
X22450712Y-20426794D01*
X22544113Y-20446647D01*
X22631056Y-20465128D01*
X22631061Y-20465128D01*
X22637513Y-20466500D01*
X22828487Y-20466500D01*
X22834939Y-20465128D01*
X22834944Y-20465128D01*
X22921887Y-20446647D01*
X23015288Y-20426794D01*
X23021319Y-20424109D01*
X23183722Y-20351803D01*
X23183724Y-20351802D01*
X23189752Y-20349118D01*
X23195091Y-20345239D01*
X23195098Y-20345235D01*
X23201528Y-20340563D01*
X23275587Y-20316500D01*
X29175413Y-20316500D01*
X29249472Y-20340563D01*
X29255902Y-20345235D01*
X29255909Y-20345239D01*
X29261248Y-20349118D01*
X29267276Y-20351802D01*
X29267278Y-20351803D01*
X29429681Y-20424109D01*
X29435712Y-20426794D01*
X29529113Y-20446647D01*
X29616056Y-20465128D01*
X29616061Y-20465128D01*
X29622513Y-20466500D01*
X29813487Y-20466500D01*
X29819939Y-20465128D01*
X29819944Y-20465128D01*
X29906887Y-20446647D01*
X30000288Y-20426794D01*
X30006319Y-20424109D01*
X30168722Y-20351803D01*
X30168724Y-20351802D01*
X30174752Y-20349118D01*
X30180097Y-20345235D01*
X30230157Y-20308864D01*
X30329253Y-20236866D01*
X30457040Y-20094944D01*
X30552527Y-19929556D01*
X30611542Y-19747928D01*
X30631504Y-19558000D01*
X30611542Y-19368072D01*
X30552527Y-19186444D01*
X30457040Y-19021056D01*
X30417783Y-18977456D01*
X30333675Y-18884045D01*
X30333674Y-18884044D01*
X30329253Y-18879134D01*
X30219647Y-18799500D01*
X30180094Y-18770763D01*
X30180093Y-18770762D01*
X30174752Y-18766882D01*
X30168724Y-18764198D01*
X30168722Y-18764197D01*
X30006319Y-18691891D01*
X30006318Y-18691891D01*
X30000288Y-18689206D01*
X29906888Y-18669353D01*
X29819944Y-18650872D01*
X29819939Y-18650872D01*
X29813487Y-18649500D01*
X29622513Y-18649500D01*
X29616061Y-18650872D01*
X29616056Y-18650872D01*
X29529112Y-18669353D01*
X29435712Y-18689206D01*
X29429682Y-18691891D01*
X29429681Y-18691891D01*
X29267278Y-18764197D01*
X29267276Y-18764198D01*
X29261248Y-18766882D01*
X29255909Y-18770761D01*
X29255902Y-18770765D01*
X29249472Y-18775437D01*
X29175413Y-18799500D01*
X23275587Y-18799500D01*
X23201528Y-18775437D01*
X23195098Y-18770765D01*
X23195091Y-18770761D01*
X23189752Y-18766882D01*
X23183724Y-18764198D01*
X23183722Y-18764197D01*
X23021319Y-18691891D01*
X23021318Y-18691891D01*
X23015288Y-18689206D01*
X22921888Y-18669353D01*
X22834944Y-18650872D01*
X22834939Y-18650872D01*
X22828487Y-18649500D01*
X22637513Y-18649500D01*
X22631061Y-18650872D01*
X22631056Y-18650872D01*
X22544112Y-18669353D01*
X22450712Y-18689206D01*
X22444682Y-18691891D01*
X22444681Y-18691891D01*
X22282278Y-18764197D01*
X22282276Y-18764198D01*
X22276248Y-18766882D01*
X22270909Y-18770761D01*
X22270902Y-18770765D01*
X22264472Y-18775437D01*
X22190413Y-18799500D01*
X21784070Y-18799500D01*
X21765120Y-18798067D01*
X21750885Y-18795901D01*
X21750881Y-18795901D01*
X21743651Y-18794801D01*
X21736359Y-18795394D01*
X21736356Y-18795394D01*
X21690982Y-18799085D01*
X21680767Y-18799500D01*
X21672707Y-18799500D01*
X21659417Y-18801049D01*
X21644493Y-18802789D01*
X21640118Y-18803222D01*
X21574661Y-18808546D01*
X21574658Y-18808547D01*
X21567363Y-18809140D01*
X21560399Y-18811396D01*
X21554440Y-18812587D01*
X21548585Y-18813971D01*
X21541319Y-18814818D01*
X21472673Y-18839735D01*
X21468545Y-18841152D01*
X21406064Y-18861393D01*
X21406062Y-18861394D01*
X21399101Y-18863649D01*
X21392846Y-18867445D01*
X21387372Y-18869951D01*
X21381942Y-18872670D01*
X21375063Y-18875167D01*
X21368943Y-18879180D01*
X21368942Y-18879180D01*
X21314024Y-18915186D01*
X21310320Y-18917523D01*
X21247893Y-18955405D01*
X21239516Y-18962803D01*
X21239492Y-18962776D01*
X21236500Y-18965429D01*
X21233267Y-18968132D01*
X21227148Y-18972144D01*
X21222116Y-18977456D01*
X21173872Y-19028383D01*
X21171494Y-19030825D01*
X19069089Y-21133230D01*
X19054677Y-21145616D01*
X19043082Y-21154149D01*
X19043077Y-21154154D01*
X19037182Y-21158492D01*
X19032443Y-21164070D01*
X19032440Y-21164073D01*
X19002965Y-21198768D01*
X18996035Y-21206284D01*
X18990340Y-21211979D01*
X18988060Y-21214861D01*
X18972719Y-21234251D01*
X18969928Y-21237655D01*
X18927409Y-21287703D01*
X18922667Y-21293285D01*
X18919339Y-21299801D01*
X18915972Y-21304850D01*
X18912805Y-21309979D01*
X18908266Y-21315716D01*
X18877345Y-21381875D01*
X18875442Y-21385769D01*
X18842231Y-21450808D01*
X18840492Y-21457916D01*
X18838393Y-21463559D01*
X18836476Y-21469322D01*
X18833378Y-21475950D01*
X18831888Y-21483112D01*
X18831888Y-21483113D01*
X18818514Y-21547412D01*
X18817544Y-21551696D01*
X18800192Y-21622610D01*
X18799500Y-21633764D01*
X18799464Y-21633762D01*
X18799225Y-21637755D01*
X18798851Y-21641947D01*
X18797360Y-21649115D01*
X18797558Y-21656432D01*
X18799454Y-21726521D01*
X18799500Y-21729928D01*
X18799500Y-26551500D01*
X18779498Y-26619621D01*
X18725842Y-26666114D01*
X18673500Y-26677500D01*
X15571231Y-26677500D01*
X15568175Y-26677800D01*
X15568168Y-26677800D01*
X15509660Y-26683537D01*
X15424167Y-26691920D01*
X15418266Y-26693702D01*
X15418264Y-26693702D01*
X15344947Y-26715838D01*
X15234831Y-26749084D01*
X15060204Y-26841934D01*
X14973938Y-26912291D01*
X14911713Y-26963040D01*
X14911710Y-26963043D01*
X14906938Y-26966935D01*
X14903011Y-26971682D01*
X14903009Y-26971684D01*
X14784799Y-27114575D01*
X14784797Y-27114579D01*
X14780870Y-27119325D01*
X14686802Y-27293299D01*
X14628318Y-27482232D01*
X14607645Y-27678925D01*
X14625570Y-27875888D01*
X14681410Y-28065619D01*
X14773040Y-28240890D01*
X14896968Y-28395025D01*
X15048474Y-28522154D01*
X15053872Y-28525121D01*
X15053877Y-28525125D01*
X15197180Y-28603905D01*
X15221787Y-28617433D01*
X15227654Y-28619294D01*
X15227656Y-28619295D01*
X15404436Y-28675373D01*
X15410306Y-28677235D01*
X15564227Y-28694500D01*
X19088075Y-28694500D01*
X19156196Y-28714502D01*
X19177170Y-28731405D01*
X26894595Y-36448829D01*
X26928621Y-36511141D01*
X26931500Y-36537924D01*
X26931500Y-45758076D01*
X26911498Y-45826197D01*
X26894595Y-45847171D01*
X26797171Y-45944595D01*
X26734859Y-45978621D01*
X26708076Y-45981500D01*
X14058924Y-45981500D01*
X13990803Y-45961498D01*
X13969829Y-45944595D01*
X12475234Y-44450000D01*
X16612496Y-44450000D01*
X16632458Y-44639928D01*
X16691473Y-44821556D01*
X16786960Y-44986944D01*
X16914747Y-45128866D01*
X17069248Y-45241118D01*
X17075276Y-45243802D01*
X17075278Y-45243803D01*
X17201906Y-45300181D01*
X17243712Y-45318794D01*
X17337112Y-45338647D01*
X17424056Y-45357128D01*
X17424061Y-45357128D01*
X17430513Y-45358500D01*
X17621487Y-45358500D01*
X17627939Y-45357128D01*
X17627944Y-45357128D01*
X17714888Y-45338647D01*
X17808288Y-45318794D01*
X17850094Y-45300181D01*
X17976722Y-45243803D01*
X17976724Y-45243802D01*
X17982752Y-45241118D01*
X18137253Y-45128866D01*
X18265040Y-44986944D01*
X18360527Y-44821556D01*
X18419542Y-44639928D01*
X18439504Y-44450000D01*
X18419542Y-44260072D01*
X18360527Y-44078444D01*
X18301381Y-43976000D01*
X18284500Y-43913001D01*
X18284500Y-35926371D01*
X18304502Y-35858250D01*
X18321405Y-35837276D01*
X20476331Y-33682350D01*
X20539228Y-33648199D01*
X20595824Y-33636169D01*
X20595833Y-33636166D01*
X20602288Y-33634794D01*
X20608319Y-33632109D01*
X20770722Y-33559803D01*
X20770724Y-33559802D01*
X20776752Y-33557118D01*
X20931253Y-33444866D01*
X21059040Y-33302944D01*
X21154527Y-33137556D01*
X21213542Y-32955928D01*
X21233504Y-32766000D01*
X21213542Y-32576072D01*
X21154527Y-32394444D01*
X21059040Y-32229056D01*
X20931253Y-32087134D01*
X20776752Y-31974882D01*
X20770724Y-31972198D01*
X20770722Y-31972197D01*
X20608319Y-31899891D01*
X20608318Y-31899891D01*
X20602288Y-31897206D01*
X20508887Y-31877353D01*
X20421944Y-31858872D01*
X20421939Y-31858872D01*
X20415487Y-31857500D01*
X20224513Y-31857500D01*
X20218061Y-31858872D01*
X20218056Y-31858872D01*
X20131113Y-31877353D01*
X20037712Y-31897206D01*
X20031682Y-31899891D01*
X20031681Y-31899891D01*
X19869278Y-31972197D01*
X19869276Y-31972198D01*
X19863248Y-31974882D01*
X19708747Y-32087134D01*
X19580960Y-32229056D01*
X19485473Y-32394444D01*
X19483431Y-32400729D01*
X19430613Y-32563285D01*
X19399875Y-32613444D01*
X17037089Y-34976230D01*
X17022677Y-34988616D01*
X17011082Y-34997149D01*
X17011077Y-34997154D01*
X17005182Y-35001492D01*
X17000443Y-35007070D01*
X17000440Y-35007073D01*
X16970965Y-35041768D01*
X16964035Y-35049284D01*
X16958340Y-35054979D01*
X16956060Y-35057861D01*
X16940719Y-35077251D01*
X16937928Y-35080655D01*
X16895409Y-35130703D01*
X16890667Y-35136285D01*
X16887339Y-35142801D01*
X16883972Y-35147850D01*
X16880805Y-35152979D01*
X16876266Y-35158716D01*
X16845345Y-35224875D01*
X16843442Y-35228769D01*
X16810231Y-35293808D01*
X16808492Y-35300916D01*
X16806393Y-35306559D01*
X16804476Y-35312322D01*
X16801378Y-35318950D01*
X16799888Y-35326112D01*
X16799888Y-35326113D01*
X16786514Y-35390412D01*
X16785544Y-35394696D01*
X16768192Y-35465610D01*
X16767500Y-35476764D01*
X16767464Y-35476762D01*
X16767225Y-35480755D01*
X16766851Y-35484947D01*
X16765360Y-35492115D01*
X16765558Y-35499432D01*
X16767454Y-35569521D01*
X16767500Y-35572928D01*
X16767500Y-43913001D01*
X16750619Y-43976000D01*
X16691473Y-44078444D01*
X16632458Y-44260072D01*
X16612496Y-44450000D01*
X12475234Y-44450000D01*
X12058199Y-44032965D01*
X12024173Y-43970653D01*
X12021718Y-43954195D01*
X12013276Y-43851521D01*
X12012852Y-43846361D01*
X11958431Y-43629702D01*
X11869354Y-43424840D01*
X11748014Y-43237277D01*
X11597670Y-43072051D01*
X11593619Y-43068852D01*
X11593615Y-43068848D01*
X11426414Y-42936800D01*
X11426410Y-42936798D01*
X11422359Y-42933598D01*
X11381053Y-42910796D01*
X11331084Y-42860364D01*
X11316312Y-42790921D01*
X11341428Y-42724516D01*
X11368780Y-42697909D01*
X11412603Y-42666650D01*
X11547860Y-42570173D01*
X11706096Y-42412489D01*
X11765594Y-42329689D01*
X11833435Y-42235277D01*
X11836453Y-42231077D01*
X11935430Y-42030811D01*
X12000370Y-41817069D01*
X12029529Y-41595590D01*
X12031156Y-41529000D01*
X12012852Y-41306361D01*
X11958431Y-41089702D01*
X11869354Y-40884840D01*
X11748014Y-40697277D01*
X11597670Y-40532051D01*
X11593619Y-40528852D01*
X11593615Y-40528848D01*
X11426414Y-40396800D01*
X11426410Y-40396798D01*
X11422359Y-40393598D01*
X11226789Y-40285638D01*
X11221920Y-40283914D01*
X11221916Y-40283912D01*
X11021087Y-40212795D01*
X11021083Y-40212794D01*
X11016212Y-40211069D01*
X11011119Y-40210162D01*
X11011116Y-40210161D01*
X10801373Y-40172800D01*
X10801367Y-40172799D01*
X10796284Y-40171894D01*
X10722452Y-40170992D01*
X10578081Y-40169228D01*
X10578079Y-40169228D01*
X10572911Y-40169165D01*
X10352091Y-40202955D01*
X10139756Y-40272357D01*
X9941607Y-40375507D01*
X9937474Y-40378610D01*
X9937471Y-40378612D01*
X9913247Y-40396800D01*
X9762965Y-40509635D01*
X9608629Y-40671138D01*
X9482743Y-40855680D01*
X9388688Y-41058305D01*
X9328989Y-41273570D01*
X9305251Y-41495695D01*
X9305548Y-41500848D01*
X9305548Y-41500851D01*
X9311011Y-41595590D01*
X9318110Y-41718715D01*
X9319247Y-41723761D01*
X9319248Y-41723767D01*
X9339119Y-41811939D01*
X9367222Y-41936639D01*
X9451266Y-42143616D01*
X9567987Y-42334088D01*
X9714250Y-42502938D01*
X9886126Y-42645632D01*
X9956595Y-42686811D01*
X9959445Y-42688476D01*
X10008169Y-42740114D01*
X10021240Y-42809897D01*
X9994509Y-42875669D01*
X9954055Y-42909027D01*
X9941607Y-42915507D01*
X9937474Y-42918610D01*
X9937471Y-42918612D01*
X9913247Y-42936800D01*
X9762965Y-43049635D01*
X9608629Y-43211138D01*
X9482743Y-43395680D01*
X9388688Y-43598305D01*
X9328989Y-43813570D01*
X9305251Y-44035695D01*
X4572500Y-44035695D01*
X4572500Y-4064000D01*
X5646540Y-4064000D01*
X5666359Y-4379020D01*
X5725505Y-4689072D01*
X5823044Y-4989266D01*
X5824731Y-4992852D01*
X5824733Y-4992856D01*
X5955750Y-5271283D01*
X5955754Y-5271290D01*
X5957438Y-5274869D01*
X6126568Y-5541375D01*
X6327767Y-5784582D01*
X6557860Y-6000654D01*
X6813221Y-6186184D01*
X7089821Y-6338247D01*
X7093490Y-6339700D01*
X7093495Y-6339702D01*
X7379628Y-6452990D01*
X7383298Y-6454443D01*
X7689025Y-6532940D01*
X8002179Y-6572500D01*
X8317821Y-6572500D01*
X8630975Y-6532940D01*
X8936702Y-6454443D01*
X8940372Y-6452990D01*
X9226505Y-6339702D01*
X9226510Y-6339700D01*
X9230179Y-6338247D01*
X9506779Y-6186184D01*
X9762140Y-6000654D01*
X9992233Y-5784582D01*
X10193432Y-5541375D01*
X10362562Y-5274869D01*
X10364246Y-5271290D01*
X10364250Y-5271283D01*
X10495267Y-4992856D01*
X10495269Y-4992852D01*
X10496956Y-4989266D01*
X10594495Y-4689072D01*
X10653641Y-4379020D01*
X10673460Y-4064000D01*
X10653641Y-3748980D01*
X10594495Y-3438928D01*
X10496956Y-3138734D01*
X10495267Y-3135144D01*
X10364250Y-2856717D01*
X10364246Y-2856710D01*
X10362562Y-2853131D01*
X10193432Y-2586625D01*
X9992233Y-2343418D01*
X9762140Y-2127346D01*
X9506779Y-1941816D01*
X9230179Y-1789753D01*
X9226510Y-1788300D01*
X9226505Y-1788298D01*
X8940372Y-1675010D01*
X8940371Y-1675010D01*
X8936702Y-1673557D01*
X8630975Y-1595060D01*
X8317821Y-1555500D01*
X8002179Y-1555500D01*
X7689025Y-1595060D01*
X7383298Y-1673557D01*
X7379629Y-1675010D01*
X7379628Y-1675010D01*
X7093495Y-1788298D01*
X7093490Y-1788300D01*
X7089821Y-1789753D01*
X6813221Y-1941816D01*
X6557860Y-2127346D01*
X6327767Y-2343418D01*
X6126568Y-2586625D01*
X5957438Y-2853131D01*
X5955754Y-2856710D01*
X5955750Y-2856717D01*
X5824733Y-3135144D01*
X5823044Y-3138734D01*
X5725505Y-3438928D01*
X5666359Y-3748980D01*
X5648833Y-4027559D01*
X5646540Y-4064000D01*
X4572500Y-4064000D01*
X4572500Y-634500D01*
X4592502Y-566379D01*
X4646158Y-519886D01*
X4698500Y-508500D01*
X14605500Y-508500D01*
X14673621Y-528502D01*
G37*
G04 #@! TD.AperFunction*
M02*
