(kicad_sch (version 20211123) (generator eeschema)

  (uuid a881b4dd-7efe-4045-b6bc-bf6d9430ae06)

  (paper "A4")

  (lib_symbols
    (symbol "Connector_Generic:Conn_02x04_Top_Bottom" (pin_names (offset 1.016) hide) (in_bom yes) (on_board yes)
      (property "Reference" "J" (id 0) (at 1.27 5.08 0)
        (effects (font (size 1.27 1.27)))
      )
      (property "Value" "Conn_02x04_Top_Bottom" (id 1) (at 1.27 -7.62 0)
        (effects (font (size 1.27 1.27)))
      )
      (property "Footprint" "" (id 2) (at 0 0 0)
        (effects (font (size 1.27 1.27)) hide)
      )
      (property "Datasheet" "~" (id 3) (at 0 0 0)
        (effects (font (size 1.27 1.27)) hide)
      )
      (property "ki_keywords" "connector" (id 4) (at 0 0 0)
        (effects (font (size 1.27 1.27)) hide)
      )
      (property "ki_description" "Generic connector, double row, 02x04, top/bottom pin numbering scheme (row 1: 1...pins_per_row, row2: pins_per_row+1 ... num_pins), script generated (kicad-library-utils/schlib/autogen/connector/)" (id 5) (at 0 0 0)
        (effects (font (size 1.27 1.27)) hide)
      )
      (property "ki_fp_filters" "Connector*:*_2x??_*" (id 6) (at 0 0 0)
        (effects (font (size 1.27 1.27)) hide)
      )
      (symbol "Conn_02x04_Top_Bottom_1_1"
        (rectangle (start -1.27 -4.953) (end 0 -5.207)
          (stroke (width 0.1524) (type default) (color 0 0 0 0))
          (fill (type none))
        )
        (rectangle (start -1.27 -2.413) (end 0 -2.667)
          (stroke (width 0.1524) (type default) (color 0 0 0 0))
          (fill (type none))
        )
        (rectangle (start -1.27 0.127) (end 0 -0.127)
          (stroke (width 0.1524) (type default) (color 0 0 0 0))
          (fill (type none))
        )
        (rectangle (start -1.27 2.667) (end 0 2.413)
          (stroke (width 0.1524) (type default) (color 0 0 0 0))
          (fill (type none))
        )
        (rectangle (start -1.27 3.81) (end 3.81 -6.35)
          (stroke (width 0.254) (type default) (color 0 0 0 0))
          (fill (type background))
        )
        (rectangle (start 3.81 -4.953) (end 2.54 -5.207)
          (stroke (width 0.1524) (type default) (color 0 0 0 0))
          (fill (type none))
        )
        (rectangle (start 3.81 -2.413) (end 2.54 -2.667)
          (stroke (width 0.1524) (type default) (color 0 0 0 0))
          (fill (type none))
        )
        (rectangle (start 3.81 0.127) (end 2.54 -0.127)
          (stroke (width 0.1524) (type default) (color 0 0 0 0))
          (fill (type none))
        )
        (rectangle (start 3.81 2.667) (end 2.54 2.413)
          (stroke (width 0.1524) (type default) (color 0 0 0 0))
          (fill (type none))
        )
        (pin passive line (at -5.08 2.54 0) (length 3.81)
          (name "Pin_1" (effects (font (size 1.27 1.27))))
          (number "1" (effects (font (size 1.27 1.27))))
        )
        (pin passive line (at -5.08 0 0) (length 3.81)
          (name "Pin_2" (effects (font (size 1.27 1.27))))
          (number "2" (effects (font (size 1.27 1.27))))
        )
        (pin passive line (at -5.08 -2.54 0) (length 3.81)
          (name "Pin_3" (effects (font (size 1.27 1.27))))
          (number "3" (effects (font (size 1.27 1.27))))
        )
        (pin passive line (at -5.08 -5.08 0) (length 3.81)
          (name "Pin_4" (effects (font (size 1.27 1.27))))
          (number "4" (effects (font (size 1.27 1.27))))
        )
        (pin passive line (at 7.62 2.54 180) (length 3.81)
          (name "Pin_5" (effects (font (size 1.27 1.27))))
          (number "5" (effects (font (size 1.27 1.27))))
        )
        (pin passive line (at 7.62 0 180) (length 3.81)
          (name "Pin_6" (effects (font (size 1.27 1.27))))
          (number "6" (effects (font (size 1.27 1.27))))
        )
        (pin passive line (at 7.62 -2.54 180) (length 3.81)
          (name "Pin_7" (effects (font (size 1.27 1.27))))
          (number "7" (effects (font (size 1.27 1.27))))
        )
        (pin passive line (at 7.62 -5.08 180) (length 3.81)
          (name "Pin_8" (effects (font (size 1.27 1.27))))
          (number "8" (effects (font (size 1.27 1.27))))
        )
      )
    )
    (symbol "Connector_Generic:Conn_02x05_Odd_Even" (pin_names (offset 1.016) hide) (in_bom yes) (on_board yes)
      (property "Reference" "J" (id 0) (at 1.27 7.62 0)
        (effects (font (size 1.27 1.27)))
      )
      (property "Value" "Conn_02x05_Odd_Even" (id 1) (at 1.27 -7.62 0)
        (effects (font (size 1.27 1.27)))
      )
      (property "Footprint" "" (id 2) (at 0 0 0)
        (effects (font (size 1.27 1.27)) hide)
      )
      (property "Datasheet" "~" (id 3) (at 0 0 0)
        (effects (font (size 1.27 1.27)) hide)
      )
      (property "ki_keywords" "connector" (id 4) (at 0 0 0)
        (effects (font (size 1.27 1.27)) hide)
      )
      (property "ki_description" "Generic connector, double row, 02x05, odd/even pin numbering scheme (row 1 odd numbers, row 2 even numbers), script generated (kicad-library-utils/schlib/autogen/connector/)" (id 5) (at 0 0 0)
        (effects (font (size 1.27 1.27)) hide)
      )
      (property "ki_fp_filters" "Connector*:*_2x??_*" (id 6) (at 0 0 0)
        (effects (font (size 1.27 1.27)) hide)
      )
      (symbol "Conn_02x05_Odd_Even_1_1"
        (rectangle (start -1.27 -4.953) (end 0 -5.207)
          (stroke (width 0.1524) (type default) (color 0 0 0 0))
          (fill (type none))
        )
        (rectangle (start -1.27 -2.413) (end 0 -2.667)
          (stroke (width 0.1524) (type default) (color 0 0 0 0))
          (fill (type none))
        )
        (rectangle (start -1.27 0.127) (end 0 -0.127)
          (stroke (width 0.1524) (type default) (color 0 0 0 0))
          (fill (type none))
        )
        (rectangle (start -1.27 2.667) (end 0 2.413)
          (stroke (width 0.1524) (type default) (color 0 0 0 0))
          (fill (type none))
        )
        (rectangle (start -1.27 5.207) (end 0 4.953)
          (stroke (width 0.1524) (type default) (color 0 0 0 0))
          (fill (type none))
        )
        (rectangle (start -1.27 6.35) (end 3.81 -6.35)
          (stroke (width 0.254) (type default) (color 0 0 0 0))
          (fill (type background))
        )
        (rectangle (start 3.81 -4.953) (end 2.54 -5.207)
          (stroke (width 0.1524) (type default) (color 0 0 0 0))
          (fill (type none))
        )
        (rectangle (start 3.81 -2.413) (end 2.54 -2.667)
          (stroke (width 0.1524) (type default) (color 0 0 0 0))
          (fill (type none))
        )
        (rectangle (start 3.81 0.127) (end 2.54 -0.127)
          (stroke (width 0.1524) (type default) (color 0 0 0 0))
          (fill (type none))
        )
        (rectangle (start 3.81 2.667) (end 2.54 2.413)
          (stroke (width 0.1524) (type default) (color 0 0 0 0))
          (fill (type none))
        )
        (rectangle (start 3.81 5.207) (end 2.54 4.953)
          (stroke (width 0.1524) (type default) (color 0 0 0 0))
          (fill (type none))
        )
        (pin passive line (at -5.08 5.08 0) (length 3.81)
          (name "Pin_1" (effects (font (size 1.27 1.27))))
          (number "1" (effects (font (size 1.27 1.27))))
        )
        (pin passive line (at 7.62 -5.08 180) (length 3.81)
          (name "Pin_10" (effects (font (size 1.27 1.27))))
          (number "10" (effects (font (size 1.27 1.27))))
        )
        (pin passive line (at 7.62 5.08 180) (length 3.81)
          (name "Pin_2" (effects (font (size 1.27 1.27))))
          (number "2" (effects (font (size 1.27 1.27))))
        )
        (pin passive line (at -5.08 2.54 0) (length 3.81)
          (name "Pin_3" (effects (font (size 1.27 1.27))))
          (number "3" (effects (font (size 1.27 1.27))))
        )
        (pin passive line (at 7.62 2.54 180) (length 3.81)
          (name "Pin_4" (effects (font (size 1.27 1.27))))
          (number "4" (effects (font (size 1.27 1.27))))
        )
        (pin passive line (at -5.08 0 0) (length 3.81)
          (name "Pin_5" (effects (font (size 1.27 1.27))))
          (number "5" (effects (font (size 1.27 1.27))))
        )
        (pin passive line (at 7.62 0 180) (length 3.81)
          (name "Pin_6" (effects (font (size 1.27 1.27))))
          (number "6" (effects (font (size 1.27 1.27))))
        )
        (pin passive line (at -5.08 -2.54 0) (length 3.81)
          (name "Pin_7" (effects (font (size 1.27 1.27))))
          (number "7" (effects (font (size 1.27 1.27))))
        )
        (pin passive line (at 7.62 -2.54 180) (length 3.81)
          (name "Pin_8" (effects (font (size 1.27 1.27))))
          (number "8" (effects (font (size 1.27 1.27))))
        )
        (pin passive line (at -5.08 -5.08 0) (length 3.81)
          (name "Pin_9" (effects (font (size 1.27 1.27))))
          (number "9" (effects (font (size 1.27 1.27))))
        )
      )
    )
    (symbol "Device:C_Small" (pin_numbers hide) (pin_names (offset 0.254) hide) (in_bom yes) (on_board yes)
      (property "Reference" "C" (id 0) (at 0.254 1.778 0)
        (effects (font (size 1.27 1.27)) (justify left))
      )
      (property "Value" "C_Small" (id 1) (at 0.254 -2.032 0)
        (effects (font (size 1.27 1.27)) (justify left))
      )
      (property "Footprint" "" (id 2) (at 0 0 0)
        (effects (font (size 1.27 1.27)) hide)
      )
      (property "Datasheet" "~" (id 3) (at 0 0 0)
        (effects (font (size 1.27 1.27)) hide)
      )
      (property "ki_keywords" "capacitor cap" (id 4) (at 0 0 0)
        (effects (font (size 1.27 1.27)) hide)
      )
      (property "ki_description" "Unpolarized capacitor, small symbol" (id 5) (at 0 0 0)
        (effects (font (size 1.27 1.27)) hide)
      )
      (property "ki_fp_filters" "C_*" (id 6) (at 0 0 0)
        (effects (font (size 1.27 1.27)) hide)
      )
      (symbol "C_Small_0_1"
        (polyline
          (pts
            (xy -1.524 -0.508)
            (xy 1.524 -0.508)
          )
          (stroke (width 0.3302) (type default) (color 0 0 0 0))
          (fill (type none))
        )
        (polyline
          (pts
            (xy -1.524 0.508)
            (xy 1.524 0.508)
          )
          (stroke (width 0.3048) (type default) (color 0 0 0 0))
          (fill (type none))
        )
      )
      (symbol "C_Small_1_1"
        (pin passive line (at 0 2.54 270) (length 2.032)
          (name "~" (effects (font (size 1.27 1.27))))
          (number "1" (effects (font (size 1.27 1.27))))
        )
        (pin passive line (at 0 -2.54 90) (length 2.032)
          (name "~" (effects (font (size 1.27 1.27))))
          (number "2" (effects (font (size 1.27 1.27))))
        )
      )
    )
    (symbol "Regulator_Linear:AZ1117-3.3" (pin_names (offset 0.254)) (in_bom yes) (on_board yes)
      (property "Reference" "U" (id 0) (at -3.81 3.175 0)
        (effects (font (size 1.27 1.27)))
      )
      (property "Value" "AZ1117-3.3" (id 1) (at 0 3.175 0)
        (effects (font (size 1.27 1.27)) (justify left))
      )
      (property "Footprint" "" (id 2) (at 0 6.35 0)
        (effects (font (size 1.27 1.27) italic) hide)
      )
      (property "Datasheet" "https://www.diodes.com/assets/Datasheets/AZ1117.pdf" (id 3) (at 0 0 0)
        (effects (font (size 1.27 1.27)) hide)
      )
      (property "ki_keywords" "Fixed Voltage Regulator 1A Positive LDO" (id 4) (at 0 0 0)
        (effects (font (size 1.27 1.27)) hide)
      )
      (property "ki_description" "1A 20V Fixed LDO Linear Regulator, 3.3V, SOT-89/SOT-223/TO-220/TO-252/TO-263" (id 5) (at 0 0 0)
        (effects (font (size 1.27 1.27)) hide)
      )
      (property "ki_fp_filters" "SOT?223* SOT?89* TO?220* TO?252* TO?263*" (id 6) (at 0 0 0)
        (effects (font (size 1.27 1.27)) hide)
      )
      (symbol "AZ1117-3.3_0_1"
        (rectangle (start -5.08 1.905) (end 5.08 -5.08)
          (stroke (width 0.254) (type default) (color 0 0 0 0))
          (fill (type background))
        )
      )
      (symbol "AZ1117-3.3_1_1"
        (pin power_in line (at 0 -7.62 90) (length 2.54)
          (name "GND" (effects (font (size 1.27 1.27))))
          (number "1" (effects (font (size 1.27 1.27))))
        )
        (pin power_out line (at 7.62 0 180) (length 2.54)
          (name "VO" (effects (font (size 1.27 1.27))))
          (number "2" (effects (font (size 1.27 1.27))))
        )
        (pin power_in line (at -7.62 0 0) (length 2.54)
          (name "VI" (effects (font (size 1.27 1.27))))
          (number "3" (effects (font (size 1.27 1.27))))
        )
      )
    )
    (symbol "luchabot-rescue:+3.3V-power" (power) (pin_names (offset 0)) (in_bom yes) (on_board yes)
      (property "Reference" "#PWR" (id 0) (at 0 -3.81 0)
        (effects (font (size 1.27 1.27)) hide)
      )
      (property "Value" "+3.3V-power" (id 1) (at 0 3.556 0)
        (effects (font (size 1.27 1.27)))
      )
      (property "Footprint" "" (id 2) (at 0 0 0)
        (effects (font (size 1.27 1.27)) hide)
      )
      (property "Datasheet" "" (id 3) (at 0 0 0)
        (effects (font (size 1.27 1.27)) hide)
      )
      (symbol "+3.3V-power_0_1"
        (polyline
          (pts
            (xy -0.762 1.27)
            (xy 0 2.54)
          )
          (stroke (width 0) (type default) (color 0 0 0 0))
          (fill (type none))
        )
        (polyline
          (pts
            (xy 0 0)
            (xy 0 2.54)
          )
          (stroke (width 0) (type default) (color 0 0 0 0))
          (fill (type none))
        )
        (polyline
          (pts
            (xy 0 2.54)
            (xy 0.762 1.27)
          )
          (stroke (width 0) (type default) (color 0 0 0 0))
          (fill (type none))
        )
      )
      (symbol "+3.3V-power_1_1"
        (pin power_in line (at 0 0 90) (length 0) hide
          (name "+3V3" (effects (font (size 1.27 1.27))))
          (number "1" (effects (font (size 1.27 1.27))))
        )
      )
    )
    (symbol "power:+5V" (power) (pin_names (offset 0)) (in_bom yes) (on_board yes)
      (property "Reference" "#PWR" (id 0) (at 0 -3.81 0)
        (effects (font (size 1.27 1.27)) hide)
      )
      (property "Value" "+5V" (id 1) (at 0 3.556 0)
        (effects (font (size 1.27 1.27)))
      )
      (property "Footprint" "" (id 2) (at 0 0 0)
        (effects (font (size 1.27 1.27)) hide)
      )
      (property "Datasheet" "" (id 3) (at 0 0 0)
        (effects (font (size 1.27 1.27)) hide)
      )
      (property "ki_keywords" "global power" (id 4) (at 0 0 0)
        (effects (font (size 1.27 1.27)) hide)
      )
      (property "ki_description" "Power symbol creates a global label with name \"+5V\"" (id 5) (at 0 0 0)
        (effects (font (size 1.27 1.27)) hide)
      )
      (symbol "+5V_0_1"
        (polyline
          (pts
            (xy -0.762 1.27)
            (xy 0 2.54)
          )
          (stroke (width 0) (type default) (color 0 0 0 0))
          (fill (type none))
        )
        (polyline
          (pts
            (xy 0 0)
            (xy 0 2.54)
          )
          (stroke (width 0) (type default) (color 0 0 0 0))
          (fill (type none))
        )
        (polyline
          (pts
            (xy 0 2.54)
            (xy 0.762 1.27)
          )
          (stroke (width 0) (type default) (color 0 0 0 0))
          (fill (type none))
        )
      )
      (symbol "+5V_1_1"
        (pin power_in line (at 0 0 90) (length 0) hide
          (name "+5V" (effects (font (size 1.27 1.27))))
          (number "1" (effects (font (size 1.27 1.27))))
        )
      )
    )
    (symbol "power:GND" (power) (pin_names (offset 0)) (in_bom yes) (on_board yes)
      (property "Reference" "#PWR" (id 0) (at 0 -6.35 0)
        (effects (font (size 1.27 1.27)) hide)
      )
      (property "Value" "GND" (id 1) (at 0 -3.81 0)
        (effects (font (size 1.27 1.27)))
      )
      (property "Footprint" "" (id 2) (at 0 0 0)
        (effects (font (size 1.27 1.27)) hide)
      )
      (property "Datasheet" "" (id 3) (at 0 0 0)
        (effects (font (size 1.27 1.27)) hide)
      )
      (property "ki_keywords" "global power" (id 4) (at 0 0 0)
        (effects (font (size 1.27 1.27)) hide)
      )
      (property "ki_description" "Power symbol creates a global label with name \"GND\" , ground" (id 5) (at 0 0 0)
        (effects (font (size 1.27 1.27)) hide)
      )
      (symbol "GND_0_1"
        (polyline
          (pts
            (xy 0 0)
            (xy 0 -1.27)
            (xy 1.27 -1.27)
            (xy 0 -2.54)
            (xy -1.27 -1.27)
            (xy 0 -1.27)
          )
          (stroke (width 0) (type default) (color 0 0 0 0))
          (fill (type none))
        )
      )
      (symbol "GND_1_1"
        (pin power_in line (at 0 0 270) (length 0) hide
          (name "GND" (effects (font (size 1.27 1.27))))
          (number "1" (effects (font (size 1.27 1.27))))
        )
      )
    )
  )

  (junction (at 72.771 138.938) (diameter 0) (color 0 0 0 0)
    (uuid 0f8d81c7-d28a-4098-b58d-f41e72a0280a)
  )
  (junction (at 129.54 74.803) (diameter 0) (color 0 0 0 0)
    (uuid 2cb92e13-04cb-47ee-8af8-dc6ab15d18f2)
  )
  (junction (at 157.861 46.863) (diameter 0) (color 0 0 0 0)
    (uuid 34b66351-25bb-4ba5-accf-de836eeb93cc)
  )
  (junction (at 89.281 128.778) (diameter 0) (color 0 0 0 0)
    (uuid 34c91bb2-2d0b-43ac-894a-49e2a1898f62)
  )
  (junction (at 197.358 47.371) (diameter 0) (color 0 0 0 0)
    (uuid 4b1746b5-5c07-49e1-a554-f1026b535232)
  )
  (junction (at 51.816 128.778) (diameter 0) (color 0 0 0 0)
    (uuid 503b9d84-b114-41fa-abb7-3f9b2666e329)
  )
  (junction (at 81.661 138.938) (diameter 0) (color 0 0 0 0)
    (uuid 677b745e-aefa-47bf-b787-a752d7f8be3b)
  )
  (junction (at 86.741 47.244) (diameter 0) (color 0 0 0 0)
    (uuid 85c18e77-d05e-4cee-999a-5a4263ed6f32)
  )
  (junction (at 120.269 47.879) (diameter 0) (color 0 0 0 0)
    (uuid 938adf0e-6067-4f05-8f75-3234737fd1b6)
  )
  (junction (at 206.629 74.803) (diameter 0) (color 0 0 0 0)
    (uuid a4585622-523f-4ab9-9536-dfe42ed6e515)
  )
  (junction (at 70.231 138.938) (diameter 0) (color 0 0 0 0)
    (uuid a668b9c9-dccf-449c-9df4-450e970f0f85)
  )
  (junction (at 133.604 94.615) (diameter 0) (color 0 0 0 0)
    (uuid bed796d0-b742-49bb-92fa-668b102284d5)
  )
  (junction (at 167.132 74.803) (diameter 0) (color 0 0 0 0)
    (uuid c02f7ff1-4321-488c-bdea-fe3c7e8c2a84)
  )
  (junction (at 81.661 128.778) (diameter 0) (color 0 0 0 0)
    (uuid d604fc7f-ec85-4c3c-9d9c-0292f5cf6e58)
  )
  (junction (at 171.196 94.615) (diameter 0) (color 0 0 0 0)
    (uuid e07231a0-8afa-4dd6-95c0-257409629784)
  )
  (junction (at 100.076 94.615) (diameter 0) (color 0 0 0 0)
    (uuid f3f28670-7ad9-4498-97cb-8151d2a85685)
  )
  (junction (at 96.012 71.755) (diameter 0) (color 0 0 0 0)
    (uuid f46dee0d-8f5c-4c3e-ba49-38afdc0b39c4)
  )
  (junction (at 235.331 47.879) (diameter 0) (color 0 0 0 0)
    (uuid fd4efea7-af1b-479e-8d4a-5598e95d1f9f)
  )
  (junction (at 210.693 94.615) (diameter 0) (color 0 0 0 0)
    (uuid fdf7a956-bdd2-42f8-8471-421d4d32ff42)
  )

  (wire (pts (xy 81.661 128.778) (xy 89.281 128.778))
    (stroke (width 0) (type default) (color 0 0 0 0))
    (uuid 02238e72-5175-429a-94aa-b47cf36dfad2)
  )
  (wire (pts (xy 74.422 85.09) (xy 74.422 94.615))
    (stroke (width 0) (type default) (color 0 0 0 0))
    (uuid 05e7c090-ae00-4d7e-89ae-12443787278a)
  )
  (wire (pts (xy 228.6 56.515) (xy 224.155 56.515))
    (stroke (width 0) (type default) (color 0 0 0 0))
    (uuid 0789a6ad-9aad-4732-a428-6c23ca7957bd)
  )
  (wire (pts (xy 113.538 56.515) (xy 109.093 56.515))
    (stroke (width 0) (type default) (color 0 0 0 0))
    (uuid 07e07e97-d99a-4c15-a235-8e2b77d9141d)
  )
  (wire (pts (xy 92.71 53.34) (xy 92.71 47.244))
    (stroke (width 0) (type default) (color 0 0 0 0))
    (uuid 0af57ba6-d6c9-409a-b61f-b1948b925a33)
  )
  (wire (pts (xy 197.358 47.371) (xy 190.627 47.371))
    (stroke (width 0) (type default) (color 0 0 0 0))
    (uuid 156e34f9-7bc4-4448-8dc5-288c387c5228)
  )
  (wire (pts (xy 51.816 128.778) (xy 65.151 128.778))
    (stroke (width 0) (type default) (color 0 0 0 0))
    (uuid 1730537a-3745-4a49-a440-4660b2ed8235)
  )
  (wire (pts (xy 151.13 60.579) (xy 146.685 60.579))
    (stroke (width 0) (type default) (color 0 0 0 0))
    (uuid 18dba0f8-097c-4d02-aaf4-d83b389e4971)
  )
  (wire (pts (xy 79.502 94.615) (xy 100.076 94.615))
    (stroke (width 0) (type default) (color 0 0 0 0))
    (uuid 1db32816-4a6d-47e2-b466-8a23c071f184)
  )
  (wire (pts (xy 190.627 56.007) (xy 186.182 56.007))
    (stroke (width 0) (type default) (color 0 0 0 0))
    (uuid 2090bb43-7d07-4dd7-ac98-25d11a8e5e87)
  )
  (wire (pts (xy 113.538 47.879) (xy 113.538 53.975))
    (stroke (width 0) (type default) (color 0 0 0 0))
    (uuid 2296ed96-332a-4a4f-90fb-d2f74942b7b2)
  )
  (wire (pts (xy 167.132 74.803) (xy 206.629 74.803))
    (stroke (width 0) (type default) (color 0 0 0 0))
    (uuid 22b2f896-fea7-444c-a8aa-82289e3d1857)
  )
  (wire (pts (xy 206.629 61.087) (xy 206.629 74.803))
    (stroke (width 0) (type default) (color 0 0 0 0))
    (uuid 23db2226-3a92-4932-b903-3a353f0574af)
  )
  (wire (pts (xy 148.717 58.039) (xy 151.13 58.039))
    (stroke (width 0) (type default) (color 0 0 0 0))
    (uuid 2a1b17bd-a77e-49c3-9bad-bccf55800d9c)
  )
  (wire (pts (xy 74.422 107.315) (xy 74.422 108.204))
    (stroke (width 0) (type default) (color 0 0 0 0))
    (uuid 30b26168-ea20-445d-a5ee-5f0170fe6d10)
  )
  (wire (pts (xy 51.816 138.938) (xy 70.231 138.938))
    (stroke (width 0) (type default) (color 0 0 0 0))
    (uuid 315fe39a-a687-496b-9e99-5ece3cce3dd9)
  )
  (wire (pts (xy 80.01 55.88) (xy 75.565 55.88))
    (stroke (width 0) (type default) (color 0 0 0 0))
    (uuid 32b606e0-d0c4-43c1-8e23-df8de1ca3ad6)
  )
  (wire (pts (xy 81.661 135.763) (xy 81.661 138.938))
    (stroke (width 0) (type default) (color 0 0 0 0))
    (uuid 338dc9f1-0a43-458b-9d21-674ef6014acc)
  )
  (wire (pts (xy 81.661 130.683) (xy 81.661 128.778))
    (stroke (width 0) (type default) (color 0 0 0 0))
    (uuid 358a2fc1-4818-43dc-96f7-6dcbdb9aa811)
  )
  (wire (pts (xy 188.722 58.547) (xy 190.627 58.547))
    (stroke (width 0) (type default) (color 0 0 0 0))
    (uuid 39e83950-54bb-452b-a753-1c8d6fadee35)
  )
  (wire (pts (xy 203.327 53.467) (xy 203.327 47.371))
    (stroke (width 0) (type default) (color 0 0 0 0))
    (uuid 3eb53ac8-5aba-4b73-816d-408f6a44b79d)
  )
  (wire (pts (xy 244.602 61.595) (xy 244.602 74.803))
    (stroke (width 0) (type default) (color 0 0 0 0))
    (uuid 403bdb91-5c95-4320-b707-2278dcfe4a1a)
  )
  (wire (pts (xy 226.314 59.055) (xy 228.6 59.055))
    (stroke (width 0) (type default) (color 0 0 0 0))
    (uuid 47d219b8-9fbf-467c-bedc-8cacf6820e8b)
  )
  (wire (pts (xy 51.816 134.493) (xy 51.816 138.938))
    (stroke (width 0) (type default) (color 0 0 0 0))
    (uuid 4a1b3c50-c1cc-499d-8c6d-874623681ec9)
  )
  (wire (pts (xy 126.238 47.879) (xy 120.269 47.879))
    (stroke (width 0) (type default) (color 0 0 0 0))
    (uuid 4c07f647-1036-4ffa-894b-443586a6af0c)
  )
  (wire (pts (xy 71.882 94.615) (xy 66.04 94.615))
    (stroke (width 0) (type default) (color 0 0 0 0))
    (uuid 4ce6dc32-5fd5-44a2-ad62-dc23622e9234)
  )
  (wire (pts (xy 96.012 74.803) (xy 129.54 74.803))
    (stroke (width 0) (type default) (color 0 0 0 0))
    (uuid 51c51bab-4016-4de1-8e21-cf49eea29f30)
  )
  (wire (pts (xy 80.01 60.96) (xy 75.565 60.96))
    (stroke (width 0) (type default) (color 0 0 0 0))
    (uuid 54644b9b-11e8-4839-8f0e-92ef61293987)
  )
  (wire (pts (xy 157.861 46.863) (xy 151.13 46.863))
    (stroke (width 0) (type default) (color 0 0 0 0))
    (uuid 5bb69dfd-ac7b-40c7-bcad-28312a06e861)
  )
  (wire (pts (xy 66.04 94.615) (xy 66.04 71.755))
    (stroke (width 0) (type default) (color 0 0 0 0))
    (uuid 5f4c66b3-33c4-49ac-a632-97bd42b0aa64)
  )
  (wire (pts (xy 210.693 56.007) (xy 210.693 94.615))
    (stroke (width 0) (type default) (color 0 0 0 0))
    (uuid 61a708a3-527d-4b49-8ebf-f896a4d4a748)
  )
  (wire (pts (xy 206.629 61.087) (xy 203.327 61.087))
    (stroke (width 0) (type default) (color 0 0 0 0))
    (uuid 654d9023-72cf-4c95-8b01-1170a3b0ad59)
  )
  (wire (pts (xy 243.586 59.055) (xy 241.3 59.055))
    (stroke (width 0) (type default) (color 0 0 0 0))
    (uuid 66b7f155-319e-49cf-8684-a95dc84e3492)
  )
  (wire (pts (xy 210.693 94.615) (xy 249.936 94.615))
    (stroke (width 0) (type default) (color 0 0 0 0))
    (uuid 67ab9559-febe-4854-9ab3-63698a62d563)
  )
  (wire (pts (xy 72.771 136.398) (xy 72.771 138.938))
    (stroke (width 0) (type default) (color 0 0 0 0))
    (uuid 686878ad-9c23-434e-8a71-8cfdf84a7c6a)
  )
  (wire (pts (xy 79.502 107.315) (xy 79.502 108.077))
    (stroke (width 0) (type default) (color 0 0 0 0))
    (uuid 6acd181a-be24-4da3-8f44-d52b995ba0ab)
  )
  (wire (pts (xy 86.741 47.244) (xy 80.01 47.244))
    (stroke (width 0) (type default) (color 0 0 0 0))
    (uuid 6be9c712-cf2b-4cc8-ad4b-88356d744513)
  )
  (wire (pts (xy 120.269 47.879) (xy 113.538 47.879))
    (stroke (width 0) (type default) (color 0 0 0 0))
    (uuid 6cd1c158-2f28-4302-833d-f79390ebd781)
  )
  (wire (pts (xy 89.281 138.938) (xy 81.661 138.938))
    (stroke (width 0) (type default) (color 0 0 0 0))
    (uuid 6db7db19-4112-41fd-8ab5-f160241f12d4)
  )
  (wire (pts (xy 204.851 58.547) (xy 203.327 58.547))
    (stroke (width 0) (type default) (color 0 0 0 0))
    (uuid 6fde2beb-c523-49d7-a851-bce96579451c)
  )
  (wire (pts (xy 241.3 53.975) (xy 241.3 47.879))
    (stroke (width 0) (type default) (color 0 0 0 0))
    (uuid 7034bd2c-017a-4ae2-9478-a1423b300b33)
  )
  (wire (pts (xy 129.54 74.803) (xy 167.132 74.803))
    (stroke (width 0) (type default) (color 0 0 0 0))
    (uuid 706a740a-68fd-473a-bf29-65c2a36c924d)
  )
  (wire (pts (xy 78.105 58.42) (xy 80.01 58.42))
    (stroke (width 0) (type default) (color 0 0 0 0))
    (uuid 71de4ea7-f31c-4323-8226-f1b7e5218a7c)
  )
  (wire (pts (xy 171.196 55.499) (xy 171.196 94.615))
    (stroke (width 0) (type default) (color 0 0 0 0))
    (uuid 76860c92-8ef7-47d2-a78c-d715b13bb21c)
  )
  (wire (pts (xy 100.076 94.615) (xy 100.076 55.88))
    (stroke (width 0) (type default) (color 0 0 0 0))
    (uuid 79a5fd97-d3e3-4194-a5d9-2dc61342053c)
  )
  (wire (pts (xy 190.627 61.087) (xy 186.182 61.087))
    (stroke (width 0) (type default) (color 0 0 0 0))
    (uuid 7b771339-8377-4219-bb14-8cb03ca7e3d9)
  )
  (wire (pts (xy 203.327 47.371) (xy 197.358 47.371))
    (stroke (width 0) (type default) (color 0 0 0 0))
    (uuid 7cce3cae-489f-4996-8655-ca48e322f378)
  )
  (wire (pts (xy 133.604 56.515) (xy 133.604 94.615))
    (stroke (width 0) (type default) (color 0 0 0 0))
    (uuid 7f1d690d-8f2b-47a7-83a4-cc6f5305460e)
  )
  (wire (pts (xy 167.132 60.579) (xy 167.132 74.803))
    (stroke (width 0) (type default) (color 0 0 0 0))
    (uuid 7f829bc5-8d60-40f7-a980-47a68a4029ae)
  )
  (wire (pts (xy 100.076 55.88) (xy 92.71 55.88))
    (stroke (width 0) (type default) (color 0 0 0 0))
    (uuid 855f8772-d919-46ff-851c-147600730e6b)
  )
  (wire (pts (xy 89.281 126.873) (xy 89.281 128.778))
    (stroke (width 0) (type default) (color 0 0 0 0))
    (uuid 86196900-ed1f-4084-aea9-81f69a6d0752)
  )
  (wire (pts (xy 76.962 85.09) (xy 76.962 94.615))
    (stroke (width 0) (type default) (color 0 0 0 0))
    (uuid 874fc4f4-806e-4159-b341-8047551140d7)
  )
  (wire (pts (xy 133.604 94.615) (xy 171.196 94.615))
    (stroke (width 0) (type default) (color 0 0 0 0))
    (uuid 8a35ae0d-9aa2-4fbd-92bd-c079e12e606b)
  )
  (wire (pts (xy 71.882 107.315) (xy 71.882 109.728))
    (stroke (width 0) (type default) (color 0 0 0 0))
    (uuid 8a7c633d-58c1-43d6-8e8f-3f55cbc30d6e)
  )
  (wire (pts (xy 244.602 61.595) (xy 241.3 61.595))
    (stroke (width 0) (type default) (color 0 0 0 0))
    (uuid 8a880e2e-c678-468f-9521-caacdeac6093)
  )
  (wire (pts (xy 80.391 128.778) (xy 81.661 128.778))
    (stroke (width 0) (type default) (color 0 0 0 0))
    (uuid 8c2b186b-7ada-496d-a4ca-4df3d333c154)
  )
  (wire (pts (xy 81.661 138.938) (xy 72.771 138.938))
    (stroke (width 0) (type default) (color 0 0 0 0))
    (uuid 8ee23ca2-833b-4877-afcc-d7b8c83b9cd5)
  )
  (wire (pts (xy 89.281 135.763) (xy 89.281 138.938))
    (stroke (width 0) (type default) (color 0 0 0 0))
    (uuid 95c0b1ea-776d-40dc-8aa3-c8c5acced6f5)
  )
  (wire (pts (xy 133.604 56.515) (xy 126.238 56.515))
    (stroke (width 0) (type default) (color 0 0 0 0))
    (uuid 97fda734-00d0-4dbd-99e4-ebcd6f10d7ab)
  )
  (wire (pts (xy 167.132 60.579) (xy 163.83 60.579))
    (stroke (width 0) (type default) (color 0 0 0 0))
    (uuid 990c7829-b505-4113-9389-84410e5e8d6c)
  )
  (wire (pts (xy 126.238 53.975) (xy 126.238 47.879))
    (stroke (width 0) (type default) (color 0 0 0 0))
    (uuid 9b0c2b97-9dbd-4cdb-8fa8-68d99acb392c)
  )
  (wire (pts (xy 241.3 47.879) (xy 235.331 47.879))
    (stroke (width 0) (type default) (color 0 0 0 0))
    (uuid 9bcedf23-90b2-46d2-8d80-bd3573385ac6)
  )
  (wire (pts (xy 163.83 52.959) (xy 163.83 46.863))
    (stroke (width 0) (type default) (color 0 0 0 0))
    (uuid 9bdd1f55-1ebc-4bbd-9c30-e1f0b92f7c66)
  )
  (wire (pts (xy 92.71 47.244) (xy 86.741 47.244))
    (stroke (width 0) (type default) (color 0 0 0 0))
    (uuid 9ca9d9b7-e5ec-4dad-91e0-9634ec42d53b)
  )
  (wire (pts (xy 113.538 61.595) (xy 109.093 61.595))
    (stroke (width 0) (type default) (color 0 0 0 0))
    (uuid 9cec3c6d-d019-4a9a-b4db-b393aa72fc87)
  )
  (wire (pts (xy 89.281 130.683) (xy 89.281 128.778))
    (stroke (width 0) (type default) (color 0 0 0 0))
    (uuid 9fa48562-9487-41ce-bbfd-295e51ddfe40)
  )
  (wire (pts (xy 228.6 61.595) (xy 224.155 61.595))
    (stroke (width 0) (type default) (color 0 0 0 0))
    (uuid a1367b3d-2490-442f-97de-c17d6b56e40b)
  )
  (wire (pts (xy 228.6 47.879) (xy 228.6 53.975))
    (stroke (width 0) (type default) (color 0 0 0 0))
    (uuid a177cb4a-a442-42d5-ab9d-ffdc050e9820)
  )
  (wire (pts (xy 129.54 61.595) (xy 129.54 74.803))
    (stroke (width 0) (type default) (color 0 0 0 0))
    (uuid a9bcb23b-98dd-4665-88c5-c969c646104e)
  )
  (wire (pts (xy 129.54 61.595) (xy 126.238 61.595))
    (stroke (width 0) (type default) (color 0 0 0 0))
    (uuid ad3a72de-81ee-4237-baf1-fcf0a957d704)
  )
  (wire (pts (xy 70.231 141.859) (xy 70.231 138.938))
    (stroke (width 0) (type default) (color 0 0 0 0))
    (uuid b051d04c-6cb9-48a6-aead-2f5e683569d0)
  )
  (wire (pts (xy 96.012 71.755) (xy 96.012 60.96))
    (stroke (width 0) (type default) (color 0 0 0 0))
    (uuid b4f86d9a-fe16-4a45-ba49-48b284b34f38)
  )
  (wire (pts (xy 72.771 138.938) (xy 70.231 138.938))
    (stroke (width 0) (type default) (color 0 0 0 0))
    (uuid b7ac2473-b655-4b21-bdb3-bb1124a33fb3)
  )
  (wire (pts (xy 96.012 60.96) (xy 92.71 60.96))
    (stroke (width 0) (type default) (color 0 0 0 0))
    (uuid c04de0ae-6faf-42c9-b7a9-dbf3ea6a2966)
  )
  (wire (pts (xy 235.331 47.879) (xy 228.6 47.879))
    (stroke (width 0) (type default) (color 0 0 0 0))
    (uuid c2a84ef4-b6c9-4f56-8354-2a226763f0c1)
  )
  (wire (pts (xy 151.13 55.499) (xy 146.685 55.499))
    (stroke (width 0) (type default) (color 0 0 0 0))
    (uuid c9ddefa3-920e-4ec6-8510-0f98009f00d4)
  )
  (wire (pts (xy 190.627 47.371) (xy 190.627 53.467))
    (stroke (width 0) (type default) (color 0 0 0 0))
    (uuid d016ddf2-48ff-4668-b665-bd46fdbdc51c)
  )
  (wire (pts (xy 51.816 126.238) (xy 51.816 128.778))
    (stroke (width 0) (type default) (color 0 0 0 0))
    (uuid d417b70e-c75c-470b-9d74-251a1be3b0cd)
  )
  (wire (pts (xy 249.936 94.615) (xy 249.936 56.515))
    (stroke (width 0) (type default) (color 0 0 0 0))
    (uuid d7588a90-d01a-489e-9af2-3493c62ed725)
  )
  (wire (pts (xy 165.989 58.039) (xy 163.83 58.039))
    (stroke (width 0) (type default) (color 0 0 0 0))
    (uuid dbb66bb4-70a1-4e86-8e42-2fb642024718)
  )
  (wire (pts (xy 151.13 46.863) (xy 151.13 52.959))
    (stroke (width 0) (type default) (color 0 0 0 0))
    (uuid e0762351-6d92-4e13-8019-980f218c257c)
  )
  (wire (pts (xy 80.01 47.244) (xy 80.01 53.34))
    (stroke (width 0) (type default) (color 0 0 0 0))
    (uuid e50745fd-83b1-474c-a0ff-6c5d070f1275)
  )
  (wire (pts (xy 163.83 46.863) (xy 157.861 46.863))
    (stroke (width 0) (type default) (color 0 0 0 0))
    (uuid e70c98dc-d0c1-4781-bc3b-0e7fc31bf5c3)
  )
  (wire (pts (xy 241.3 56.515) (xy 249.936 56.515))
    (stroke (width 0) (type default) (color 0 0 0 0))
    (uuid e83db0cf-237d-4815-a97d-a476a488237b)
  )
  (wire (pts (xy 210.693 56.007) (xy 203.327 56.007))
    (stroke (width 0) (type default) (color 0 0 0 0))
    (uuid e9710392-665b-4bcf-aa9f-3e0e1887a3b5)
  )
  (wire (pts (xy 51.816 128.778) (xy 51.816 129.413))
    (stroke (width 0) (type default) (color 0 0 0 0))
    (uuid e9bd4998-f836-4091-8030-0a0f1d2225c5)
  )
  (wire (pts (xy 96.012 71.755) (xy 96.012 74.803))
    (stroke (width 0) (type default) (color 0 0 0 0))
    (uuid ea5f2199-d454-415a-8a14-504f86db34ee)
  )
  (wire (pts (xy 171.196 55.499) (xy 163.83 55.499))
    (stroke (width 0) (type default) (color 0 0 0 0))
    (uuid f3b74117-5997-40b5-8d0b-e28b1b38d75b)
  )
  (wire (pts (xy 112.395 59.055) (xy 113.538 59.055))
    (stroke (width 0) (type default) (color 0 0 0 0))
    (uuid f4744774-69b3-4213-a200-e14784c65df7)
  )
  (wire (pts (xy 206.629 74.803) (xy 244.602 74.803))
    (stroke (width 0) (type default) (color 0 0 0 0))
    (uuid f5c1e84c-cfa2-40a3-98e3-000c4b610536)
  )
  (wire (pts (xy 171.196 94.615) (xy 210.693 94.615))
    (stroke (width 0) (type default) (color 0 0 0 0))
    (uuid f8bf68b7-a457-4ce2-93a1-fef8da52bdd4)
  )
  (wire (pts (xy 100.076 94.615) (xy 133.604 94.615))
    (stroke (width 0) (type default) (color 0 0 0 0))
    (uuid fba67af2-0ade-4749-8403-c1decdcbc5bf)
  )
  (wire (pts (xy 66.04 71.755) (xy 96.012 71.755))
    (stroke (width 0) (type default) (color 0 0 0 0))
    (uuid fd294f4a-eced-4f18-8897-ce1f487b563a)
  )

  (label "SDA" (at 109.093 56.515 180)
    (effects (font (size 1.27 1.27)) (justify right bottom))
    (uuid 0fbb4594-b07d-4443-a7a7-6687d1aad247)
  )
  (label "SDA" (at 186.182 56.007 180)
    (effects (font (size 1.27 1.27)) (justify right bottom))
    (uuid 192b4135-5376-4b42-8555-93b699e6eab0)
  )
  (label "SCL" (at 109.093 61.595 180)
    (effects (font (size 1.27 1.27)) (justify right bottom))
    (uuid 284c5a33-68e6-4088-bd90-158626e37819)
  )
  (label "SCL" (at 224.155 61.595 180)
    (effects (font (size 1.27 1.27)) (justify right bottom))
    (uuid 29ee94b4-0f04-4686-986c-c8f79e6e85fe)
  )
  (label "SDA" (at 74.422 85.09 180)
    (effects (font (size 1.27 1.27)) (justify right bottom))
    (uuid 7f4f79c1-aaaa-4a04-89ed-f76cae91c41f)
  )
  (label "SCL" (at 75.565 60.96 180)
    (effects (font (size 1.27 1.27)) (justify right bottom))
    (uuid 82cc3f84-3a24-48e1-a8a3-78a79ca13166)
  )
  (label "SDA" (at 75.565 55.88 180)
    (effects (font (size 1.27 1.27)) (justify right bottom))
    (uuid 831423a7-4889-42fa-98ab-8794728c0ad1)
  )
  (label "SCL" (at 76.962 85.09 0)
    (effects (font (size 1.27 1.27)) (justify left bottom))
    (uuid 88d36fcf-0aae-41d3-9f08-aa722433ed5f)
  )
  (label "SDA" (at 146.685 55.499 180)
    (effects (font (size 1.27 1.27)) (justify right bottom))
    (uuid 89f977ca-5d3b-4cf1-b228-679916e8e453)
  )
  (label "SCL" (at 186.182 61.087 180)
    (effects (font (size 1.27 1.27)) (justify right bottom))
    (uuid 9861541e-e246-45ce-b6b3-265368fc69b6)
  )
  (label "SCL" (at 146.685 60.579 180)
    (effects (font (size 1.27 1.27)) (justify right bottom))
    (uuid d9657ccc-cbd1-441b-975c-8aabc2fc696b)
  )
  (label "SDA" (at 224.155 56.515 180)
    (effects (font (size 1.27 1.27)) (justify right bottom))
    (uuid e5a2a973-90cb-4a41-a3e7-9c492c20caf1)
  )

  (symbol (lib_id "power:+5V") (at 197.358 47.371 0) (unit 1)
    (in_bom yes) (on_board yes)
    (uuid 00b81287-dccb-4311-af46-fff4c2194970)
    (property "Reference" "#PWR03" (id 0) (at 197.358 51.181 0)
      (effects (font (size 1.27 1.27)) hide)
    )
    (property "Value" "+5V" (id 1) (at 197.739 42.9768 0))
    (property "Footprint" "" (id 2) (at 197.358 47.371 0)
      (effects (font (size 1.27 1.27)) hide)
    )
    (property "Datasheet" "" (id 3) (at 197.358 47.371 0)
      (effects (font (size 1.27 1.27)) hide)
    )
    (pin "1" (uuid 7a6efd04-baf7-4424-bfdb-ed4e9b479951))
  )

  (symbol (lib_id "Connector_Generic:Conn_02x05_Odd_Even") (at 195.707 58.547 0) (unit 1)
    (in_bom yes) (on_board yes) (fields_autoplaced)
    (uuid 028a3322-467e-4ef7-b5f3-035d6259c4b0)
    (property "Reference" "J3" (id 0) (at 196.977 48.4972 0))
    (property "Value" "Conn_02x05_Odd_Even" (id 1) (at 196.977 51.0341 0))
    (property "Footprint" "Connector_IDC:IDC-Header_2x05_P2.54mm_Vertical" (id 2) (at 195.707 58.547 0)
      (effects (font (size 1.27 1.27)) hide)
    )
    (property "Datasheet" "~" (id 3) (at 195.707 58.547 0)
      (effects (font (size 1.27 1.27)) hide)
    )
    (pin "1" (uuid e7a91736-c3e1-4994-82c0-e8de6471f1be))
    (pin "10" (uuid 7b583587-3bc8-451c-a913-4d7704dd8014))
    (pin "2" (uuid 5dbafe38-a85c-42d3-9f09-afba84969bec))
    (pin "3" (uuid 81ef6b7d-7cc7-41f7-9d9c-b7471b22bf9e))
    (pin "4" (uuid 3b4af45c-415c-4006-acc5-0be443428fa9))
    (pin "5" (uuid c1dcbac5-4850-44dd-b8ea-79d6d5e89571))
    (pin "6" (uuid 2e373fe7-8c32-4bba-a256-b991128365ee))
    (pin "7" (uuid fd95fcc1-105d-47de-a363-457252a0c3ef))
    (pin "8" (uuid aeeed70a-99dd-4760-a6a0-2f0f171dd441))
    (pin "9" (uuid 651236d1-cf95-4638-bd25-c133c8cb69c9))
  )

  (symbol (lib_id "power:+5V") (at 51.816 126.238 0) (unit 1)
    (in_bom yes) (on_board yes)
    (uuid 08b80bf8-68e9-4f4a-9f01-9536166657a4)
    (property "Reference" "#PWR023" (id 0) (at 51.816 130.048 0)
      (effects (font (size 1.27 1.27)) hide)
    )
    (property "Value" "+5V" (id 1) (at 52.197 121.8438 0))
    (property "Footprint" "" (id 2) (at 51.816 126.238 0)
      (effects (font (size 1.27 1.27)) hide)
    )
    (property "Datasheet" "" (id 3) (at 51.816 126.238 0)
      (effects (font (size 1.27 1.27)) hide)
    )
    (pin "1" (uuid 5729f656-b87d-4ba3-a257-235100c3a524))
  )

  (symbol (lib_id "power:GND") (at 70.231 141.859 0) (unit 1)
    (in_bom yes) (on_board yes) (fields_autoplaced)
    (uuid 0a0defb9-8578-4a78-bf33-4306da52d3ae)
    (property "Reference" "#PWR?" (id 0) (at 70.231 148.209 0)
      (effects (font (size 1.27 1.27)) hide)
    )
    (property "Value" "GND" (id 1) (at 70.231 146.3024 0))
    (property "Footprint" "" (id 2) (at 70.231 141.859 0)
      (effects (font (size 1.27 1.27)) hide)
    )
    (property "Datasheet" "" (id 3) (at 70.231 141.859 0)
      (effects (font (size 1.27 1.27)) hide)
    )
    (pin "1" (uuid 30f3f0b0-0464-46d3-a190-f3cd2b2c6d88))
  )

  (symbol (lib_id "Device:C_Small") (at 81.661 133.223 0) (unit 1)
    (in_bom yes) (on_board yes)
    (uuid 0b738c03-71b9-4047-9150-67a402c88235)
    (property "Reference" "C2" (id 0) (at 83.9978 132.0546 0)
      (effects (font (size 1.27 1.27)) (justify left))
    )
    (property "Value" "0.1u" (id 1) (at 83.9978 134.366 0)
      (effects (font (size 1.27 1.27)) (justify left))
    )
    (property "Footprint" "Capacitor_SMD:C_0805_2012Metric_Pad1.18x1.45mm_HandSolder" (id 2) (at 81.661 133.223 0)
      (effects (font (size 1.27 1.27)) hide)
    )
    (property "Datasheet" "~" (id 3) (at 81.661 133.223 0)
      (effects (font (size 1.27 1.27)) hide)
    )
    (pin "1" (uuid df8f1f70-1d19-4a62-b3c1-e34372f76eaa))
    (pin "2" (uuid 278b7824-ddd6-4343-93a5-f55d42a4f1a3))
  )

  (symbol (lib_id "luchabot-rescue:+3.3V-power") (at 163.83 63.119 270) (unit 1)
    (in_bom yes) (on_board yes)
    (uuid 0d1ac4b4-193b-4a7f-9cb3-ffaca4bba4af)
    (property "Reference" "#PWR016" (id 0) (at 160.02 63.119 0)
      (effects (font (size 1.27 1.27)) hide)
    )
    (property "Value" "+3.3V" (id 1) (at 168.2242 63.5 0))
    (property "Footprint" "" (id 2) (at 163.83 63.119 0)
      (effects (font (size 1.27 1.27)) hide)
    )
    (property "Datasheet" "" (id 3) (at 163.83 63.119 0)
      (effects (font (size 1.27 1.27)) hide)
    )
    (pin "1" (uuid 8682fc6e-203a-4421-bdc3-c620ee6201fd))
  )

  (symbol (lib_id "luchabot-rescue:+3.3V-power") (at 241.3 64.135 270) (unit 1)
    (in_bom yes) (on_board yes)
    (uuid 12c63f65-2ce1-4d69-96a7-13511a8250fd)
    (property "Reference" "#PWR020" (id 0) (at 237.49 64.135 0)
      (effects (font (size 1.27 1.27)) hide)
    )
    (property "Value" "+3.3V" (id 1) (at 245.6942 64.516 0))
    (property "Footprint" "" (id 2) (at 241.3 64.135 0)
      (effects (font (size 1.27 1.27)) hide)
    )
    (property "Datasheet" "" (id 3) (at 241.3 64.135 0)
      (effects (font (size 1.27 1.27)) hide)
    )
    (pin "1" (uuid bca60e63-b285-4454-928c-d8313705cd1f))
  )

  (symbol (lib_id "luchabot-rescue:+3.3V-power") (at 89.281 126.873 0) (unit 1)
    (in_bom yes) (on_board yes)
    (uuid 234e3420-3f3e-4a7e-87e1-0f3fe3de0835)
    (property "Reference" "#PWR024" (id 0) (at 89.281 130.683 0)
      (effects (font (size 1.27 1.27)) hide)
    )
    (property "Value" "+3.3V" (id 1) (at 89.662 122.4788 0))
    (property "Footprint" "" (id 2) (at 89.281 126.873 0)
      (effects (font (size 1.27 1.27)) hide)
    )
    (property "Datasheet" "" (id 3) (at 89.281 126.873 0)
      (effects (font (size 1.27 1.27)) hide)
    )
    (pin "1" (uuid bdd79897-49a2-46c1-b3b6-9c7a5e849ee3))
  )

  (symbol (lib_id "power:+5V") (at 79.502 108.077 180) (unit 1)
    (in_bom yes) (on_board yes) (fields_autoplaced)
    (uuid 249cad87-ad2f-4c92-8871-b4ba4fce8661)
    (property "Reference" "#PWR021" (id 0) (at 79.502 104.267 0)
      (effects (font (size 1.27 1.27)) hide)
    )
    (property "Value" "+5V" (id 1) (at 79.502 112.5204 0))
    (property "Footprint" "" (id 2) (at 79.502 108.077 0)
      (effects (font (size 1.27 1.27)) hide)
    )
    (property "Datasheet" "" (id 3) (at 79.502 108.077 0)
      (effects (font (size 1.27 1.27)) hide)
    )
    (pin "1" (uuid 4e19206a-8ef8-4fc7-830f-c2ff62bc1b47))
  )

  (symbol (lib_id "power:GND") (at 78.105 58.42 0) (unit 1)
    (in_bom yes) (on_board yes) (fields_autoplaced)
    (uuid 25a9b1f1-3dd8-4ff8-b7c7-5f732f7449fb)
    (property "Reference" "#PWR?" (id 0) (at 78.105 64.77 0)
      (effects (font (size 1.27 1.27)) hide)
    )
    (property "Value" "GND" (id 1) (at 78.105 62.8634 0))
    (property "Footprint" "" (id 2) (at 78.105 58.42 0)
      (effects (font (size 1.27 1.27)) hide)
    )
    (property "Datasheet" "" (id 3) (at 78.105 58.42 0)
      (effects (font (size 1.27 1.27)) hide)
    )
    (pin "1" (uuid f674e857-e0e4-46c9-be06-d918bd148759))
  )

  (symbol (lib_id "luchabot-rescue:+3.3V-power") (at 126.238 64.135 270) (unit 1)
    (in_bom yes) (on_board yes)
    (uuid 3fc60bd6-514f-4918-820c-2e3cc7a9f383)
    (property "Reference" "#PWR019" (id 0) (at 122.428 64.135 0)
      (effects (font (size 1.27 1.27)) hide)
    )
    (property "Value" "+3.3V" (id 1) (at 130.6322 64.516 0))
    (property "Footprint" "" (id 2) (at 126.238 64.135 0)
      (effects (font (size 1.27 1.27)) hide)
    )
    (property "Datasheet" "" (id 3) (at 126.238 64.135 0)
      (effects (font (size 1.27 1.27)) hide)
    )
    (pin "1" (uuid 9fd31d4c-6102-4bb1-9a7d-6887ef9a7565))
  )

  (symbol (lib_id "power:GND") (at 188.722 58.547 270) (unit 1)
    (in_bom yes) (on_board yes) (fields_autoplaced)
    (uuid 4362323d-128c-483f-b0a1-ae42dbaee493)
    (property "Reference" "#PWR?" (id 0) (at 182.372 58.547 0)
      (effects (font (size 1.27 1.27)) hide)
    )
    (property "Value" "GND" (id 1) (at 189.357 58.9808 90)
      (effects (font (size 1.27 1.27)) (justify left))
    )
    (property "Footprint" "" (id 2) (at 188.722 58.547 0)
      (effects (font (size 1.27 1.27)) hide)
    )
    (property "Datasheet" "" (id 3) (at 188.722 58.547 0)
      (effects (font (size 1.27 1.27)) hide)
    )
    (pin "1" (uuid 43f84ecc-2603-4c60-b1e0-422ac75b654d))
  )

  (symbol (lib_id "power:+5V") (at 120.269 47.879 0) (unit 1)
    (in_bom yes) (on_board yes)
    (uuid 4a2ed7aa-e57a-49df-a89d-2f791c566f0c)
    (property "Reference" "#PWR04" (id 0) (at 120.269 51.689 0)
      (effects (font (size 1.27 1.27)) hide)
    )
    (property "Value" "+5V" (id 1) (at 120.65 43.4848 0))
    (property "Footprint" "" (id 2) (at 120.269 47.879 0)
      (effects (font (size 1.27 1.27)) hide)
    )
    (property "Datasheet" "" (id 3) (at 120.269 47.879 0)
      (effects (font (size 1.27 1.27)) hide)
    )
    (pin "1" (uuid 5b74a292-27d6-48db-aa25-9a1a394e614f))
  )

  (symbol (lib_id "power:GND") (at 71.882 109.728 0) (unit 1)
    (in_bom yes) (on_board yes) (fields_autoplaced)
    (uuid 61b37380-a154-4641-b470-a28960d6d574)
    (property "Reference" "#PWR?" (id 0) (at 71.882 116.078 0)
      (effects (font (size 1.27 1.27)) hide)
    )
    (property "Value" "GND" (id 1) (at 71.882 114.1714 0))
    (property "Footprint" "" (id 2) (at 71.882 109.728 0)
      (effects (font (size 1.27 1.27)) hide)
    )
    (property "Datasheet" "" (id 3) (at 71.882 109.728 0)
      (effects (font (size 1.27 1.27)) hide)
    )
    (pin "1" (uuid 8ba71b00-46b9-472b-9cab-e32f042b729a))
  )

  (symbol (lib_id "Connector_Generic:Conn_02x05_Odd_Even") (at 156.21 58.039 0) (unit 1)
    (in_bom yes) (on_board yes) (fields_autoplaced)
    (uuid 72705157-4619-465c-8acb-3e0678f462bb)
    (property "Reference" "J1" (id 0) (at 157.48 47.9892 0))
    (property "Value" "Conn_02x05_Odd_Even" (id 1) (at 157.48 50.5261 0))
    (property "Footprint" "Connector_IDC:IDC-Header_2x05_P2.54mm_Vertical" (id 2) (at 156.21 58.039 0)
      (effects (font (size 1.27 1.27)) hide)
    )
    (property "Datasheet" "~" (id 3) (at 156.21 58.039 0)
      (effects (font (size 1.27 1.27)) hide)
    )
    (pin "1" (uuid eab9f01e-73c4-49ee-abde-6b8efe64a560))
    (pin "10" (uuid ba991f22-a66e-43fd-8d95-240f5b86bc1f))
    (pin "2" (uuid 3f45a76b-8d31-4ae6-92d8-6700b7b3046e))
    (pin "3" (uuid 862c9ee1-37e1-44e7-a407-a72a84065a9a))
    (pin "4" (uuid 40e0205f-206c-4fa9-998b-dd851f42c353))
    (pin "5" (uuid ad433ddc-3223-4c65-a3a7-7af51be4d116))
    (pin "6" (uuid 4bf766c3-51aa-4fa0-a5a5-30b4fcf2b9f7))
    (pin "7" (uuid d18228fe-9deb-41f5-96ac-5b756834bd94))
    (pin "8" (uuid a6cc10d7-b6ed-4986-875b-03b7f0e3a744))
    (pin "9" (uuid e46c0987-7382-49ff-8d27-f66de4aa003f))
  )

  (symbol (lib_id "power:GND") (at 204.851 58.547 90) (unit 1)
    (in_bom yes) (on_board yes) (fields_autoplaced)
    (uuid 72acf18a-6885-480f-9c5b-8a2d6f92e8b6)
    (property "Reference" "#PWR?" (id 0) (at 211.201 58.547 0)
      (effects (font (size 1.27 1.27)) hide)
    )
    (property "Value" "GND" (id 1) (at 208.026 58.9808 90)
      (effects (font (size 1.27 1.27)) (justify right))
    )
    (property "Footprint" "" (id 2) (at 204.851 58.547 0)
      (effects (font (size 1.27 1.27)) hide)
    )
    (property "Datasheet" "" (id 3) (at 204.851 58.547 0)
      (effects (font (size 1.27 1.27)) hide)
    )
    (pin "1" (uuid 032de9a9-ecad-4bcf-8789-22eec6aac946))
  )

  (symbol (lib_id "luchabot-rescue:+3.3V-power") (at 203.327 63.627 270) (unit 1)
    (in_bom yes) (on_board yes)
    (uuid 77325044-07ee-4bd5-ae72-75bc3d5fb6cf)
    (property "Reference" "#PWR018" (id 0) (at 199.517 63.627 0)
      (effects (font (size 1.27 1.27)) hide)
    )
    (property "Value" "+3.3V" (id 1) (at 207.7212 64.008 0))
    (property "Footprint" "" (id 2) (at 203.327 63.627 0)
      (effects (font (size 1.27 1.27)) hide)
    )
    (property "Datasheet" "" (id 3) (at 203.327 63.627 0)
      (effects (font (size 1.27 1.27)) hide)
    )
    (pin "1" (uuid c8728f38-de04-4d48-b84f-39fbe444ba57))
  )

  (symbol (lib_id "power:+5V") (at 86.741 47.244 0) (unit 1)
    (in_bom yes) (on_board yes)
    (uuid 7b45515f-13db-4803-9400-effe3fafadf8)
    (property "Reference" "#PWR02" (id 0) (at 86.741 51.054 0)
      (effects (font (size 1.27 1.27)) hide)
    )
    (property "Value" "+5V" (id 1) (at 87.122 42.8498 0))
    (property "Footprint" "" (id 2) (at 86.741 47.244 0)
      (effects (font (size 1.27 1.27)) hide)
    )
    (property "Datasheet" "" (id 3) (at 86.741 47.244 0)
      (effects (font (size 1.27 1.27)) hide)
    )
    (pin "1" (uuid 42009f8c-5c49-4d5f-8c0f-1d4d660d9db2))
  )

  (symbol (lib_id "Device:C_Small") (at 89.281 133.223 0) (unit 1)
    (in_bom yes) (on_board yes)
    (uuid 7b65442a-ba7e-4ee9-b129-bbbe335a3caa)
    (property "Reference" "C3" (id 0) (at 91.6178 132.0546 0)
      (effects (font (size 1.27 1.27)) (justify left))
    )
    (property "Value" "10u" (id 1) (at 91.6178 134.366 0)
      (effects (font (size 1.27 1.27)) (justify left))
    )
    (property "Footprint" "Capacitor_SMD:C_0805_2012Metric_Pad1.18x1.45mm_HandSolder" (id 2) (at 89.281 133.223 0)
      (effects (font (size 1.27 1.27)) hide)
    )
    (property "Datasheet" "~" (id 3) (at 89.281 133.223 0)
      (effects (font (size 1.27 1.27)) hide)
    )
    (pin "1" (uuid 9d781763-b32c-4c8a-885f-2875f6e7f725))
    (pin "2" (uuid 9e63fe93-ad47-4d1b-82f0-a23124b6c747))
  )

  (symbol (lib_id "Connector_Generic:Conn_02x05_Odd_Even") (at 118.618 59.055 0) (unit 1)
    (in_bom yes) (on_board yes) (fields_autoplaced)
    (uuid 8b7e852a-7f6b-4d69-b89a-49a975c369cc)
    (property "Reference" "J4" (id 0) (at 119.888 49.0052 0))
    (property "Value" "Conn_02x05_Odd_Even" (id 1) (at 119.888 51.5421 0))
    (property "Footprint" "Connector_IDC:IDC-Header_2x05_P2.54mm_Vertical" (id 2) (at 118.618 59.055 0)
      (effects (font (size 1.27 1.27)) hide)
    )
    (property "Datasheet" "~" (id 3) (at 118.618 59.055 0)
      (effects (font (size 1.27 1.27)) hide)
    )
    (pin "1" (uuid 9cb71a0f-2463-4505-adc6-293bb500cd50))
    (pin "10" (uuid 911a987a-f7b7-4f3a-b098-b4dd0cc44efb))
    (pin "2" (uuid 076515fa-6713-4566-b8a6-b6de8211f50f))
    (pin "3" (uuid 19f3d973-79b2-46fc-bf07-a1ce2698ad4a))
    (pin "4" (uuid e43320a7-d95d-477a-95dd-6a01a2156f54))
    (pin "5" (uuid 5d9bd93e-ca37-4733-bdae-195d5226dc74))
    (pin "6" (uuid a8ed6fa1-be3c-429c-9719-1b9667d1bf33))
    (pin "7" (uuid 7c6b5fe3-6f63-4ba1-bc17-85cdb11496ea))
    (pin "8" (uuid c7f8b6e6-a458-443e-91b5-94617d8aab3c))
    (pin "9" (uuid 3e4a703e-aa88-40e1-99f6-41a566c52c0b))
  )

  (symbol (lib_id "power:GND") (at 126.238 59.055 90) (unit 1)
    (in_bom yes) (on_board yes) (fields_autoplaced)
    (uuid 93216638-10fb-4743-8ebe-972bb6f9888d)
    (property "Reference" "#PWR?" (id 0) (at 132.588 59.055 0)
      (effects (font (size 1.27 1.27)) hide)
    )
    (property "Value" "GND" (id 1) (at 129.413 59.4888 90)
      (effects (font (size 1.27 1.27)) (justify right))
    )
    (property "Footprint" "" (id 2) (at 126.238 59.055 0)
      (effects (font (size 1.27 1.27)) hide)
    )
    (property "Datasheet" "" (id 3) (at 126.238 59.055 0)
      (effects (font (size 1.27 1.27)) hide)
    )
    (pin "1" (uuid b8c9765c-63a2-402f-9dab-eb15e9297a76))
  )

  (symbol (lib_id "Device:C_Small") (at 51.816 131.953 0) (unit 1)
    (in_bom yes) (on_board yes)
    (uuid 9aabb908-e99e-437f-a527-1e607dbfdc4e)
    (property "Reference" "C1" (id 0) (at 54.1528 130.7846 0)
      (effects (font (size 1.27 1.27)) (justify left))
    )
    (property "Value" "10u" (id 1) (at 54.1528 133.096 0)
      (effects (font (size 1.27 1.27)) (justify left))
    )
    (property "Footprint" "Capacitor_SMD:C_0805_2012Metric_Pad1.18x1.45mm_HandSolder" (id 2) (at 51.816 131.953 0)
      (effects (font (size 1.27 1.27)) hide)
    )
    (property "Datasheet" "~" (id 3) (at 51.816 131.953 0)
      (effects (font (size 1.27 1.27)) hide)
    )
    (pin "1" (uuid 3034411a-3f57-4087-8cb2-1666ebd4265d))
    (pin "2" (uuid a36da133-1f50-49a7-bb12-32c535f171f4))
  )

  (symbol (lib_id "power:GND") (at 243.586 59.055 90) (unit 1)
    (in_bom yes) (on_board yes) (fields_autoplaced)
    (uuid a48ff22d-0d61-4723-9e13-09228c71501a)
    (property "Reference" "#PWR?" (id 0) (at 249.936 59.055 0)
      (effects (font (size 1.27 1.27)) hide)
    )
    (property "Value" "GND" (id 1) (at 246.761 59.4888 90)
      (effects (font (size 1.27 1.27)) (justify right))
    )
    (property "Footprint" "" (id 2) (at 243.586 59.055 0)
      (effects (font (size 1.27 1.27)) hide)
    )
    (property "Datasheet" "" (id 3) (at 243.586 59.055 0)
      (effects (font (size 1.27 1.27)) hide)
    )
    (pin "1" (uuid 5ca5d91b-aafe-4c0f-a79f-04dcd1fb818e))
  )

  (symbol (lib_id "Connector_Generic:Conn_02x05_Odd_Even") (at 85.09 58.42 0) (unit 1)
    (in_bom yes) (on_board yes) (fields_autoplaced)
    (uuid ac03800b-fac3-4c86-a072-581a10a17db0)
    (property "Reference" "J2" (id 0) (at 86.36 48.3702 0))
    (property "Value" "Conn_02x05_Odd_Even" (id 1) (at 86.36 50.9071 0))
    (property "Footprint" "Connector_IDC:IDC-Header_2x05_P2.54mm_Vertical" (id 2) (at 85.09 58.42 0)
      (effects (font (size 1.27 1.27)) hide)
    )
    (property "Datasheet" "~" (id 3) (at 85.09 58.42 0)
      (effects (font (size 1.27 1.27)) hide)
    )
    (pin "1" (uuid 522cd8d2-e4a3-4010-b37a-59463ea3b62f))
    (pin "10" (uuid 39c4bdc9-b129-459b-9da6-7f9597564100))
    (pin "2" (uuid 9cfb77b7-8244-4f1e-9dc9-5cfe661f9edf))
    (pin "3" (uuid da17295d-a938-4105-9e8f-8d3d149bcc45))
    (pin "4" (uuid 762249c8-16a6-4f08-95cb-32b5443b8700))
    (pin "5" (uuid 39810cca-8dd7-479b-800b-9650eede403d))
    (pin "6" (uuid bb07115e-b4f4-402e-8458-f836c27b9db1))
    (pin "7" (uuid d0cae9d0-b4da-4e32-9c40-09a485b240ed))
    (pin "8" (uuid d654d3d1-a2bf-4282-84d7-15ed98a2ba47))
    (pin "9" (uuid 8aab19cf-d58d-4e1c-b8aa-f6ac8aa58311))
  )

  (symbol (lib_id "Regulator_Linear:AZ1117-3.3") (at 72.771 128.778 0) (unit 1)
    (in_bom yes) (on_board yes)
    (uuid c7a4b20f-90a3-417f-ab39-ac6cb6e9b2a9)
    (property "Reference" "U1" (id 0) (at 72.771 122.6312 0))
    (property "Value" "AZ1117-3.3" (id 1) (at 72.771 124.9426 0))
    (property "Footprint" "Package_TO_SOT_SMD:SOT-223-3_TabPin2" (id 2) (at 72.771 122.428 0)
      (effects (font (size 1.27 1.27) italic) hide)
    )
    (property "Datasheet" "https://www.diodes.com/assets/Datasheets/AZ1117.pdf" (id 3) (at 72.771 128.778 0)
      (effects (font (size 1.27 1.27)) hide)
    )
    (pin "1" (uuid fdab5757-ccf1-4c69-bbc6-67706b8ca04a))
    (pin "2" (uuid 13c5ef16-b451-47c1-9e97-c3155fca69d1))
    (pin "3" (uuid da93e4d6-fa83-49d4-8d20-f89459933436))
  )

  (symbol (lib_id "Connector_Generic:Conn_02x04_Top_Bottom") (at 74.422 102.235 90) (unit 1)
    (in_bom yes) (on_board yes) (fields_autoplaced)
    (uuid c7b045f8-a7d2-4ded-8b94-a5d317d3cc31)
    (property "Reference" "J6" (id 0) (at 81.534 100.1303 90)
      (effects (font (size 1.27 1.27)) (justify right))
    )
    (property "Value" "I2C_interface" (id 1) (at 81.534 102.6672 90)
      (effects (font (size 1.27 1.27)) (justify right))
    )
    (property "Footprint" "my_modules:connector_pcb" (id 2) (at 74.422 102.235 0)
      (effects (font (size 1.27 1.27)) hide)
    )
    (property "Datasheet" "~" (id 3) (at 74.422 102.235 0)
      (effects (font (size 1.27 1.27)) hide)
    )
    (pin "1" (uuid a2635188-913c-46c0-9f7c-2d4257434248))
    (pin "2" (uuid 326d16e2-6434-45e0-abbf-73fa5dacfc51))
    (pin "3" (uuid 59d97c15-763a-432c-be5c-dc50c4084d59))
    (pin "4" (uuid b1e24b12-ef15-4440-b8c7-f6ff123134ba))
    (pin "5" (uuid 5ba9ca5f-b923-4797-9257-f68a6f3a42a5))
    (pin "6" (uuid 4e358809-087c-4f85-9fd8-e7c738fed480))
    (pin "7" (uuid 9f0f3d3d-5591-4d8e-86ac-453e3a0ee0ae))
    (pin "8" (uuid 42a4ee55-44e6-43cd-9a14-cbffe6434a6f))
  )

  (symbol (lib_id "power:GND") (at 112.395 59.055 270) (unit 1)
    (in_bom yes) (on_board yes) (fields_autoplaced)
    (uuid ccb245e6-a483-4313-b9b4-78db7e11e2ad)
    (property "Reference" "#PWR?" (id 0) (at 106.045 59.055 0)
      (effects (font (size 1.27 1.27)) hide)
    )
    (property "Value" "GND" (id 1) (at 113.03 59.4888 90)
      (effects (font (size 1.27 1.27)) (justify left))
    )
    (property "Footprint" "" (id 2) (at 112.395 59.055 0)
      (effects (font (size 1.27 1.27)) hide)
    )
    (property "Datasheet" "" (id 3) (at 112.395 59.055 0)
      (effects (font (size 1.27 1.27)) hide)
    )
    (pin "1" (uuid 0f6c21b8-8cda-406d-8564-c744034f285a))
  )

  (symbol (lib_id "power:+5V") (at 235.331 47.879 0) (unit 1)
    (in_bom yes) (on_board yes)
    (uuid d69639f9-05b3-4059-852d-13df22ebc708)
    (property "Reference" "#PWR05" (id 0) (at 235.331 51.689 0)
      (effects (font (size 1.27 1.27)) hide)
    )
    (property "Value" "+5V" (id 1) (at 235.712 43.4848 0))
    (property "Footprint" "" (id 2) (at 235.331 47.879 0)
      (effects (font (size 1.27 1.27)) hide)
    )
    (property "Datasheet" "" (id 3) (at 235.331 47.879 0)
      (effects (font (size 1.27 1.27)) hide)
    )
    (pin "1" (uuid 6cc1c061-2f20-44e2-a980-504c55dcb7f5))
  )

  (symbol (lib_id "power:GND") (at 226.314 59.055 270) (unit 1)
    (in_bom yes) (on_board yes) (fields_autoplaced)
    (uuid da0aa0b1-eb2a-4dcd-90c0-5c4fc92b097f)
    (property "Reference" "#PWR?" (id 0) (at 219.964 59.055 0)
      (effects (font (size 1.27 1.27)) hide)
    )
    (property "Value" "GND" (id 1) (at 226.949 59.4888 90)
      (effects (font (size 1.27 1.27)) (justify left))
    )
    (property "Footprint" "" (id 2) (at 226.314 59.055 0)
      (effects (font (size 1.27 1.27)) hide)
    )
    (property "Datasheet" "" (id 3) (at 226.314 59.055 0)
      (effects (font (size 1.27 1.27)) hide)
    )
    (pin "1" (uuid 5fddd477-f158-4544-b5b3-06e7d4f6f02c))
  )

  (symbol (lib_id "luchabot-rescue:+3.3V-power") (at 92.71 63.5 270) (unit 1)
    (in_bom yes) (on_board yes)
    (uuid e1a6fecc-9d70-46c1-a896-baa0f793f5a2)
    (property "Reference" "#PWR017" (id 0) (at 88.9 63.5 0)
      (effects (font (size 1.27 1.27)) hide)
    )
    (property "Value" "+3.3V" (id 1) (at 97.1042 63.881 0))
    (property "Footprint" "" (id 2) (at 92.71 63.5 0)
      (effects (font (size 1.27 1.27)) hide)
    )
    (property "Datasheet" "" (id 3) (at 92.71 63.5 0)
      (effects (font (size 1.27 1.27)) hide)
    )
    (pin "1" (uuid 1264a1ea-d974-43db-830b-aa9adfb6ead7))
  )

  (symbol (lib_id "power:GND") (at 92.71 58.42 90) (unit 1)
    (in_bom yes) (on_board yes) (fields_autoplaced)
    (uuid e1cb82d7-d0a4-4d5a-9aba-5f8a92f3a56d)
    (property "Reference" "#PWR?" (id 0) (at 99.06 58.42 0)
      (effects (font (size 1.27 1.27)) hide)
    )
    (property "Value" "GND" (id 1) (at 95.885 58.8538 90)
      (effects (font (size 1.27 1.27)) (justify right))
    )
    (property "Footprint" "" (id 2) (at 92.71 58.42 0)
      (effects (font (size 1.27 1.27)) hide)
    )
    (property "Datasheet" "" (id 3) (at 92.71 58.42 0)
      (effects (font (size 1.27 1.27)) hide)
    )
    (pin "1" (uuid 272ec8dd-2758-4850-a75c-72aca29ccdcd))
  )

  (symbol (lib_id "Connector_Generic:Conn_02x05_Odd_Even") (at 233.68 59.055 0) (unit 1)
    (in_bom yes) (on_board yes) (fields_autoplaced)
    (uuid ef0a918b-50cc-4d5e-937e-10c9286c6620)
    (property "Reference" "J5" (id 0) (at 234.95 49.0052 0))
    (property "Value" "Conn_02x05_Odd_Even" (id 1) (at 234.95 51.5421 0))
    (property "Footprint" "Connector_IDC:IDC-Header_2x05_P2.54mm_Vertical" (id 2) (at 233.68 59.055 0)
      (effects (font (size 1.27 1.27)) hide)
    )
    (property "Datasheet" "~" (id 3) (at 233.68 59.055 0)
      (effects (font (size 1.27 1.27)) hide)
    )
    (pin "1" (uuid 97af815c-c221-4511-b368-c376da5d7b4b))
    (pin "10" (uuid 7711b2e0-b895-453d-9f44-f0f528e77ae2))
    (pin "2" (uuid db12eb9a-6d12-4437-b729-d6e205152a50))
    (pin "3" (uuid 8c74c81e-f098-40d7-bff7-8a7bcb173478))
    (pin "4" (uuid 4f79af57-3ded-41a9-8166-08fd1e79657c))
    (pin "5" (uuid 021bbf1f-b3bb-429a-a977-85e6a965645b))
    (pin "6" (uuid 0bd8990f-1196-4ca7-b2b1-2f01ea5e275c))
    (pin "7" (uuid 1aee1755-d558-4010-a28a-ab1a02e0308a))
    (pin "8" (uuid e888973f-006d-4848-acfc-cc00a5e16282))
    (pin "9" (uuid 788dc9cf-737e-41c2-b0d8-b00ffe8d8b23))
  )

  (symbol (lib_id "power:GND") (at 148.717 58.039 270) (unit 1)
    (in_bom yes) (on_board yes) (fields_autoplaced)
    (uuid f5f70adc-8608-4d55-b010-e47da15be662)
    (property "Reference" "#PWR?" (id 0) (at 142.367 58.039 0)
      (effects (font (size 1.27 1.27)) hide)
    )
    (property "Value" "GND" (id 1) (at 149.352 58.4728 90)
      (effects (font (size 1.27 1.27)) (justify left))
    )
    (property "Footprint" "" (id 2) (at 148.717 58.039 0)
      (effects (font (size 1.27 1.27)) hide)
    )
    (property "Datasheet" "" (id 3) (at 148.717 58.039 0)
      (effects (font (size 1.27 1.27)) hide)
    )
    (pin "1" (uuid b9b3525d-30b7-45ea-9bc7-6da615ff05a5))
  )

  (symbol (lib_id "power:+5V") (at 157.861 46.863 0) (unit 1)
    (in_bom yes) (on_board yes)
    (uuid fa3fdbe1-aadf-4118-978b-24316697f6bc)
    (property "Reference" "#PWR01" (id 0) (at 157.861 50.673 0)
      (effects (font (size 1.27 1.27)) hide)
    )
    (property "Value" "+5V" (id 1) (at 158.242 42.4688 0))
    (property "Footprint" "" (id 2) (at 157.861 46.863 0)
      (effects (font (size 1.27 1.27)) hide)
    )
    (property "Datasheet" "" (id 3) (at 157.861 46.863 0)
      (effects (font (size 1.27 1.27)) hide)
    )
    (pin "1" (uuid f3b52f57-067e-45e7-922e-35fd045d5d28))
  )

  (symbol (lib_id "power:GND") (at 165.989 58.039 90) (unit 1)
    (in_bom yes) (on_board yes) (fields_autoplaced)
    (uuid fc7ebf81-4176-4b32-8160-7913a454b549)
    (property "Reference" "#PWR?" (id 0) (at 172.339 58.039 0)
      (effects (font (size 1.27 1.27)) hide)
    )
    (property "Value" "GND" (id 1) (at 169.164 58.4728 90)
      (effects (font (size 1.27 1.27)) (justify right))
    )
    (property "Footprint" "" (id 2) (at 165.989 58.039 0)
      (effects (font (size 1.27 1.27)) hide)
    )
    (property "Datasheet" "" (id 3) (at 165.989 58.039 0)
      (effects (font (size 1.27 1.27)) hide)
    )
    (pin "1" (uuid cb3d3873-31d4-439f-b951-167fe6ea4942))
  )

  (sheet_instances
    (path "/" (page "1"))
  )

  (symbol_instances
    (path "/fa3fdbe1-aadf-4118-978b-24316697f6bc"
      (reference "#PWR01") (unit 1) (value "+5V") (footprint "")
    )
    (path "/7b45515f-13db-4803-9400-effe3fafadf8"
      (reference "#PWR02") (unit 1) (value "+5V") (footprint "")
    )
    (path "/00b81287-dccb-4311-af46-fff4c2194970"
      (reference "#PWR03") (unit 1) (value "+5V") (footprint "")
    )
    (path "/4a2ed7aa-e57a-49df-a89d-2f791c566f0c"
      (reference "#PWR04") (unit 1) (value "+5V") (footprint "")
    )
    (path "/d69639f9-05b3-4059-852d-13df22ebc708"
      (reference "#PWR05") (unit 1) (value "+5V") (footprint "")
    )
    (path "/0d1ac4b4-193b-4a7f-9cb3-ffaca4bba4af"
      (reference "#PWR016") (unit 1) (value "+3.3V") (footprint "")
    )
    (path "/e1a6fecc-9d70-46c1-a896-baa0f793f5a2"
      (reference "#PWR017") (unit 1) (value "+3.3V") (footprint "")
    )
    (path "/77325044-07ee-4bd5-ae72-75bc3d5fb6cf"
      (reference "#PWR018") (unit 1) (value "+3.3V") (footprint "")
    )
    (path "/3fc60bd6-514f-4918-820c-2e3cc7a9f383"
      (reference "#PWR019") (unit 1) (value "+3.3V") (footprint "")
    )
    (path "/12c63f65-2ce1-4d69-96a7-13511a8250fd"
      (reference "#PWR020") (unit 1) (value "+3.3V") (footprint "")
    )
    (path "/249cad87-ad2f-4c92-8871-b4ba4fce8661"
      (reference "#PWR021") (unit 1) (value "+5V") (footprint "")
    )
    (path "/08b80bf8-68e9-4f4a-9f01-9536166657a4"
      (reference "#PWR023") (unit 1) (value "+5V") (footprint "")
    )
    (path "/234e3420-3f3e-4a7e-87e1-0f3fe3de0835"
      (reference "#PWR024") (unit 1) (value "+3.3V") (footprint "")
    )
    (path "/0a0defb9-8578-4a78-bf33-4306da52d3ae"
      (reference "#PWR?") (unit 1) (value "GND") (footprint "")
    )
    (path "/25a9b1f1-3dd8-4ff8-b7c7-5f732f7449fb"
      (reference "#PWR?") (unit 1) (value "GND") (footprint "")
    )
    (path "/4362323d-128c-483f-b0a1-ae42dbaee493"
      (reference "#PWR?") (unit 1) (value "GND") (footprint "")
    )
    (path "/61b37380-a154-4641-b470-a28960d6d574"
      (reference "#PWR?") (unit 1) (value "GND") (footprint "")
    )
    (path "/72acf18a-6885-480f-9c5b-8a2d6f92e8b6"
      (reference "#PWR?") (unit 1) (value "GND") (footprint "")
    )
    (path "/93216638-10fb-4743-8ebe-972bb6f9888d"
      (reference "#PWR?") (unit 1) (value "GND") (footprint "")
    )
    (path "/a48ff22d-0d61-4723-9e13-09228c71501a"
      (reference "#PWR?") (unit 1) (value "GND") (footprint "")
    )
    (path "/ccb245e6-a483-4313-b9b4-78db7e11e2ad"
      (reference "#PWR?") (unit 1) (value "GND") (footprint "")
    )
    (path "/da0aa0b1-eb2a-4dcd-90c0-5c4fc92b097f"
      (reference "#PWR?") (unit 1) (value "GND") (footprint "")
    )
    (path "/e1cb82d7-d0a4-4d5a-9aba-5f8a92f3a56d"
      (reference "#PWR?") (unit 1) (value "GND") (footprint "")
    )
    (path "/f5f70adc-8608-4d55-b010-e47da15be662"
      (reference "#PWR?") (unit 1) (value "GND") (footprint "")
    )
    (path "/fc7ebf81-4176-4b32-8160-7913a454b549"
      (reference "#PWR?") (unit 1) (value "GND") (footprint "")
    )
    (path "/9aabb908-e99e-437f-a527-1e607dbfdc4e"
      (reference "C1") (unit 1) (value "10u") (footprint "Capacitor_SMD:C_0805_2012Metric_Pad1.18x1.45mm_HandSolder")
    )
    (path "/0b738c03-71b9-4047-9150-67a402c88235"
      (reference "C2") (unit 1) (value "0.1u") (footprint "Capacitor_SMD:C_0805_2012Metric_Pad1.18x1.45mm_HandSolder")
    )
    (path "/7b65442a-ba7e-4ee9-b129-bbbe335a3caa"
      (reference "C3") (unit 1) (value "10u") (footprint "Capacitor_SMD:C_0805_2012Metric_Pad1.18x1.45mm_HandSolder")
    )
    (path "/72705157-4619-465c-8acb-3e0678f462bb"
      (reference "J1") (unit 1) (value "Conn_02x05_Odd_Even") (footprint "Connector_IDC:IDC-Header_2x05_P2.54mm_Vertical")
    )
    (path "/ac03800b-fac3-4c86-a072-581a10a17db0"
      (reference "J2") (unit 1) (value "Conn_02x05_Odd_Even") (footprint "Connector_IDC:IDC-Header_2x05_P2.54mm_Vertical")
    )
    (path "/028a3322-467e-4ef7-b5f3-035d6259c4b0"
      (reference "J3") (unit 1) (value "Conn_02x05_Odd_Even") (footprint "Connector_IDC:IDC-Header_2x05_P2.54mm_Vertical")
    )
    (path "/8b7e852a-7f6b-4d69-b89a-49a975c369cc"
      (reference "J4") (unit 1) (value "Conn_02x05_Odd_Even") (footprint "Connector_IDC:IDC-Header_2x05_P2.54mm_Vertical")
    )
    (path "/ef0a918b-50cc-4d5e-937e-10c9286c6620"
      (reference "J5") (unit 1) (value "Conn_02x05_Odd_Even") (footprint "Connector_IDC:IDC-Header_2x05_P2.54mm_Vertical")
    )
    (path "/c7b045f8-a7d2-4ded-8b94-a5d317d3cc31"
      (reference "J6") (unit 1) (value "I2C_interface") (footprint "my_modules:connector_pcb")
    )
    (path "/c7a4b20f-90a3-417f-ab39-ac6cb6e9b2a9"
      (reference "U1") (unit 1) (value "AZ1117-3.3") (footprint "Package_TO_SOT_SMD:SOT-223-3_TabPin2")
    )
  )
)
