M48
; DRILL file {KiCad 6.0.10} date Fri 17 Nov 2023 06:03:46 PM CST
; FORMAT={-:-/ absolute / metric / decimal}
; #@! TF.CreationDate,2023-11-17T18:03:46-06:00
; #@! TF.GenerationSoftware,Kicad,Pcbnew,6.0.10
; #@! TF.FileFunction,Plated,1,2,PTH
FMAT,2
METRIC
; #@! TA.AperFunction,Plated,PTH,ViaDrill
T1C0.400
; #@! TA.AperFunction,Plated,PTH,ComponentDrill
T2C1.000
%
G90
G05
T1
X116.84Y-72.644
X118.364Y-84.074
X118.745Y-70.104
X120.142Y-72.771
X121.031Y-86.233
X127.254Y-79.629
T2
X109.23Y-72.263
X109.23Y-74.803
X109.23Y-77.343
X109.23Y-79.883
X109.23Y-82.423
X111.769Y-72.263
X111.769Y-74.803
X111.769Y-77.343
X111.769Y-79.883
X111.769Y-82.423
T0
M30
